FPGA1/obj/eth_packer.vcd
$date
	Sun Nov 13 14:23:34 2022
$end
$version
	Icarus Verilog
$end
$timescale
	1ps
$end
$scope module eth_packer_tb $end
$var wire 1 ! stall $end
$var wire 1 " phy_txen $end
$var wire 2 # phy_txd [1:0] $end
$var reg 2 $ axiid [1:0] $end
$var reg 1 % axiiv $end
$var reg 32 & cksum1 [31:0] $end
$var reg 1 ' clk $end
$var reg 168 ( message1 [167:0] $end
$var reg 1 ) rst $end
$scope module eth_packer $end
$var wire 2 * axiid [1:0] $end
$var wire 1 % axiiv $end
$var wire 1 + cksum_calculated $end
$var wire 1 ' clk $end
$var wire 1 ) rst $end
$var wire 32 , cksum [31:0] $end
$var reg 9 - audio_counter [8:0] $end
$var reg 3 . byte_bit_counter [2:0] $end
$var reg 1 / cksum_axiiv $end
$var reg 1 0 crc32rst $end
$var reg 13 1 dibit_counter [12:0] $end
$var reg 2 2 phy_txd [1:0] $end
$var reg 1 " phy_txen $end
$var reg 1 ! stall $end
$var reg 4 3 state [3:0] $end
$scope module crc32 $end
$var wire 2 4 axiid [1:0] $end
$var wire 1 / axiiv $end
$var wire 32 5 axiod [31:0] $end
$var wire 1 + axiov $end
$var wire 1 ' clk $end
$var wire 1 0 rst $end
$var reg 32 6 caxiod [31:0] $end
$var reg 32 7 saxiod [31:0] $end
$var integer 32 8 i [31:0] $end
$upscope $end
$upscope $end
$scope begin $ivl_for_loop0 $end
$var integer 32 9 i [31:0] $end
$upscope $end
$scope begin $ivl_for_loop1 $end
$var integer 32 : i [31:0] $end
$upscope $end
$scope begin $ivl_for_loop2 $end
$var integer 32 ; i [31:0] $end
$upscope $end
$scope begin $ivl_for_loop3 $end
$var integer 32 < i [31:0] $end
$upscope $end
$scope begin $ivl_for_loop4 $end
$var integer 32 = i [31:0] $end
$upscope $end
$scope begin $ivl_for_loop5 $end
$var integer 32 > i [31:0] $end
$upscope $end
$scope begin $ivl_for_loop6 $end
$var integer 32 ? i [31:0] $end
$upscope $end
$scope begin $ivl_for_loop7 $end
$var integer 32 @ i [31:0] $end
$upscope $end
$upscope $end
$enddefinitions $end
#0
$dumpvars
b0 @
b0 ?
b0 >
b0 =
b0 <
b0 ;
b0 :
b0 9
bx 8
bx 7
bx 6
bx 5
bx 4
bx 3
bx 2
bx 1
x0
0/
bx .
bx -
bx ,
1+
bx *
0)
b10000100110000101110010011100100111100100100001001000000100001001110010011001010110000101101011011001100110000101110011011101000010000001110100011010010110110101100101 (
0'
b11010001110101100110010110010 &
x%
bx $
bx #
x"
x!
$end
#10000000000000
1'
#20000000000000
0'
1)
#30000000000000
b100000 8
1!
b0 #
b0 2
b0 4
0"
b0 1
10
b0 -
b0 .
b0 3
1'
#40000000000000
0'
0)
#50000000000000
b11110010101111001101100100100101 7
b100000 8
b0 ,
b0 5
b11111111111111111111111111111111 6
b1 1
00
1'
b0 $
b0 *
1%
#60000000000000
0'
#70000000000000
b10 1
1'
b1 9
#80000000000000
0'
#90000000000000
b11 1
1'
b10 9
#100000000000000
0'
#110000000000000
b100 1
1'
b11 9
#120000000000000
0'
#130000000000000
b101 1
1'
b100 9
#140000000000000
0'
#150000000000000
b110 1
1'
b101 9
#160000000000000
0'
#170000000000000
b111 1
1'
b110 9
#180000000000000
0'
#190000000000000
b1000 1
1'
b111 9
#200000000000000
0'
#210000000000000
b1001 1
1'
b1000 9
#220000000000000
0'
#230000000000000
b1010 1
1'
b1001 9
#240000000000000
0'
#250000000000000
b1011 1
1'
b1010 9
#260000000000000
0'
#270000000000000
b1100 1
1'
b1011 9
#280000000000000
0'
#290000000000000
b1101 1
1'
b1100 9
#300000000000000
0'
#310000000000000
b1110 1
1'
b1101 9
#320000000000000
0'
#330000000000000
b1111 1
1'
b1110 9
#340000000000000
0'
#350000000000000
b10000 1
1'
b1111 9
#360000000000000
0'
#370000000000000
b10001 1
1'
b10000 9
#380000000000000
0'
#390000000000000
b10010 1
1'
b10001 9
#400000000000000
0'
#410000000000000
b10011 1
1'
b10010 9
#420000000000000
0'
#430000000000000
b10100 1
1'
b10011 9
#440000000000000
0'
#450000000000000
b10101 1
1'
b10100 9
#460000000000000
0'
#470000000000000
b10110 1
1'
b10101 9
#480000000000000
0'
#490000000000000
b10111 1
1'
b10110 9
#500000000000000
0'
#510000000000000
b11000 1
1'
b10111 9
#520000000000000
0'
#530000000000000
b11001 1
1'
b11000 9
#540000000000000
0'
#550000000000000
b11010 1
1'
b11001 9
#560000000000000
0'
#570000000000000
b11011 1
1'
b11010 9
#580000000000000
0'
#590000000000000
b11100 1
1'
b11011 9
#600000000000000
0'
#610000000000000
b11101 1
1'
b11100 9
#620000000000000
0'
#630000000000000
b11110 1
1'
b11101 9
#640000000000000
0'
#650000000000000
b11111 1
1'
b11110 9
#660000000000000
0'
#670000000000000
b100000 1
1'
b11111 9
#680000000000000
0'
#690000000000000
b100001 1
1'
b100000 9
#700000000000000
0'
#710000000000000
b100010 1
1'
b100001 9
#720000000000000
0'
#730000000000000
b100011 1
1'
b100010 9
#740000000000000
0'
#750000000000000
b100100 1
1'
b100011 9
#760000000000000
0'
#770000000000000
b100101 1
1'
b100100 9
#780000000000000
0'
#790000000000000
b100110 1
1'
b100101 9
#800000000000000
0'
#810000000000000
b100111 1
1'
b100110 9
#820000000000000
0'
#830000000000000
b101000 1
1'
b100111 9
#840000000000000
0'
#850000000000000
b101001 1
1'
b101000 9
#860000000000000
0'
#870000000000000
b101010 1
1'
b101001 9
#880000000000000
0'
#890000000000000
b101011 1
1'
b101010 9
#900000000000000
0'
#910000000000000
b101100 1
1'
b101011 9
#920000000000000
0'
#930000000000000
b101101 1
1'
b101100 9
#940000000000000
0'
#950000000000000
b101110 1
1'
b101101 9
#960000000000000
0'
#970000000000000
b101111 1
1'
b101110 9
#980000000000000
0'
#990000000000000
b11111011001111101110001001001011 7
b100000 8
b1 #
b1 2
b1 4
1"
b1 3
b0 1
1'
b1 $
b1 *
b101111 9
#1000000000000000
0'
#1010000000000000
b1 1
1'
b1 :
#1020000000000000
0'
#1030000000000000
b10 1
1'
b10 :
#1040000000000000
0'
#1050000000000000
b11 1
1'
b11 :
#1060000000000000
0'
#1070000000000000
b100 1
1'
b100 :
#1080000000000000
0'
#1090000000000000
b101 1
1'
b101 :
#1100000000000000
0'
#1110000000000000
b110 1
1'
b110 :
#1120000000000000
0'
#1130000000000000
b111 1
1'
b111 :
#1140000000000000
0'
#1150000000000000
b1000 1
1'
b1000 :
#1160000000000000
0'
#1170000000000000
b1001 1
1'
b1001 :
#1180000000000000
0'
#1190000000000000
b1010 1
1'
b1010 :
#1200000000000000
0'
#1210000000000000
b1011 1
1'
b1011 :
#1220000000000000
0'
#1230000000000000
b1100 1
1'
b1100 :
#1240000000000000
0'
#1250000000000000
b1101 1
1'
b1101 :
#1260000000000000
0'
#1270000000000000
b1110 1
1'
b1110 :
#1280000000000000
0'
#1290000000000000
b1111 1
1'
b1111 :
#1300000000000000
0'
#1310000000000000
b10000 1
1'
b10000 :
#1320000000000000
0'
#1330000000000000
b10001 1
1'
b10001 :
#1340000000000000
0'
#1350000000000000
b10010 1
1'
b10010 :
#1360000000000000
0'
#1370000000000000
b10011 1
1'
b10011 :
#1380000000000000
0'
#1390000000000000
b10100 1
1'
b10100 :
#1400000000000000
0'
#1410000000000000
b10101 1
1'
b10101 :
#1420000000000000
0'
#1430000000000000
b10110 1
1'
b10110 :
#1440000000000000
0'
#1450000000000000
b10111 1
1'
b10111 :
#1460000000000000
0'
#1470000000000000
b11000 1
1'
b11000 :
#1480000000000000
0'
#1490000000000000
b11001 1
1'
b11001 :
#1500000000000000
0'
#1510000000000000
b11010 1
1'
b11010 :
#1520000000000000
0'
#1530000000000000
b11011 1
1'
b11011 :
#1540000000000000
0'
#1550000000000000
b11100 1
1'
b11100 :
#1560000000000000
0'
#1570000000000000
b11101 1
1'
b11101 :
#1580000000000000
0'
#1590000000000000
b11110 1
1'
b11110 :
#1600000000000000
0'
#1610000000000000
b11111 1
b11111111111111111111111111111100 7
b100000 8
b11 #
b11 2
b11 4
1'
b11 $
b11 *
b11111 :
#1620000000000000
0'
#1630000000000000
1/
b10 3
b0 1
1'
#1640000000000000
0'
#1650000000000000
b11111111111111111111111111110000 7
b100000 8
b11 ,
b11 5
b11111111111111111111111111111100 6
b1 1
1'
b1 ;
#1660000000000000
0'
#1670000000000000
b11111111111111111111111111000000 7
b100000 8
b1111 ,
b1111 5
b10 1
b11111111111111111111111111110000 6
1'
b10 ;
#1680000000000000
0'
#1690000000000000
b11111111111111111111111100000000 7
b100000 8
b111111 ,
b111111 5
b11111111111111111111111111000000 6
b11 1
1'
b11 ;
#1700000000000000
0'
#1710000000000000
b11111111111111111111110000000000 7
b100000 8
b11111111 ,
b11111111 5
b100 1
b11111111111111111111111100000000 6
1'
b100 ;
#1720000000000000
0'
#1730000000000000
b11111111111111111111000000000000 7
b100000 8
b1111111111 ,
b1111111111 5
b11111111111111111111110000000000 6
b101 1
1'
b101 ;
#1740000000000000
0'
#1750000000000000
b11111111111111111100000000000000 7
b100000 8
b111111111111 ,
b111111111111 5
b110 1
b11111111111111111111000000000000 6
1'
b110 ;
#1760000000000000
0'
#1770000000000000
b11111111111111110000000000000000 7
b100000 8
b11111111111111 ,
b11111111111111 5
b11111111111111111100000000000000 6
b111 1
1'
b111 ;
#1780000000000000
0'
#1790000000000000
b11111111111111000000000000000000 7
b100000 8
b1111111111111111 ,
b1111111111111111 5
b1000 1
b11111111111111110000000000000000 6
1'
b1000 ;
#1800000000000000
0'
#1810000000000000
b11111111111100000000000000000000 7
b100000 8
b111111111111111111 ,
b111111111111111111 5
b11111111111111000000000000000000 6
b1001 1
1'
b1001 ;
#1820000000000000
0'
#1830000000000000
b11111111110000000000000000000000 7
b100000 8
b11111111111111111111 ,
b11111111111111111111 5
b1010 1
b11111111111100000000000000000000 6
1'
b1010 ;
#1840000000000000
0'
#1850000000000000
b11111111000000000000000000000000 7
b100000 8
b1111111111111111111111 ,
b1111111111111111111111 5
b11111111110000000000000000000000 6
b1011 1
1'
b1011 ;
#1860000000000000
0'
#1870000000000000
b11111100000000000000000000000000 7
b100000 8
b111111111111111111111111 ,
b111111111111111111111111 5
b1100 1
b11111111000000000000000000000000 6
1'
b1100 ;
#1880000000000000
0'
#1890000000000000
b11110000000000000000000000000000 7
b100000 8
b11111111111111111111111111 ,
b11111111111111111111111111 5
b11111100000000000000000000000000 6
b1101 1
1'
b1101 ;
#1900000000000000
0'
#1910000000000000
b11000000000000000000000000000000 7
b100000 8
b1111111111111111111111111111 ,
b1111111111111111111111111111 5
b1110 1
b11110000000000000000000000000000 6
1'
b1110 ;
#1920000000000000
0'
#1930000000000000
b0 7
b100000 8
b111111111111111111111111111111 ,
b111111111111111111111111111111 5
b11000000000000000000000000000000 6
b1111 1
1'
b1111 ;
#1940000000000000
0'
#1950000000000000
b1101010000110010011011011001 7
b100000 8
b11111111111111111111111111111111 ,
b11111111111111111111111111111111 5
b10000 1
b0 6
1'
b10000 ;
#1960000000000000
0'
#1970000000000000
b111000010011111011110110111101 7
b100000 8
b11110010101111001101100100100110 ,
b11110010101111001101100100100110 5
b1101010000110010011011011001 6
b10001 1
1'
b10001 ;
#1980000000000000
0'
#1990000000000000
b11101100011111011101000000101101 7
b100000 8
b11000111101100000100001001000010 ,
b11000111101100000100001001000010 5
b10010 1
b111000010011111011110110111101 6
1'
b10010 ;
#2000000000000000
0'
#2010000000000000
b10110001111101110100000010110100 7
b100000 8
b10011100000100010111111010010 ,
b10011100000100010111111010010 5
b11101100011111011101000000101101 6
b10011 1
1'
b10011 ;
#2020000000000000
0'
#2030000000000000
b11000011000111000001111101100111 7
b100000 8
b1001110000010001011111101001011 ,
b1001110000010001011111101001011 5
b10100 1
b10110001111101110100000010110100 6
1'
b10100 ;
#2040000000000000
0'
#2050000000000000
b1100011100000111110110011100 7
b100000 8
b111100111000111110000010011000 ,
b111100111000111110000010011000 5
b11000011000111000001111101100111 6
b10101 1
1'
b10101 ;
#2060000000000000
0'
#2070000000000000
b111100100000101101000010101001 7
b100000 8
b11110011100011111000001001100011 ,
b11110011100011111000001001100011 5
b10110 1
b1100011100000111110110011100 6
1'
b10110 ;
#2080000000000000
0'
#2090000000000000
b11111111010010000110010001111101 7
b100000 8
b11000011011111010010111101010110 ,
b11000011011111010010111101010110 5
b111100100000101101000010101001 6
b10111 1
1'
b10111 ;
#2100000000000000
0'
#2110000000000000
b101101111001101110000010 ,
b101101111001101110000010 5
b11 3
b0 1
b11111111010010000110010001111101 6
b11110100101000111010101010011010 7
b100000 8
b10 #
b10 2
b10 4
1'
b10 $
b10 *
b11000 ;
#2120000000000000
0'
#2130000000000000
b11011011000011001001000100000110 7
b100000 8
b1011010111000101010101100101 ,
b1011010111000101010101100101 5
b11110100101000111010101010011010 6
b1 1
1'
b1 <
#2140000000000000
0'
#2150000000000000
b1100101101100000111111101110110 7
b100000 8
b100100111100110110111011111001 ,
b100100111100110110111011111001 5
b10 1
b11011011000011001001000100000110 6
1'
b10 <
#2160000000000000
0'
#2170000000000000
b10010110110000011111110111011000 7
b100000 8
b10011010010011111000000010001001 ,
b10011010010011111000000010001001 5
b1100101101100000111111101110110 6
b11 1
1'
b11 <
#2180000000000000
0'
#2190000000000000
b1010110010001001101000110111001 7
b100000 8
b1101001001111100000001000100111 ,
b1101001001111100000001000100111 5
b100 1
b10010110110000011111110111011000 6
1'
b100 <
#2200000000000000
0'
#2210000000000000
b1011001000100110100011011100100 7
b100000 8
b10101001101110110010111001000110 ,
b10101001101110110010111001000110 5
b1010110010001001101000110111001 6
b101 1
1'
b101 <
#2220000000000000
0'
#2230000000000000
b1100100010011010001101110010000 7
b100000 8
b10100110111011001011100100011011 ,
b10100110111011001011100100011011 5
b110 1
b1011001000100110100011011100100 6
1'
b110 <
#2240000000000000
0'
#2250000000000000
b10010001001101000110111001000000 7
b100000 8
b10011011101100101110010001101111 ,
b10011011101100101110010001101111 5
b1100100010011010001101110010000 6
b111 1
1'
b111 <
#2260000000000000
0'
#2270000000000000
b1001001100100101001111111011001 7
b100000 8
b1101110110010111001000110111111 ,
b1101110110010111001000110111111 5
b1000 1
b10010001001101000110111001000000 6
1'
b1000 <
#2280000000000000
0'
#2290000000000000
b100110010010100111111101100100 7
b100000 8
b10110110011011010110000000100110 ,
b10110110011011010110000000100110 5
b1001001100100101001111111011001 6
b1001 1
1'
b1001 <
#2300000000000000
0'
#2310000000000000
b10011101111010001110000000100111 7
b100000 8
b11011001101101011000000010011011 ,
b11011001101101011000000010011011 5
b1010 1
b100110010010100111111101100100 6
1'
b1010 <
#2320000000000000
0'
#2330000000000000
b1111010111000001010011001000101 7
b100000 8
b1100010000101110001111111011000 ,
b1100010000101110001111111011000 5
b10011101111010001110000000100111 6
b1011 1
1'
b1011 <
#2340000000000000
0'
#2350000000000000
b11101011100000101001100100010100 7
b100000 8
b10000101000111110101100110111010 ,
b10000101000111110101100110111010 5
b1100 1
b1111010111000001010011001000101 6
1'
b1100 <
#2360000000000000
0'
#2370000000000000
b10100111100010000101111100111110 7
b100000 8
b10100011111010110011011101011 ,
b10100011111010110011011101011 5
b11101011100000101001100100010100 6
b1101 1
1'
b1101 <
#2380000000000000
0'
#2390000000000000
b10010011011000100101101000100001 7
b100000 8
b1011000011101111010000011000001 ,
b1011000011101111010000011000001 5
b1110 1
b10100111100010000101111100111110 6
1'
b1110 <
#2400000000000000
0'
#2410000000000000
b1000000110010100100111001011101 7
b100000 8
b1101100100111011010010111011110 ,
b1101100100111011010010111011110 5
b10010011011000100101101000100001 6
b1111 1
1'
b1111 <
#2420000000000000
0'
#2430000000000000
b11001010010011100101110100 7
b100000 8
b10111111001101011011000110100010 ,
b10111111001101011011000110100010 5
b10000 1
b1000000110010100100111001011101 6
1'
b10000 <
#2440000000000000
0'
#2450000000000000
b1000011001011111100001100111 7
b100000 8
b11111100110101101100011010001011 ,
b11111100110101101100011010001011 5
b11001010010011100101110100 6
b10001 1
1'
b10001 <
#2460000000000000
0'
#2470000000000000
b100101010101101111110000101011 7
b100000 8
b11110111100110100000011110011000 ,
b11110111100110100000011110011000 5
b10010 1
b1000011001011111100001100111 6
1'
b10010 <
#2480000000000000
0'
#2490000000000000
b10010001100110101110110100011011 7
b100000 8
b11011010101010010000001111010100 ,
b11011010101010010000001111010100 5
b100101010101101111110000101011 6
b10011 1
1'
b10011 <
#2500000000000000
0'
#2510000000000000
b1001011001010001001001010110101 7
b100000 8
b1101110011001010001001011100100 ,
b1101110011001010001001011100100 5
b10100 1
b10010001100110101110110100011011 6
1'
b10100 <
#2520000000000000
0'
#2530000000000000
b101100101000100100101011010100 7
b100000 8
b10110100110101110110110101001010 ,
b10110100110101110110110101001010 5
b1001011001010001001001010110101 6
b10101 1
1'
b10101 <
#2540000000000000
0'
#2550000000000000
b10110110010010000011011011100111 7
b100000 8
b11010011010111011011010100101011 ,
b11010011010111011011010100101011 5
b10110 1
b101100101000100100101011010100 6
1'
b10110 <
#2560000000000000
0'
#2570000000000000
b11010100011000111111110101000101 7
b100000 8
b1001001101101111100100100011000 ,
b1001001101101111100100100011000 5
b10110110010010000011011011100111 6
b10111 1
1'
b10111 <
#2580000000000000
0'
#2590000000000000
b101011100111000000001010111010 ,
b101011100111000000001010111010 5
b100 3
b0 1
b11010100011000111111110101000101 6
b1010101010011101110100010100011 7
b100000 8
b1 #
b1 2
b1 4
1'
b1 $
b1 *
b11000 <
#2600000000000000
0'
#2610000000000000
b1011000011110001000010001010101 7
b100000 8
b10101010101100010001011101011100 ,
b10101010101100010001011101011100 5
b1010101010011101110100010100011 6
b1 1
1'
b1 =
#2620000000000000
0'
#2630000000000000
b1101100101000010011011110001101 7
b100000 8
b10100111100001110111101110101010 ,
b10100111100001110111101110101010 5
b10 1
b1011000011110001000010001010101 6
1'
b10 =
#2640000000000000
0'
#2650000000000000
b10111111110001111111100011101101 7
b100000 8
b10010011010111101100100001110010 ,
b10010011010111101100100001110010 5
b1101100101000010011011110001101 6
b11 1
1'
b11 =
#2660000000000000
0'
#2670000000000000
b11111111000111111110001110110100 7
b100000 8
b1000000001110000000011100010010 ,
b1000000001110000000011100010010 5
b100 1
b10111111110001111111100011101101 6
1'
b100 =
#2680000000000000
0'
#2690000000000000
b11111000101111101001001101100111 7
b100000 8
b111000000001110001001011 ,
b111000000001110001001011 5
b11111111000111111110001110110100 6
b101 1
1'
b101 =
#2700000000000000
0'
#2710000000000000
b11100110001110110101000000101011 7
b100000 8
b111010000010110110010011000 ,
b111010000010110110010011000 5
b110 1
b11111000101111101001001101100111 6
1'
b110 =
#2720000000000000
0'
#2730000000000000
b10011100001011000101110100011011 7
b100000 8
b11001110001001010111111010100 ,
b11001110001001010111111010100 5
b11100110001110110101000000101011 6
b111 1
1'
b111 =
#2740000000000000
0'
#2750000000000000
0!
b1100011110100111010001011100100 ,
b1100011110100111010001011100100 5
b101 3
b0 1
b10011100001011000101110100011011 6
b1110100011100000110100111011011 7
b100000 8
b11 #
b11 2
b11 4
1'
b11 $
b11 *
b1000 =
#2760000000000000
0'
#2770000000000000
b11011000010000111001110000000010 7
b100000 8
b10001011100011111001011000100100 ,
b10001011100011111001011000100100 5
b1110100011100000110100111011011 6
b1 1
1'
b1 >
#2780000000000000
0'
#2790000000000000
b1100001000011100111000000001000 7
b100000 8
b100111101111000110001111111101 ,
b100111101111000110001111111101 5
b10 1
b11011000010000111001110000000010 6
1'
b10 >
#2800000000000000
0'
#2810000000000000
b10001101101110111111101101001110 7
b100000 8
b10011110111100011000111111110111 ,
b10011110111100011000111111110111 5
b1100001000011100111000000001000 6
b11 1
1'
b11 >
#2820000000000000
0'
#2830000000000000
b110010001011101111000010001111 7
b100000 8
b1110010010001000000010010110001 ,
b1110010010001000000010010110001 5
b100 1
b10001101101110111111101101001110 6
1'
b100 >
#2840000000000000
0'
#2850000000000000
b11000101111110001110010011100101 7
b100000 8
b11001101110100010000111101110000 ,
b11001101110100010000111101110000 5
b110010001011101111000010001111 6
b101 1
1'
b101 >
#2860000000000000
0'
#2870000000000000
b10111111000111001001110010100 7
b100000 8
b111010000001110001101100011010 ,
b111010000001110001101100011010 5
b110 1
b11000101111110001110010011100101 6
1'
b110 >
#2880000000000000
0'
#2890000000000000
b1010010110011010110100010001001 7
b100000 8
b11101000000111000110110001101011 ,
b11101000000111000110110001101011 5
b10111111000111001001110010100 6
b111 1
1'
b111 >
#2900000000000000
0'
#2910000000000000
b1000010101101111001100101001010 7
b100000 8
b10101101001100101001011101110110 ,
b10101101001100101001011101110110 5
b1000 1
b1010010110011010110100010001001 6
1'
b1000 >
#2920000000000000
0'
#2930000000000000
b11010111000101111001000110 7
b100000 8
b10111101010010000110011010110101 ,
b10111101010010000110011010110101 5
b1000010101101111001100101001010 6
b1001 1
1'
b1001 >
#2940000000000000
0'
#2950000000000000
b1100100101111111000001 7
b100000 8
b11111100101000111010000110111001 ,
b11111100101000111010000110111001 5
b1010 1
b11010111000101111001000110 6
1'
b1010 >
#2960000000000000
0'
#2970000000000000
b1101100010100101100111011101 7
b100000 8
b11111111110011011010000000111110 ,
b11111111110011011010000000111110 5
b1100100101111111000001 6
b1011 1
1'
b1011 >
#2980000000000000
0'
#2990000000000000
b111011011010100100000110101101 7
b100000 8
b11110010011101011010011000100010 ,
b11110010011101011010011000100010 5
b1100 1
b1101100010100101100111011101 6
1'
b1100 >
#3000000000000000
0'
#3010000000000000
b11100000111010100010000001101101 7
b100000 8
b11000100100101011011111001010010 ,
b11000100100101011011111001010010 5
b111011011010100100000110101101 6
b1101 1
1'
b1101 >
#3020000000000000
0'
#3030000000000000
b10000011101010001000000110110100 7
b100000 8
b11111000101011101111110010010 ,
b11111000101011101111110010010 5
b1110 1
b11100000111010100010000001101101 6
1'
b1110 >
#3040000000000000
0'
#3050000000000000
b1010011000110001101101100111 7
b100000 8
b1111100010101110111111001001011 ,
b1111100010101110111111001001011 5
b10000011101010001000000110110100 6
b1111 1
1'
b1111 >
#3060000000000000
0'
#3070000000000000
b100100110011110100101101000101 7
b100000 8
b11110101100111001110010010011000 ,
b11110101100111001110010010011000 5
b10000 1
b1010011000110001101101100111 6
1'
b10000 >
#3080000000000000
0'
#3090000000000000
b10011110011111100000101111001101 7
b100000 8
b11011011001100001011010010111010 ,
b11011011001100001011010010111010 5
b100100110011110100101101000101 6
b10001 1
1'
b10001 >
#3100000000000000
0'
#3110000000000000
b1111101001110010011001010000011 7
b100000 8
b1100001100000011111010000110010 ,
b1100001100000011111010000110010 5
b10010 1
b10011110011111100000101111001101 6
1'
b10010 >
#3120000000000000
0'
#3130000000000000
b11111101011001101111000101100010 7
b100000 8
b10000010110001101100110101111100 ,
b10000010110001101100110101111100 5
b1111101001110010011001010000011 6
b10011 1
1'
b10011 >
#3140000000000000
0'
#3150000000000000
0/
b10100110010000111010011101 ,
b10100110010000111010011101 5
b110 3
b0 1
b11111101011001101111000101100010 6
b11111100000110011111111011100110 7
b100000 8
b10 #
b10 2
b10 4
1'
b10 $
b10 *
0%
b10100 >
#3160000000000000
0'
#3170000000000000
b11111000110110001110001101010001 7
b100000 8
b0 #
b0 2
b0 4
b1 1
b10 .
1'
b1 ?
#3180000000000000
0'
#3190000000000000
b10 1
b100 .
1'
b10 ?
#3200000000000000
0'
#3210000000000000
b11 1
b110 .
1'
b11 ?
#3220000000000000
0'
#3230000000000000
b11110001010110101101100000111111 7
b100000 8
b1 #
b1 2
b1 4
b100 1
b0 .
1'
b100 ?
#3240000000000000
0'
#3250000000000000
b11111100000110011111111011100110 7
b100000 8
b10 #
b10 2
b10 4
b101 1
b10 .
1'
b101 ?
#3260000000000000
0'
#3270000000000000
b11110001010110101101100000111111 7
b100000 8
b1 #
b1 2
b1 4
b110 1
b100 .
1'
b110 ?
#3280000000000000
0'
#3290000000000000
b11111100000110011111111011100110 7
b100000 8
b10 #
b10 2
b10 4
b111 1
b110 .
1'
b111 ?
#3300000000000000
0'
#3310000000000000
b1000 1
b0 .
1'
b1000 ?
#3320000000000000
0'
#3330000000000000
b11110101100110111100010110001000 7
b100000 8
b11 #
b11 2
b11 4
b1001 1
b10 .
1'
b1001 ?
#3340000000000000
0'
#3350000000000000
b11111000110110001110001101010001 7
b100000 8
b0 #
b0 2
b0 4
b1010 1
b100 .
1'
b1010 ?
#3360000000000000
0'
#3370000000000000
b1011 1
b110 .
1'
b1011 ?
#3380000000000000
0'
#3390000000000000
b11110001010110101101100000111111 7
b100000 8
b1 #
b1 2
b1 4
b1100 1
b0 .
1'
b1100 ?
#3400000000000000
0'
#3410000000000000
b11110101100110111100010110001000 7
b100000 8
b11 #
b11 2
b11 4
b1101 1
b10 .
1'
b1101 ?
#3420000000000000
0'
#3430000000000000
b11110001010110101101100000111111 7
b100000 8
b1 #
b1 2
b1 4
b1110 1
b100 .
1'
b1110 ?
#3440000000000000
0'
#3450000000000000
b11111100000110011111111011100110 7
b100000 8
b10 #
b10 2
b10 4
b1111 1
b110 .
1'
b1111 ?
#3460000000000000
0'
#3470000000000000
b11111000110110001110001101010001 7
b100000 8
1!
b0 #
b0 2
b0 4
0"
10
b0 3
b0 1
b0 .
1'
b0 $
b0 *
b10000 ?
#3480000000000000
0'
#3490000000000000
b11110010101111001101100100100101 7
b100000 8
b0 ,
b0 5
b11111111111111111111111111111111 6
b1 1
00
1'
b1 @
#3500000000000000
0'
#3510000000000000
b10 1
1'
b10 @
#3520000000000000
0'
#3530000000000000
b11 1
1'
b11 @
#3540000000000000
0'
#3550000000000000
b100 1
1'
b100 @
#3560000000000000
0'
#3570000000000000
b101 1
1'
b101 @
#3580000000000000
0'
#3590000000000000
b110 1
1'
b110 @
#3600000000000000
0'
#3610000000000000
b111 1
1'
b111 @
#3620000000000000
0'
#3630000000000000
b1000 1
1'
b1000 @
#3640000000000000
0'
#3650000000000000
b1001 1
1'
b1001 @
#3660000000000000
0'
#3670000000000000
b1010 1
1'
b1010 @
#3680000000000000
0'
#3690000000000000
b1011 1
1'
b1011 @
#3700000000000000
0'
#3710000000000000
b1100 1
1'
b1100 @
#3720000000000000
0'
#3730000000000000
b1101 1
1'
b1101 @
#3740000000000000
0'
#3750000000000000
b1110 1
1'
b1110 @
#3760000000000000
0'
#3770000000000000
b1111 1
1'
b1111 @
#3780000000000000
0'
#3790000000000000
b10000 1
1'
b10000 @
#3800000000000000
0'
#3810000000000000
b10001 1
1'
#3820000000000000
0'
#3830000000000000
b0 1
10
1'
1)
#3840000000000000
0'
#3850000000000000
b1 1
00
1'
0)
#3860000000000000
0'
#3870000000000000
b10 1
1'
#3880000000000000
0'
#3890000000000000
b11 1
1'
