FPGA1/obj/rbo_ethpack_tb.vcd
$date
	Wed Nov 16 21:05:50 2022
$end
$version
	Icarus Verilog
$end
$timescale
	1ps
$end
$scope module rbo_ethpack_tb $end
$var wire 1 ! stall $end
$var wire 1 " rbo_axiov $end
$var wire 2 # rbo_axiod [1:0] $end
$var wire 24 $ pixel_addr [23:0] $end
$var wire 1 % phy_txen $end
$var wire 2 & phy_txd [1:0] $end
$var reg 1 ' clk $end
$var reg 8 ( pixel [7:0] $end
$var reg 1 ) rst $end
$scope module eth_packer $end
$var wire 1 * cksum_calculated $end
$var wire 1 ' clk $end
$var wire 1 ) rst $end
$var wire 32 + cksum [31:0] $end
$var wire 1 " axiiv $end
$var wire 2 , axiid [1:0] $end
$var reg 9 - audio_counter [8:0] $end
$var reg 3 . byte_bit_counter [2:0] $end
$var reg 1 / cksum_axiiv $end
$var reg 1 0 crc32rst $end
$var reg 13 1 dibit_counter [12:0] $end
$var reg 2 2 phy_txd [1:0] $end
$var reg 1 % phy_txen $end
$var reg 1 ! stall $end
$var reg 4 3 state [3:0] $end
$scope module crc32 $end
$var wire 2 4 axiid [1:0] $end
$var wire 1 / axiiv $end
$var wire 32 5 axiod [31:0] $end
$var wire 1 * axiov $end
$var wire 1 ' clk $end
$var wire 1 0 rst $end
$var reg 32 6 caxiod [31:0] $end
$var reg 32 7 saxiod [31:0] $end
$var integer 32 8 i [31:0] $end
$upscope $end
$upscope $end
$scope module reverse_bit_order $end
$var wire 1 ' clk $end
$var wire 8 9 pixel [7:0] $end
$var wire 1 ) rst $end
$var wire 1 ! stall $end
$var reg 6 : addr_bit_counter [5:0] $end
$var reg 9 ; audio_counter [8:0] $end
$var reg 2 < axiod [1:0] $end
$var reg 1 " axiov $end
$var reg 3 = byte_bit_counter [2:0] $end
$var reg 24 > pixel_addr [23:0] $end
$var reg 9 ? pixel_counter [8:0] $end
$var reg 2 @ state [1:0] $end
$upscope $end
$scope begin $ivl_for_loop0 $end
$var integer 32 A i [31:0] $end
$upscope $end
$upscope $end
$enddefinitions $end
#0
$dumpvars
b0 A
bx @
bx ?
bx >
bx =
bx <
bx ;
bx :
bx 9
bx 8
bx 7
bx 6
bx 5
bx 4
bx 3
bx 2
bx 1
x0
0/
bx .
bx -
bx ,
bx +
1*
0)
bx (
0'
bx &
x%
bx $
bx #
x"
x!
$end
#10000
1'
#20000
0'
1)
#30000
b100000 8
1!
b0 &
b0 2
b0 4
0%
b0 1
10
b0 -
b0 .
b0 3
b0 ;
b0 ?
b0 =
b0 :
b0 #
b0 ,
b0 <
0"
b0 @
b0 $
b0 >
1'
#40000
0'
b11111111 (
b11111111 9
0)
#50000
b11110010101111001101100100100101 7
b100000 8
b0 +
b0 5
b11111111111111111111111111111111 6
b1 1
00
1'
#60000
0'
#70000
b10 1
1'
b1 A
#80000
0'
#90000
b11 1
1'
b10 A
#100000
0'
#110000
b100 1
1'
b11 A
#120000
0'
#130000
b101 1
1'
b100 A
#140000
0'
#150000
b110 1
1'
b101 A
#160000
0'
#170000
b111 1
1'
b110 A
#180000
0'
#190000
b1000 1
1'
b111 A
#200000
0'
#210000
b1001 1
1'
b1000 A
#220000
0'
#230000
b1010 1
1'
b1001 A
#240000
0'
#250000
b1011 1
1'
b1010 A
#260000
0'
#270000
b1100 1
1'
b1011 A
#280000
0'
#290000
b1101 1
1'
b1100 A
#300000
0'
#310000
b1110 1
1'
b1101 A
#320000
0'
#330000
b1111 1
1'
b1110 A
#340000
0'
#350000
b10000 1
1'
b1111 A
#360000
0'
#370000
b10001 1
1'
b10000 A
#380000
0'
#390000
b10010 1
1'
b10001 A
#400000
0'
#410000
b10011 1
1'
b10010 A
#420000
0'
#430000
b10100 1
1'
b10011 A
#440000
0'
#450000
b10101 1
1'
b10100 A
#460000
0'
#470000
b10110 1
1'
b10101 A
#480000
0'
#490000
b10111 1
1'
b10110 A
#500000
0'
#510000
b11000 1
1'
b10111 A
#520000
0'
#530000
b11001 1
1'
b11000 A
#540000
0'
#550000
b11010 1
1'
b11001 A
#560000
0'
#570000
b11011 1
1'
b11010 A
#580000
0'
#590000
b11100 1
1'
b11011 A
#600000
0'
#610000
b11101 1
1'
b11100 A
#620000
0'
#630000
b11110 1
1'
b11101 A
#640000
0'
#650000
b11111 1
1'
b11110 A
#660000
0'
#670000
b100000 1
1'
b11111 A
#680000
0'
#690000
b100001 1
1'
b100000 A
#700000
0'
#710000
b100010 1
1'
b100001 A
#720000
0'
#730000
b100011 1
1'
b100010 A
#740000
0'
#750000
b100100 1
1'
b100011 A
#760000
0'
#770000
b100101 1
1'
b100100 A
#780000
0'
#790000
b100110 1
1'
b100101 A
#800000
0'
#810000
b100111 1
1'
b100110 A
#820000
0'
#830000
b101000 1
1'
b100111 A
#840000
0'
#850000
b101001 1
1'
b101000 A
#860000
0'
#870000
b101010 1
1'
b101001 A
#880000
0'
#890000
b101011 1
1'
b101010 A
#900000
0'
#910000
b101100 1
1'
b101011 A
#920000
0'
#930000
b101101 1
1'
b101100 A
#940000
0'
#950000
b101110 1
1'
b101101 A
#960000
0'
#970000
b101111 1
1'
b101110 A
#980000
0'
#990000
b11111011001111101110001001001011 7
b100000 8
b1 &
b1 2
b1 4
1%
b1 3
b0 1
1'
b101111 A
#1000000
0'
#1010000
b1 1
1'
b110000 A
#1020000
0'
#1030000
b10 1
1'
b110001 A
#1040000
0'
#1050000
b11 1
1'
b110010 A
#1060000
0'
#1070000
b100 1
1'
b110011 A
#1080000
0'
#1090000
b101 1
1'
b110100 A
#1100000
0'
#1110000
b110 1
1'
b110101 A
#1120000
0'
#1130000
b111 1
1'
b110110 A
#1140000
0'
#1150000
b1000 1
1'
b110111 A
#1160000
0'
#1170000
b1001 1
1'
b111000 A
#1180000
0'
#1190000
b1010 1
1'
b111001 A
#1200000
0'
#1210000
b1011 1
1'
b111010 A
#1220000
0'
#1230000
b1100 1
1'
b111011 A
#1240000
0'
#1250000
b1101 1
1'
b111100 A
#1260000
0'
#1270000
b1110 1
1'
b111101 A
#1280000
0'
#1290000
b1111 1
1'
b111110 A
#1300000
0'
#1310000
b10000 1
1'
b111111 A
#1320000
0'
#1330000
b10001 1
1'
b1000000 A
#1340000
0'
#1350000
b10010 1
1'
b1000001 A
#1360000
0'
#1370000
b10011 1
1'
b1000010 A
#1380000
0'
#1390000
b10100 1
1'
b1000011 A
#1400000
0'
#1410000
b10101 1
1'
b1000100 A
#1420000
0'
#1430000
b10110 1
1'
b1000101 A
#1440000
0'
#1450000
b10111 1
1'
b1000110 A
#1460000
0'
#1470000
b11000 1
1'
b1000111 A
#1480000
0'
#1490000
b11001 1
1'
b1001000 A
#1500000
0'
#1510000
b11010 1
1'
b1001001 A
#1520000
0'
#1530000
b11011 1
1'
b1001010 A
#1540000
0'
#1550000
b11100 1
1'
b1001011 A
#1560000
0'
#1570000
b11101 1
1'
b1001100 A
#1580000
0'
#1590000
b11110 1
1'
b1001101 A
#1600000
0'
#1610000
b11111111111111111111111111111100 7
b100000 8
b11 &
b11 2
b11 4
b11111 1
1'
b1001110 A
#1620000
0'
#1630000
1/
b10 3
b0 1
1'
b1001111 A
#1640000
0'
#1650000
b11111111111111111111111111110000 7
b100000 8
b11 +
b11 5
b11111111111111111111111111111100 6
b1 1
1'
b1010000 A
#1660000
0'
#1670000
b11111111111111111111111111000000 7
b100000 8
b1111 +
b1111 5
b10 1
b11111111111111111111111111110000 6
1'
b1010001 A
#1680000
0'
#1690000
b11111111111111111111111100000000 7
b100000 8
b111111 +
b111111 5
b11111111111111111111111111000000 6
b11 1
1'
b1010010 A
#1700000
0'
#1710000
b11111111111111111111110000000000 7
b100000 8
b11111111 +
b11111111 5
b100 1
b11111111111111111111111100000000 6
1'
b1010011 A
#1720000
0'
#1730000
b11111111111111111111000000000000 7
b100000 8
b1111111111 +
b1111111111 5
b11111111111111111111110000000000 6
b101 1
1'
b1010100 A
#1740000
0'
#1750000
b11111111111111111100000000000000 7
b100000 8
b111111111111 +
b111111111111 5
b110 1
b11111111111111111111000000000000 6
1'
b1010101 A
#1760000
0'
#1770000
b11111111111111110000000000000000 7
b100000 8
b11111111111111 +
b11111111111111 5
b11111111111111111100000000000000 6
b111 1
1'
b1010110 A
#1780000
0'
#1790000
b11111111111111000000000000000000 7
b100000 8
b1111111111111111 +
b1111111111111111 5
b1000 1
b11111111111111110000000000000000 6
1'
b1010111 A
#1800000
0'
#1810000
b11111111111100000000000000000000 7
b100000 8
b111111111111111111 +
b111111111111111111 5
b11111111111111000000000000000000 6
b1001 1
1'
b1011000 A
#1820000
0'
#1830000
b11111111110000000000000000000000 7
b100000 8
b11111111111111111111 +
b11111111111111111111 5
b1010 1
b11111111111100000000000000000000 6
1'
b1011001 A
#1840000
0'
#1850000
b11111111000000000000000000000000 7
b100000 8
b1111111111111111111111 +
b1111111111111111111111 5
b11111111110000000000000000000000 6
b1011 1
1'
b1011010 A
#1860000
0'
#1870000
b11111100000000000000000000000000 7
b100000 8
b111111111111111111111111 +
b111111111111111111111111 5
b1100 1
b11111111000000000000000000000000 6
1'
b1011011 A
#1880000
0'
#1890000
b11110000000000000000000000000000 7
b100000 8
b11111111111111111111111111 +
b11111111111111111111111111 5
b11111100000000000000000000000000 6
b1101 1
1'
b1011100 A
#1900000
0'
#1910000
b11000000000000000000000000000000 7
b100000 8
b1111111111111111111111111111 +
b1111111111111111111111111111 5
b1110 1
b11110000000000000000000000000000 6
1'
b1011101 A
#1920000
0'
#1930000
b0 7
b100000 8
b111111111111111111111111111111 +
b111111111111111111111111111111 5
b11000000000000000000000000000000 6
b1111 1
1'
b1011110 A
#1940000
0'
#1950000
b1101010000110010011011011001 7
b100000 8
b11111111111111111111111111111111 +
b11111111111111111111111111111111 5
b10000 1
b0 6
1'
b1011111 A
#1960000
0'
#1970000
b111000010011111011110110111101 7
b100000 8
b11110010101111001101100100100110 +
b11110010101111001101100100100110 5
b1101010000110010011011011001 6
b10001 1
1'
b1100000 A
#1980000
0'
#1990000
b11101100011111011101000000101101 7
b100000 8
b11000111101100000100001001000010 +
b11000111101100000100001001000010 5
b10010 1
b111000010011111011110110111101 6
1'
b1100001 A
#2000000
0'
#2010000
b10110001111101110100000010110100 7
b100000 8
b10011100000100010111111010010 +
b10011100000100010111111010010 5
b11101100011111011101000000101101 6
b10011 1
1'
b1100010 A
#2020000
0'
#2030000
b11000011000111000001111101100111 7
b100000 8
b1001110000010001011111101001011 +
b1001110000010001011111101001011 5
b10100 1
b10110001111101110100000010110100 6
1'
b1100011 A
#2040000
0'
#2050000
b1100011100000111110110011100 7
b100000 8
b111100111000111110000010011000 +
b111100111000111110000010011000 5
b11000011000111000001111101100111 6
b10101 1
1'
b1100100 A
#2060000
0'
#2070000
b111100100000101101000010101001 7
b100000 8
b11110011100011111000001001100011 +
b11110011100011111000001001100011 5
b10110 1
b1100011100000111110110011100 6
1'
b1100101 A
#2080000
0'
#2090000
b11111111010010000110010001111101 7
b100000 8
b11000011011111010010111101010110 +
b11000011011111010010111101010110 5
b111100100000101101000010101001 6
b10111 1
1'
b1100110 A
#2100000
0'
#2110000
b10 &
b10 2
b10 4
b11110100101000111010101010011010 7
b100000 8
b101101111001101110000010 +
b101101111001101110000010 5
b11 3
b0 1
b11111111010010000110010001111101 6
1'
b1100111 A
#2120000
0'
#2130000
b11011011000011001001000100000110 7
b100000 8
b1011010111000101010101100101 +
b1011010111000101010101100101 5
b11110100101000111010101010011010 6
b1 1
1'
b1101000 A
#2140000
0'
#2150000
b1100101101100000111111101110110 7
b100000 8
b100100111100110110111011111001 +
b100100111100110110111011111001 5
b10 1
b11011011000011001001000100000110 6
1'
b1101001 A
#2160000
0'
#2170000
b10010110110000011111110111011000 7
b100000 8
b10011010010011111000000010001001 +
b10011010010011111000000010001001 5
b1100101101100000111111101110110 6
b11 1
1'
b1101010 A
#2180000
0'
#2190000
b1010110010001001101000110111001 7
b100000 8
b1101001001111100000001000100111 +
b1101001001111100000001000100111 5
b100 1
b10010110110000011111110111011000 6
1'
b1101011 A
#2200000
0'
#2210000
b1011001000100110100011011100100 7
b100000 8
b10101001101110110010111001000110 +
b10101001101110110010111001000110 5
b1010110010001001101000110111001 6
b101 1
1'
b1101100 A
#2220000
0'
#2230000
b1100100010011010001101110010000 7
b100000 8
b10100110111011001011100100011011 +
b10100110111011001011100100011011 5
b110 1
b1011001000100110100011011100100 6
1'
b1101101 A
#2240000
0'
#2250000
b10010001001101000110111001000000 7
b100000 8
b10011011101100101110010001101111 +
b10011011101100101110010001101111 5
b1100100010011010001101110010000 6
b111 1
1'
b1101110 A
#2260000
0'
#2270000
b1001001100100101001111111011001 7
b100000 8
b1101110110010111001000110111111 +
b1101110110010111001000110111111 5
b1000 1
b10010001001101000110111001000000 6
1'
b1101111 A
#2280000
0'
#2290000
b100110010010100111111101100100 7
b100000 8
b10110110011011010110000000100110 +
b10110110011011010110000000100110 5
b1001001100100101001111111011001 6
b1001 1
1'
b1110000 A
#2300000
0'
#2310000
b10011101111010001110000000100111 7
b100000 8
b11011001101101011000000010011011 +
b11011001101101011000000010011011 5
b1010 1
b100110010010100111111101100100 6
1'
b1110001 A
#2320000
0'
#2330000
b1111010111000001010011001000101 7
b100000 8
b1100010000101110001111111011000 +
b1100010000101110001111111011000 5
b10011101111010001110000000100111 6
b1011 1
1'
b1110010 A
#2340000
0'
#2350000
b11101011100000101001100100010100 7
b100000 8
b10000101000111110101100110111010 +
b10000101000111110101100110111010 5
b1100 1
b1111010111000001010011001000101 6
1'
b1110011 A
#2360000
0'
#2370000
b10100111100010000101111100111110 7
b100000 8
b10100011111010110011011101011 +
b10100011111010110011011101011 5
b11101011100000101001100100010100 6
b1101 1
1'
b1110100 A
#2380000
0'
#2390000
b10010011011000100101101000100001 7
b100000 8
b1011000011101111010000011000001 +
b1011000011101111010000011000001 5
b1110 1
b10100111100010000101111100111110 6
1'
b1110101 A
#2400000
0'
#2410000
b1000000110010100100111001011101 7
b100000 8
b1101100100111011010010111011110 +
b1101100100111011010010111011110 5
b10010011011000100101101000100001 6
b1111 1
1'
b1110110 A
#2420000
0'
#2430000
b11001010010011100101110100 7
b100000 8
b10111111001101011011000110100010 +
b10111111001101011011000110100010 5
b10000 1
b1000000110010100100111001011101 6
1'
b1110111 A
#2440000
0'
#2450000
b1000011001011111100001100111 7
b100000 8
b11111100110101101100011010001011 +
b11111100110101101100011010001011 5
b11001010010011100101110100 6
b10001 1
1'
b1111000 A
#2460000
0'
#2470000
b100101010101101111110000101011 7
b100000 8
b11110111100110100000011110011000 +
b11110111100110100000011110011000 5
b10010 1
b1000011001011111100001100111 6
1'
b1111001 A
#2480000
0'
#2490000
b10010001100110101110110100011011 7
b100000 8
b11011010101010010000001111010100 +
b11011010101010010000001111010100 5
b100101010101101111110000101011 6
b10011 1
1'
b1111010 A
#2500000
0'
#2510000
b1001011001010001001001010110101 7
b100000 8
b1101110011001010001001011100100 +
b1101110011001010001001011100100 5
b10100 1
b10010001100110101110110100011011 6
1'
b1111011 A
#2520000
0'
#2530000
b101100101000100100101011010100 7
b100000 8
b10110100110101110110110101001010 +
b10110100110101110110110101001010 5
b1001011001010001001001010110101 6
b10101 1
1'
b1111100 A
#2540000
0'
#2550000
b10110110010010000011011011100111 7
b100000 8
b11010011010111011011010100101011 +
b11010011010111011011010100101011 5
b10110 1
b101100101000100100101011010100 6
1'
b1111101 A
#2560000
0'
#2570000
b11010100011000111111110101000101 7
b100000 8
b1001001101101111100100100011000 +
b1001001101101111100100100011000 5
b10110110010010000011011011100111 6
b10111 1
1'
b1111110 A
#2580000
0'
#2590000
b1 &
b1 2
b1 4
b1010101010011101110100010100011 7
b100000 8
b101011100111000000001010111010 +
b101011100111000000001010111010 5
b100 3
b0 1
b11010100011000111111110101000101 6
1'
b1111111 A
#2600000
0'
#2610000
b1011000011110001000010001010101 7
b100000 8
b10101010101100010001011101011100 +
b10101010101100010001011101011100 5
b1010101010011101110100010100011 6
b1 1
1'
b10000000 A
#2620000
0'
#2630000
b1101100101000010011011110001101 7
b100000 8
b10100111100001110111101110101010 +
b10100111100001110111101110101010 5
b10 1
b1011000011110001000010001010101 6
1'
b10000001 A
#2640000
0'
#2650000
b10111111110001111111100011101101 7
b100000 8
b10010011010111101100100001110010 +
b10010011010111101100100001110010 5
b1101100101000010011011110001101 6
b11 1
1'
b10000010 A
#2660000
0'
#2670000
b11111111000111111110001110110100 7
b100000 8
b1000000001110000000011100010010 +
b1000000001110000000011100010010 5
b100 1
b10111111110001111111100011101101 6
1'
b10000011 A
#2680000
0'
#2690000
b11111000101111101001001101100111 7
b100000 8
b111000000001110001001011 +
b111000000001110001001011 5
b11111111000111111110001110110100 6
b101 1
1'
b10000100 A
#2700000
0'
#2710000
b11100110001110110101000000101011 7
b100000 8
b111010000010110110010011000 +
b111010000010110110010011000 5
b110 1
b11111000101111101001001101100111 6
1'
b10000101 A
#2720000
0'
#2730000
b10011100001011000101110100011011 7
b100000 8
b11001110001001010111111010100 +
b11001110001001010111111010100 5
b11100110001110110101000000101011 6
b111 1
1'
b10000110 A
#2740000
0'
#2750000
0!
b0 &
b0 2
b0 4
b1111001001100110100111100000010 7
b100000 8
b1100011110100111010001011100100 +
b1100011110100111010001011100100 5
b101 3
b0 1
b10011100001011000101110100011011 6
1'
b10000111 A
#2760000
0'
#2770000
b11100000000011000010000110111111 7
b100000 8
b10000110110011001011000011111101 +
b10000110110011001011000011111101 5
b1 :
b10 =
1"
b1111001001100110100111100000010 6
b1 1
1'
b10001000 A
#2780000
0'
#2790000
b10001101011100111010000000100101 7
b100000 8
b11111111100111101111001000000 +
b11111111100111101111001000000 5
b10 1
b11100000000011000010000110111111 6
b10 :
b100 =
1'
b10001001 A
#2800000
0'
#2810000
b111100010011001011101111111010 7
b100000 8
b1110010100011000101111111011010 +
b1110010100011000101111111011010 5
b11 :
b110 =
b10001101011100111010000000100101 6
b11 1
1'
b10001010 A
#2820000
0'
#2830000
b11110001001100101110111111101000 7
b100000 8
b11000011101100110100010000000101 +
b11000011101100110100010000000101 5
b100 1
b111100010011001011101111111010 6
b100 :
b0 =
1'
b10001011 A
#2840000
0'
#2850000
b11001001100010001001100101111001 7
b100000 8
b1110110011010001000000010111 +
b1110110011010001000000010111 5
b101 :
b10 =
b11110001001100101110111111101000 6
b101 1
1'
b10001100 A
#2860000
0'
#2870000
b101011011000010100001100111101 7
b100000 8
b110110011101110110011010000110 +
b110110011101110110011010000110 5
b110 1
b11001001100010001001100101111001 6
b110 :
b100 =
1'
b10001101 A
#2880000
0'
#2890000
b10101101100001010000110011110100 7
b100000 8
b11010100100111101011110011000010 +
b11010100100111101011110011000010 5
b111 :
b110 =
b101011011000010100001100111101 6
b111 1
1'
b10001110 A
#2900000
0'
#2910000
b10111111100101100000100010111110 7
b100000 8
b1010010011110101111001100001011 +
b1010010011110101111001100001011 5
b1000 1
b10101101100001010000110011110100 6
b1000 :
b0 =
1'
b10001111 A
#2920000
0'
#2930000
b11110111110110100001100110010110 7
b100000 8
b1000000011010011111011101000001 +
b1000000011010011111011101000001 5
b1001 :
b10 =
b10111111100101100000100010111110 6
b1001 1
1'
b10010000 A
#2940000
0'
#2950000
b11010010001010110100000010000001 7
b100000 8
b1000001001011110011001101001 +
b1000001001011110011001101001 5
b1010 1
b11110111110110100001100110010110 6
b1010 :
b100 =
1'
b10010001 A
#2960000
0'
#2970000
b1000101111011100010010011011101 7
b100000 8
b101101110101001011111101111110 +
b101101110101001011111101111110 5
b1011 :
b110 =
b11010010001010110100000010000001 6
b1011 1
1'
b10010010 A
#2980000
0'
#2990000
b11 &
b11 2
b11 4
b11110001110101010100000011010 7
b100000 8
b10111010000100011101101100100010 +
b10111010000100011101101100100010 5
b11 #
b11 ,
b11 <
b1100 1
b1000101111011100010010011011101 6
b1 @
b0 :
b0 =
1'
b10010011 A
#3000000
0'
#3010000
b1110101101010011000011010110001 7
b100000 8
b11100001110001010101011111100101 +
b11100001110001010101011111100101 5
b1 ?
b10 =
b11110001110101010100000011010 6
b1101 1
1'
b10010100 A
#3020000
0'
#3030000
b11011111001001000010000110101010 7
b100000 8
b10001010010101100111100101001110 +
b10001010010101100111100101001110 5
b1110 1
b1110101101010011000011010110001 6
b11 ?
b100 =
1'
b10010101 A
#3040000
0'
#3050000
b1111100100100001000011010101000 7
b100000 8
b100000110110111101111001010101 +
b100000110110111101111001010101 5
b101 ?
b1 $
b1 >
b110 =
b11011111001001000010000110101010 6
b1111 1
1'
b10010110 A
#3060000
0'
#3070000
b11111011110000000010000111001110 7
b100000 8
b10000011011011110111100101010111 +
b10000011011011110111100101010111 5
b10000 1
b1111100100100001000011010101000 6
b111 ?
b0 =
1'
b10010111 A
#3080000
0'
#3090000
b11101111000000001000011100111000 7
b100000 8
b100001111111101111000110001 +
b100001111111101111000110001 5
b1 ?
b10 =
b11111011110000000010000111001110 6
b10001 1
1'
b10011000 A
#3100000
0'
#3110000
b10111100000000100001110011100000 7
b100000 8
b10000111111110111100011000111 +
b10000111111110111100011000111 5
b10010 1
b11101111000000001000011100111000 6
b11 ?
b100 =
1'
b10011001 A
#3120000
0'
#3130000
b11110100110010010110111000110111 7
b100000 8
b1000011111111011110001100011111 +
b1000011111111011110001100011111 5
b101 ?
b10 $
b10 >
b110 =
b10111100000000100001110011100000 6
b10011 1
1'
b10011010 A
#3140000
0'
#3150000
1!
0/
b11010011001001011011100011011100 7
b100000 8
b1011001101101001000111001000 +
b1011001101101001000111001000 5
b110 3
b0 1
b11110100110010010110111000110111 6
b111 ?
b0 =
1'
b10011011 A
#3160000
0'
#3170000
b11011010101001111000001110110010 7
b100000 8
b10 &
b10 2
b10 4
b0 ?
b0 #
b0 ,
b0 <
0"
b0 @
b1 1
b10 .
1'
b10011100 A
#3180000
0'
#3190000
b11011110011001101001111000000101 7
b100000 8
b0 &
b0 2
b0 4
b10 1
b100 .
1'
b10011101 A
#3200000
0'
#3210000
b11 1
b110 .
1'
b10011110 A
#3220000
0'
#3230000
b11011010101001111000001110110010 7
b100000 8
b10 &
b10 2
b10 4
b100 1
b0 .
1'
b10011111 A
#3240000
0'
#3250000
b11010111111001001010010101101011 7
b100000 8
b1 &
b1 2
b1 4
b101 1
b10 .
1'
b10100000 A
#3260000
0'
#3270000
b11010011001001011011100011011100 7
b100000 8
b11 &
b11 2
b11 4
b110 1
b100 .
1'
b10100001 A
#3280000
0'
#3290000
b11011110011001101001111000000101 7
b100000 8
b0 &
b0 2
b0 4
b111 1
b110 .
1'
b10100010 A
#3300000
0'
#3310000
b11010111111001001010010101101011 7
b100000 8
b1 &
b1 2
b1 4
b1000 1
b0 .
1'
b10100011 A
#3320000
0'
#3330000
b11011110011001101001111000000101 7
b100000 8
b0 &
b0 2
b0 4
b1001 1
b10 .
1'
b10100100 A
#3340000
0'
#3350000
b11010111111001001010010101101011 7
b100000 8
b1 &
b1 2
b1 4
b1010 1
b100 .
1'
b10100101 A
#3360000
0'
#3370000
b11011010101001111000001110110010 7
b100000 8
b10 &
b10 2
b10 4
b1011 1
b110 .
1'
b10100110 A
#3380000
0'
#3390000
b11011110011001101001111000000101 7
b100000 8
b0 &
b0 2
b0 4
b1100 1
b0 .
1'
b10100111 A
#3400000
0'
#3410000
b11011010101001111000001110110010 7
b100000 8
b10 &
b10 2
b10 4
b1101 1
b10 .
1'
b10101000 A
#3420000
0'
#3430000
b11011110011001101001111000000101 7
b100000 8
b0 &
b0 2
b0 4
b1110 1
b100 .
1'
b10101001 A
#3440000
0'
#3450000
b11010011001001011011100011011100 7
b100000 8
b11 &
b11 2
b11 4
b1111 1
b110 .
1'
b10101010 A
#3460000
0'
#3470000
b11011110011001101001111000000101 7
b100000 8
b0 &
b0 2
b0 4
0%
10
b0 3
b0 1
b0 .
1'
b10101011 A
#3480000
0'
#3490000
b11110010101111001101100100100101 7
b100000 8
b0 +
b0 5
b11111111111111111111111111111111 6
b1 1
00
1'
b10101100 A
#3500000
0'
#3510000
b10 1
1'
b10101101 A
#3520000
0'
#3530000
b11 1
1'
b10101110 A
#3540000
0'
#3550000
b100 1
1'
b10101111 A
#3560000
0'
#3570000
b101 1
1'
b10110000 A
#3580000
0'
#3590000
b110 1
1'
b10110001 A
#3600000
0'
#3610000
b111 1
1'
b10110010 A
#3620000
0'
#3630000
b1000 1
1'
b10110011 A
#3640000
0'
#3650000
b1001 1
1'
b10110100 A
#3660000
0'
#3670000
b1010 1
1'
b10110101 A
#3680000
0'
#3690000
b1011 1
1'
b10110110 A
#3700000
0'
#3710000
b1100 1
1'
b10110111 A
#3720000
0'
#3730000
b1101 1
1'
b10111000 A
#3740000
0'
#3750000
b1110 1
1'
b10111001 A
#3760000
0'
#3770000
b1111 1
1'
b10111010 A
#3780000
0'
#3790000
b10000 1
1'
b10111011 A
#3800000
0'
#3810000
b10001 1
1'
b10111100 A
#3820000
0'
#3830000
b10010 1
1'
b10111101 A
#3840000
0'
#3850000
b10011 1
1'
b10111110 A
#3860000
0'
#3870000
b10100 1
1'
b10111111 A
#3880000
0'
#3890000
b10101 1
1'
b11000000 A
#3900000
0'
#3910000
b10110 1
1'
b11000001 A
#3920000
0'
#3930000
b10111 1
1'
b11000010 A
#3940000
0'
#3950000
b11000 1
1'
b11000011 A
#3960000
0'
#3970000
b11001 1
1'
b11000100 A
#3980000
0'
#3990000
b11010 1
1'
b11000101 A
#4000000
0'
#4010000
b11011 1
1'
b11000110 A
#4020000
0'
#4030000
b11100 1
1'
b11000111 A
#4040000
0'
#4050000
b11101 1
1'
b11001000 A
#4060000
0'
#4070000
b11110 1
1'
b11001001 A
#4080000
0'
#4090000
b11111 1
1'
b11001010 A
#4100000
0'
#4110000
b100000 1
1'
b11001011 A
#4120000
0'
#4130000
b100001 1
1'
b11001100 A
#4140000
0'
#4150000
b100010 1
1'
b11001101 A
#4160000
0'
#4170000
b100011 1
1'
b11001110 A
#4180000
0'
#4190000
b100100 1
1'
b11001111 A
#4200000
0'
#4210000
b100101 1
1'
b11010000 A
#4220000
0'
#4230000
b100110 1
1'
b11010001 A
#4240000
0'
#4250000
b100111 1
1'
b11010010 A
#4260000
0'
#4270000
b101000 1
1'
b11010011 A
#4280000
0'
#4290000
b101001 1
1'
b11010100 A
#4300000
0'
#4310000
b101010 1
1'
b11010101 A
#4320000
0'
#4330000
b101011 1
1'
b11010110 A
#4340000
0'
#4350000
b101100 1
1'
b11010111 A
#4360000
0'
#4370000
b101101 1
1'
b11011000 A
#4380000
0'
#4390000
b101110 1
1'
b11011001 A
#4400000
0'
#4410000
b101111 1
1'
b11011010 A
#4420000
0'
#4430000
b11111011001111101110001001001011 7
b100000 8
b1 &
b1 2
b1 4
1%
b1 3
b0 1
1'
b11011011 A
#4440000
0'
#4450000
b1 1
1'
b11011100 A
#4460000
0'
#4470000
b10 1
1'
b11011101 A
#4480000
0'
#4490000
b11 1
1'
b11011110 A
#4500000
0'
#4510000
b100 1
1'
b11011111 A
#4520000
0'
#4530000
b101 1
1'
b11100000 A
#4540000
0'
#4550000
b110 1
1'
b11100001 A
#4560000
0'
#4570000
b111 1
1'
b11100010 A
#4580000
0'
#4590000
b1000 1
1'
b11100011 A
#4600000
0'
#4610000
b1001 1
1'
b11100100 A
#4620000
0'
#4630000
b1010 1
1'
b11100101 A
#4640000
0'
#4650000
b1011 1
1'
b11100110 A
#4660000
0'
#4670000
b1100 1
1'
b11100111 A
#4680000
0'
#4690000
b1101 1
1'
b11101000 A
#4700000
0'
#4710000
b1110 1
1'
b11101001 A
#4720000
0'
#4730000
b1111 1
1'
b11101010 A
#4740000
0'
#4750000
b10000 1
1'
b11101011 A
#4760000
0'
#4770000
b10001 1
1'
b11101100 A
#4780000
0'
#4790000
b10010 1
1'
b11101101 A
#4800000
0'
#4810000
b10011 1
1'
b11101110 A
#4820000
0'
#4830000
b10100 1
1'
b11101111 A
#4840000
0'
#4850000
b10101 1
1'
b11110000 A
#4860000
0'
#4870000
b10110 1
1'
b11110001 A
#4880000
0'
#4890000
b10111 1
1'
b11110010 A
#4900000
0'
#4910000
b11000 1
1'
b11110011 A
#4920000
0'
#4930000
b11001 1
1'
b11110100 A
#4940000
0'
#4950000
b11010 1
1'
b11110101 A
#4960000
0'
#4970000
b11011 1
1'
b11110110 A
#4980000
0'
#4990000
b11100 1
1'
b11110111 A
#5000000
0'
#5010000
b11101 1
1'
b11111000 A
#5020000
0'
#5030000
b11110 1
1'
b11111001 A
#5040000
0'
#5050000
b11111111111111111111111111111100 7
b100000 8
b11 &
b11 2
b11 4
b11111 1
1'
b11111010 A
#5060000
0'
#5070000
1/
b10 3
b0 1
1'
b11111011 A
#5080000
0'
#5090000
b11111111111111111111111111110000 7
b100000 8
b11 +
b11 5
b11111111111111111111111111111100 6
b1 1
1'
b11111100 A
#5100000
0'
#5110000
b11111111111111111111111111000000 7
b100000 8
b1111 +
b1111 5
b10 1
b11111111111111111111111111110000 6
1'
b11111101 A
#5120000
0'
#5130000
b11111111111111111111111100000000 7
b100000 8
b111111 +
b111111 5
b11111111111111111111111111000000 6
b11 1
1'
b11111110 A
#5140000
0'
#5150000
b11111111111111111111110000000000 7
b100000 8
b11111111 +
b11111111 5
b100 1
b11111111111111111111111100000000 6
1'
b11111111 A
#5160000
0'
#5170000
b11111111111111111111000000000000 7
b100000 8
b1111111111 +
b1111111111 5
b11111111111111111111110000000000 6
b101 1
1'
b100000000 A
#5180000
0'
#5190000
b11111111111111111100000000000000 7
b100000 8
b111111111111 +
b111111111111 5
b110 1
b11111111111111111111000000000000 6
1'
b100000001 A
#5200000
0'
#5210000
b11111111111111110000000000000000 7
b100000 8
b11111111111111 +
b11111111111111 5
b11111111111111111100000000000000 6
b111 1
1'
b100000010 A
#5220000
0'
