FPGA1/obj/rbo_ethpack_tb.vcd
$date
	Thu Dec  8 14:41:01 2022
$end
$version
	Icarus Verilog
$end
$timescale
	1ps
$end
$scope module rbo_ethpack_tb $end
$var wire 1 ! stall $end
$var wire 1 " rbo_axiov $end
$var wire 2 # rbo_axiod [1:0] $end
$var wire 24 $ pixel_addr [23:0] $end
$var wire 1 % phy_txen $end
$var wire 2 & phy_txd [1:0] $end
$var reg 1 ' clk $end
$var reg 8 ( pixel [7:0] $end
$var reg 1 ) rst $end
$scope module eth_packer $end
$var wire 1 * cancelled $end
$var wire 1 + cksum_calculated $end
$var wire 1 ' clk $end
$var wire 1 ) rst $end
$var wire 32 , cksum [31:0] $end
$var wire 1 " axiiv $end
$var wire 2 - axiid [1:0] $end
$var reg 9 . audio_counter [8:0] $end
$var reg 3 / byte_bit_counter [2:0] $end
$var reg 1 0 cksum_axiiv $end
$var reg 1 1 crc32rst $end
$var reg 13 2 dibit_counter [12:0] $end
$var reg 2 3 phy_txd [1:0] $end
$var reg 1 % phy_txen $end
$var reg 1 ! stall $end
$var reg 4 4 state [3:0] $end
$scope module crc32 $end
$var wire 2 5 axiid [1:0] $end
$var wire 1 0 axiiv $end
$var wire 32 6 axiod [31:0] $end
$var wire 1 + axiov $end
$var wire 1 ' clk $end
$var wire 1 1 rst $end
$var reg 32 7 caxiod [31:0] $end
$var reg 32 8 saxiod [31:0] $end
$var integer 32 9 i [31:0] $end
$upscope $end
$upscope $end
$scope module reverse_bit_order $end
$var wire 1 ' clk $end
$var wire 8 : pixel [7:0] $end
$var wire 1 ) rst $end
$var wire 1 ! stall $end
$var reg 6 ; addr_bit_counter [5:0] $end
$var reg 9 < audio_counter [8:0] $end
$var reg 2 = axiod [1:0] $end
$var reg 1 " axiov $end
$var reg 4 > byte_bit_counter [3:0] $end
$var reg 24 ? pixel_addr [23:0] $end
$var reg 9 @ pixel_counter [8:0] $end
$var reg 2 A state [1:0] $end
$upscope $end
$scope begin $ivl_for_loop0 $end
$var integer 32 B i [31:0] $end
$upscope $end
$upscope $end
$enddefinitions $end
#0
$dumpvars
b0 B
bx A
bx @
bx ?
bx >
b0 =
bx <
bx ;
bx :
b100000 9
bx 8
bx 7
bx 6
b0 5
bx 4
b0 3
bx 2
x1
00
bx /
bx .
b0 -
bx ,
1+
z*
0)
bx (
0'
b0 &
0%
bx $
b0 #
x"
1!
$end
#10000000000000
b0 <
b0 @
b1000 >
b0 ;
0"
b0 A
1'
#20000000000000
0'
1)
#30000000000000
b0 2
11
b0 .
b0 /
b0 4
b0 $
b0 ?
1'
#40000000000000
0'
b11111111 (
b11111111 :
0)
#50000000000000
b11110010101111001101100100100101 8
b100000 9
b0 ,
b0 6
b11111111111111111111111111111111 7
b1 2
01
1'
#60000000000000
0'
#70000000000000
b10 2
1'
b1 B
#80000000000000
0'
#90000000000000
b11 2
1'
b10 B
#100000000000000
0'
#110000000000000
b100 2
1'
b11 B
#120000000000000
0'
#130000000000000
b101 2
1'
b100 B
#140000000000000
0'
#150000000000000
b110 2
1'
b101 B
#160000000000000
0'
#170000000000000
b111 2
1'
b110 B
#180000000000000
0'
#190000000000000
b1000 2
1'
b111 B
#200000000000000
0'
#210000000000000
b1001 2
1'
b1000 B
#220000000000000
0'
#230000000000000
b1010 2
1'
b1001 B
#240000000000000
0'
#250000000000000
b1011 2
1'
b1010 B
#260000000000000
0'
#270000000000000
b1100 2
1'
b1011 B
#280000000000000
0'
#290000000000000
b1101 2
1'
b1100 B
#300000000000000
0'
#310000000000000
b1110 2
1'
b1101 B
#320000000000000
0'
#330000000000000
b1111 2
1'
b1110 B
#340000000000000
0'
#350000000000000
b10000 2
1'
b1111 B
#360000000000000
0'
#370000000000000
b10001 2
1'
b10000 B
#380000000000000
0'
#390000000000000
b10010 2
1'
b10001 B
#400000000000000
0'
#410000000000000
b10011 2
1'
b10010 B
#420000000000000
0'
#430000000000000
b10100 2
1'
b10011 B
#440000000000000
0'
#450000000000000
b10101 2
1'
b10100 B
#460000000000000
0'
#470000000000000
b10110 2
1'
b10101 B
#480000000000000
0'
#490000000000000
b10111 2
1'
b10110 B
#500000000000000
0'
#510000000000000
b11000 2
1'
b10111 B
#520000000000000
0'
#530000000000000
b11001 2
1'
b11000 B
#540000000000000
0'
#550000000000000
b11010 2
1'
b11001 B
#560000000000000
0'
#570000000000000
b11011 2
1'
b11010 B
#580000000000000
0'
#590000000000000
b11100 2
1'
b11011 B
#600000000000000
0'
#610000000000000
b11101 2
1'
b11100 B
#620000000000000
0'
#630000000000000
b11110 2
1'
b11101 B
#640000000000000
0'
#650000000000000
b11111 2
1'
b11110 B
#660000000000000
0'
#670000000000000
b100000 2
1'
b11111 B
#680000000000000
0'
#690000000000000
b100001 2
1'
b100000 B
#700000000000000
0'
#710000000000000
b100010 2
1'
b100001 B
#720000000000000
0'
#730000000000000
b100011 2
1'
b100010 B
#740000000000000
0'
#750000000000000
b100100 2
1'
b100011 B
#760000000000000
0'
#770000000000000
b100101 2
1'
b100100 B
#780000000000000
0'
#790000000000000
b100110 2
1'
b100101 B
#800000000000000
0'
#810000000000000
b100111 2
1'
b100110 B
#820000000000000
0'
#830000000000000
b101000 2
1'
b100111 B
#840000000000000
0'
#850000000000000
b101001 2
1'
b101000 B
#860000000000000
0'
#870000000000000
b101010 2
1'
b101001 B
#880000000000000
0'
#890000000000000
b101011 2
1'
b101010 B
#900000000000000
0'
#910000000000000
b101100 2
1'
b101011 B
#920000000000000
0'
#930000000000000
b101101 2
1'
b101100 B
#940000000000000
0'
#950000000000000
b101110 2
1'
b101101 B
#960000000000000
0'
#970000000000000
b101111 2
1'
b101110 B
#980000000000000
0'
#990000000000000
b110000 2
1'
b101111 B
#1000000000000000
0'
#1010000000000000
b110001 2
1'
b110000 B
#1020000000000000
0'
#1030000000000000
b110010 2
1'
b110001 B
#1040000000000000
0'
#1050000000000000
b110011 2
1'
b110010 B
#1060000000000000
0'
#1070000000000000
b110100 2
1'
b110011 B
#1080000000000000
0'
#1090000000000000
b110101 2
1'
b110100 B
#1100000000000000
0'
#1110000000000000
b110110 2
1'
b110101 B
#1120000000000000
0'
#1130000000000000
b110111 2
1'
b110110 B
#1140000000000000
0'
#1150000000000000
b111000 2
1'
b110111 B
#1160000000000000
0'
#1170000000000000
b111001 2
1'
b111000 B
#1180000000000000
0'
#1190000000000000
b111010 2
1'
b111001 B
#1200000000000000
0'
#1210000000000000
b111011 2
1'
b111010 B
#1220000000000000
0'
#1230000000000000
b111100 2
1'
b111011 B
#1240000000000000
0'
#1250000000000000
b111101 2
1'
b111100 B
#1260000000000000
0'
#1270000000000000
b111110 2
1'
b111101 B
#1280000000000000
0'
#1290000000000000
b111111 2
1'
b111110 B
#1300000000000000
0'
#1310000000000000
b1000000 2
1'
b111111 B
#1320000000000000
0'
#1330000000000000
b1000001 2
1'
b1000000 B
#1340000000000000
0'
#1350000000000000
b1000010 2
1'
b1000001 B
#1360000000000000
0'
#1370000000000000
b1000011 2
1'
b1000010 B
#1380000000000000
0'
#1390000000000000
b1000100 2
1'
b1000011 B
#1400000000000000
0'
#1410000000000000
b1000101 2
1'
b1000100 B
#1420000000000000
0'
#1430000000000000
b1000110 2
1'
b1000101 B
#1440000000000000
0'
#1450000000000000
b1000111 2
1'
b1000110 B
#1460000000000000
0'
#1470000000000000
b1001000 2
1'
b1000111 B
#1480000000000000
0'
#1490000000000000
b1001001 2
1'
b1001000 B
#1500000000000000
0'
#1510000000000000
b1001010 2
1'
b1001001 B
#1520000000000000
0'
#1530000000000000
b1001011 2
1'
b1001010 B
#1540000000000000
0'
#1550000000000000
b1001100 2
1'
b1001011 B
#1560000000000000
0'
#1570000000000000
b1001101 2
1'
b1001100 B
#1580000000000000
0'
#1590000000000000
b1001110 2
1'
b1001101 B
#1600000000000000
0'
#1610000000000000
b1001111 2
1'
b1001110 B
#1620000000000000
0'
#1630000000000000
b1010000 2
1'
b1001111 B
#1640000000000000
0'
#1650000000000000
b1010001 2
1'
b1010000 B
#1660000000000000
0'
#1670000000000000
b1010010 2
1'
b1010001 B
#1680000000000000
0'
#1690000000000000
b1010011 2
1'
b1010010 B
#1700000000000000
0'
#1710000000000000
b1010100 2
1'
b1010011 B
#1720000000000000
0'
#1730000000000000
b1010101 2
1'
b1010100 B
#1740000000000000
0'
#1750000000000000
b1010110 2
1'
b1010101 B
#1760000000000000
0'
#1770000000000000
b1010111 2
1'
b1010110 B
#1780000000000000
0'
#1790000000000000
b1011000 2
1'
b1010111 B
#1800000000000000
0'
#1810000000000000
b1011001 2
1'
b1011000 B
#1820000000000000
0'
#1830000000000000
b1011010 2
1'
b1011001 B
#1840000000000000
0'
#1850000000000000
b1011011 2
1'
b1011010 B
#1860000000000000
0'
#1870000000000000
b1011100 2
1'
b1011011 B
#1880000000000000
0'
#1890000000000000
b1011101 2
1'
b1011100 B
#1900000000000000
0'
#1910000000000000
b1011110 2
1'
b1011101 B
#1920000000000000
0'
#1930000000000000
b1011111 2
1'
b1011110 B
#1940000000000000
0'
#1950000000000000
b1100000 2
1'
b1011111 B
#1960000000000000
0'
#1970000000000000
b1100001 2
1'
b1100000 B
#1980000000000000
0'
#1990000000000000
b1100010 2
1'
b1100001 B
#2000000000000000
0'
#2010000000000000
b1100011 2
1'
b1100010 B
#2020000000000000
0'
#2030000000000000
b1100100 2
1'
b1100011 B
#2040000000000000
0'
#2050000000000000
b1100101 2
1'
b1100100 B
#2060000000000000
0'
#2070000000000000
b1100110 2
1'
b1100101 B
#2080000000000000
0'
#2090000000000000
b1100111 2
1'
b1100110 B
#2100000000000000
0'
#2110000000000000
b1101000 2
1'
b1100111 B
#2120000000000000
0'
#2130000000000000
b1101001 2
1'
b1101000 B
#2140000000000000
0'
#2150000000000000
b1101010 2
1'
b1101001 B
#2160000000000000
0'
#2170000000000000
b1101011 2
1'
b1101010 B
#2180000000000000
0'
#2190000000000000
b1101100 2
1'
b1101011 B
#2200000000000000
0'
#2210000000000000
b1101101 2
1'
b1101100 B
#2220000000000000
0'
#2230000000000000
b1101110 2
1'
b1101101 B
#2240000000000000
0'
#2250000000000000
b1101111 2
1'
b1101110 B
#2260000000000000
0'
#2270000000000000
b1110000 2
1'
b1101111 B
#2280000000000000
0'
#2290000000000000
b1110001 2
1'
b1110000 B
#2300000000000000
0'
#2310000000000000
b1110010 2
1'
b1110001 B
#2320000000000000
0'
#2330000000000000
b1110011 2
1'
b1110010 B
#2340000000000000
0'
#2350000000000000
b1110100 2
1'
b1110011 B
#2360000000000000
0'
#2370000000000000
b1110101 2
1'
b1110100 B
#2380000000000000
0'
#2390000000000000
b1110110 2
1'
b1110101 B
#2400000000000000
0'
#2410000000000000
b1110111 2
1'
b1110110 B
#2420000000000000
0'
#2430000000000000
b1111000 2
1'
b1110111 B
#2440000000000000
0'
#2450000000000000
b1111001 2
1'
b1111000 B
#2460000000000000
0'
#2470000000000000
b1111010 2
1'
b1111001 B
#2480000000000000
0'
#2490000000000000
b1111011 2
1'
b1111010 B
#2500000000000000
0'
#2510000000000000
b1111100 2
1'
b1111011 B
#2520000000000000
0'
#2530000000000000
b1111101 2
1'
b1111100 B
#2540000000000000
0'
#2550000000000000
b1111110 2
1'
b1111101 B
#2560000000000000
0'
#2570000000000000
b1111111 2
1'
b1111110 B
#2580000000000000
0'
#2590000000000000
b10000000 2
1'
b1111111 B
#2600000000000000
0'
#2610000000000000
b10000001 2
1'
b10000000 B
#2620000000000000
0'
#2630000000000000
b10000010 2
1'
b10000001 B
#2640000000000000
0'
#2650000000000000
b10000011 2
1'
b10000010 B
#2660000000000000
0'
#2670000000000000
b10000100 2
1'
b10000011 B
#2680000000000000
0'
#2690000000000000
b10000101 2
1'
b10000100 B
#2700000000000000
0'
#2710000000000000
b10000110 2
1'
b10000101 B
#2720000000000000
0'
#2730000000000000
b10000111 2
1'
b10000110 B
#2740000000000000
0'
#2750000000000000
b10001000 2
1'
b10000111 B
#2760000000000000
0'
#2770000000000000
b10001001 2
1'
b10001000 B
#2780000000000000
0'
#2790000000000000
b10001010 2
1'
b10001001 B
#2800000000000000
0'
#2810000000000000
b10001011 2
1'
b10001010 B
#2820000000000000
0'
#2830000000000000
b10001100 2
1'
b10001011 B
#2840000000000000
0'
#2850000000000000
b10001101 2
1'
b10001100 B
#2860000000000000
0'
#2870000000000000
b10001110 2
1'
b10001101 B
#2880000000000000
0'
#2890000000000000
b10001111 2
1'
b10001110 B
#2900000000000000
0'
#2910000000000000
b10010000 2
1'
b10001111 B
#2920000000000000
0'
#2930000000000000
b10010001 2
1'
b10010000 B
#2940000000000000
0'
#2950000000000000
b10010010 2
1'
b10010001 B
#2960000000000000
0'
#2970000000000000
b10010011 2
1'
b10010010 B
#2980000000000000
0'
#2990000000000000
b10010100 2
1'
b10010011 B
#3000000000000000
0'
#3010000000000000
b10010101 2
1'
b10010100 B
#3020000000000000
0'
#3030000000000000
b10010110 2
1'
b10010101 B
#3040000000000000
0'
#3050000000000000
b10010111 2
1'
b10010110 B
#3060000000000000
0'
#3070000000000000
b10011000 2
1'
b10010111 B
#3080000000000000
0'
#3090000000000000
b10011001 2
1'
b10011000 B
#3100000000000000
0'
#3110000000000000
b10011010 2
1'
b10011001 B
#3120000000000000
0'
#3130000000000000
b10011011 2
1'
b10011010 B
#3140000000000000
0'
#3150000000000000
b10011100 2
1'
b10011011 B
#3160000000000000
0'
#3170000000000000
b10011101 2
1'
b10011100 B
#3180000000000000
0'
#3190000000000000
b10011110 2
1'
b10011101 B
#3200000000000000
0'
#3210000000000000
b10011111 2
1'
b10011110 B
#3220000000000000
0'
#3230000000000000
b10100000 2
1'
b10011111 B
#3240000000000000
0'
#3250000000000000
b10100001 2
1'
b10100000 B
#3260000000000000
0'
#3270000000000000
b10100010 2
1'
b10100001 B
#3280000000000000
0'
#3290000000000000
b10100011 2
1'
b10100010 B
#3300000000000000
0'
#3310000000000000
b10100100 2
1'
b10100011 B
#3320000000000000
0'
#3330000000000000
b10100101 2
1'
b10100100 B
#3340000000000000
0'
#3350000000000000
b10100110 2
1'
b10100101 B
#3360000000000000
0'
#3370000000000000
b10100111 2
1'
b10100110 B
#3380000000000000
0'
#3390000000000000
b10101000 2
1'
b10100111 B
#3400000000000000
0'
#3410000000000000
b10101001 2
1'
b10101000 B
#3420000000000000
0'
#3430000000000000
b10101010 2
1'
b10101001 B
#3440000000000000
0'
#3450000000000000
b10101011 2
1'
b10101010 B
#3460000000000000
0'
#3470000000000000
b10101100 2
1'
b10101011 B
#3480000000000000
0'
#3490000000000000
b10101101 2
1'
b10101100 B
#3500000000000000
0'
#3510000000000000
b10101110 2
1'
b10101101 B
#3520000000000000
0'
#3530000000000000
b10101111 2
1'
b10101110 B
#3540000000000000
0'
#3550000000000000
b10110000 2
1'
b10101111 B
#3560000000000000
0'
#3570000000000000
b10110001 2
1'
b10110000 B
#3580000000000000
0'
#3590000000000000
b10110010 2
1'
b10110001 B
#3600000000000000
0'
#3610000000000000
b10110011 2
1'
b10110010 B
#3620000000000000
0'
#3630000000000000
b10110100 2
1'
b10110011 B
#3640000000000000
0'
#3650000000000000
b10110101 2
1'
b10110100 B
#3660000000000000
0'
#3670000000000000
b10110110 2
1'
b10110101 B
#3680000000000000
0'
#3690000000000000
b10110111 2
1'
b10110110 B
#3700000000000000
0'
#3710000000000000
b10111000 2
1'
b10110111 B
#3720000000000000
0'
#3730000000000000
b10111001 2
1'
b10111000 B
#3740000000000000
0'
#3750000000000000
b10111010 2
1'
b10111001 B
#3760000000000000
0'
#3770000000000000
b10111011 2
1'
b10111010 B
#3780000000000000
0'
#3790000000000000
b10111100 2
1'
b10111011 B
#3800000000000000
0'
#3810000000000000
b10111101 2
1'
b10111100 B
#3820000000000000
0'
#3830000000000000
b10111110 2
1'
b10111101 B
#3840000000000000
0'
#3850000000000000
b10111111 2
1'
b10111110 B
#3860000000000000
0'
#3870000000000000
b11000000 2
1'
b10111111 B
#3880000000000000
0'
#3890000000000000
b11000001 2
1'
b11000000 B
#3900000000000000
0'
#3910000000000000
b11000010 2
1'
b11000001 B
#3920000000000000
0'
#3930000000000000
b11000011 2
1'
b11000010 B
#3940000000000000
0'
#3950000000000000
b11000100 2
1'
b11000011 B
#3960000000000000
0'
#3970000000000000
b11000101 2
1'
b11000100 B
#3980000000000000
0'
#3990000000000000
b11000110 2
1'
b11000101 B
#4000000000000000
0'
#4010000000000000
b11000111 2
1'
b11000110 B
#4020000000000000
0'
#4030000000000000
b11111011001111101110001001001011 8
b100000 9
b1 &
b1 3
b1 5
b1 4
b0 2
1'
b11000111 B
#4040000000000000
0'
#4050000000000000
1%
b1 2
1'
b11001000 B
#4060000000000000
0'
#4070000000000000
b10 2
1'
b11001001 B
#4080000000000000
0'
#4090000000000000
b11 2
1'
b11001010 B
#4100000000000000
0'
#4110000000000000
b100 2
1'
b11001011 B
#4120000000000000
0'
#4130000000000000
b101 2
1'
b11001100 B
#4140000000000000
0'
#4150000000000000
b110 2
1'
b11001101 B
#4160000000000000
0'
#4170000000000000
b111 2
1'
b11001110 B
#4180000000000000
0'
#4190000000000000
b1000 2
1'
b11001111 B
#4200000000000000
0'
#4210000000000000
b1001 2
1'
b11010000 B
#4220000000000000
0'
#4230000000000000
b1010 2
1'
b11010001 B
#4240000000000000
0'
#4250000000000000
b1011 2
1'
b11010010 B
#4260000000000000
0'
#4270000000000000
b1100 2
1'
b11010011 B
#4280000000000000
0'
#4290000000000000
b1101 2
1'
b11010100 B
#4300000000000000
0'
#4310000000000000
b1110 2
1'
b11010101 B
#4320000000000000
0'
#4330000000000000
b1111 2
1'
b11010110 B
#4340000000000000
0'
#4350000000000000
b10000 2
1'
b11010111 B
#4360000000000000
0'
#4370000000000000
b10001 2
1'
b11011000 B
#4380000000000000
0'
#4390000000000000
b10010 2
1'
b11011001 B
#4400000000000000
0'
#4410000000000000
b10011 2
1'
b11011010 B
#4420000000000000
0'
#4430000000000000
b10100 2
1'
b11011011 B
#4440000000000000
0'
#4450000000000000
b10101 2
1'
b11011100 B
#4460000000000000
0'
#4470000000000000
b10110 2
1'
b11011101 B
#4480000000000000
0'
#4490000000000000
b10111 2
1'
b11011110 B
#4500000000000000
0'
#4510000000000000
b11000 2
1'
b11011111 B
#4520000000000000
0'
#4530000000000000
b11001 2
1'
b11100000 B
#4540000000000000
0'
#4550000000000000
b11010 2
1'
b11100001 B
#4560000000000000
0'
#4570000000000000
b11011 2
1'
b11100010 B
#4580000000000000
0'
#4590000000000000
b11100 2
1'
b11100011 B
#4600000000000000
0'
#4610000000000000
b11101 2
1'
b11100100 B
#4620000000000000
0'
#4630000000000000
b11110 2
1'
b11100101 B
#4640000000000000
0'
#4650000000000000
b11111 2
1'
b11100110 B
#4660000000000000
0'
#4670000000000000
b11111111111111111111111111111100 8
b100000 9
b11 &
b11 3
b11 5
b100000 2
1'
b11100111 B
#4680000000000000
0'
#4690000000000000
10
b11 4
b0 2
1'
b11101000 B
#4700000000000000
0'
#4710000000000000
b11111111111111111111111111110000 8
b100000 9
b11 ,
b11 6
b1 2
b11111111111111111111111111111100 7
1'
b11101001 B
#4720000000000000
0'
#4730000000000000
b11111111111111111111111111000000 8
b100000 9
b1111 ,
b1111 6
b11111111111111111111111111110000 7
b10 2
1'
b11101010 B
#4740000000000000
0'
#4750000000000000
b11111111111111111111111100000000 8
b100000 9
b111111 ,
b111111 6
b11 2
b11111111111111111111111111000000 7
1'
b11101011 B
#4760000000000000
0'
#4770000000000000
b11111111111111111111110000000000 8
b100000 9
b11111111 ,
b11111111 6
b11111111111111111111111100000000 7
b100 2
1'
b11101100 B
#4780000000000000
0'
#4790000000000000
b11111111111111111111000000000000 8
b100000 9
b1111111111 ,
b1111111111 6
b101 2
b11111111111111111111110000000000 7
1'
b11101101 B
#4800000000000000
0'
#4810000000000000
b11111111111111111100000000000000 8
b100000 9
b111111111111 ,
b111111111111 6
b11111111111111111111000000000000 7
b110 2
1'
b11101110 B
#4820000000000000
0'
#4830000000000000
b11111111111111110000000000000000 8
b100000 9
b11111111111111 ,
b11111111111111 6
b111 2
b11111111111111111100000000000000 7
1'
b11101111 B
#4840000000000000
0'
#4850000000000000
b11111111111111000000000000000000 8
b100000 9
b1111111111111111 ,
b1111111111111111 6
b11111111111111110000000000000000 7
b1000 2
1'
b11110000 B
#4860000000000000
0'
#4870000000000000
b11111111111100000000000000000000 8
b100000 9
b111111111111111111 ,
b111111111111111111 6
b1001 2
b11111111111111000000000000000000 7
1'
b11110001 B
#4880000000000000
0'
#4890000000000000
b11111111110000000000000000000000 8
b100000 9
b11111111111111111111 ,
b11111111111111111111 6
b11111111111100000000000000000000 7
b1010 2
1'
b11110010 B
#4900000000000000
0'
#4910000000000000
b11111111000000000000000000000000 8
b100000 9
b1111111111111111111111 ,
b1111111111111111111111 6
b1011 2
b11111111110000000000000000000000 7
1'
b11110011 B
#4920000000000000
0'
#4930000000000000
b11111100000000000000000000000000 8
b100000 9
b111111111111111111111111 ,
b111111111111111111111111 6
b11111111000000000000000000000000 7
b1100 2
1'
b11110100 B
#4940000000000000
0'
#4950000000000000
b11110000000000000000000000000000 8
b100000 9
b11111111111111111111111111 ,
b11111111111111111111111111 6
b1101 2
b11111100000000000000000000000000 7
1'
b11110101 B
#4960000000000000
0'
#4970000000000000
b11000000000000000000000000000000 8
b100000 9
b1111111111111111111111111111 ,
b1111111111111111111111111111 6
b11110000000000000000000000000000 7
b1110 2
1'
b11110110 B
#4980000000000000
0'
#4990000000000000
b0 8
b100000 9
b111111111111111111111111111111 ,
b111111111111111111111111111111 6
b1111 2
b11000000000000000000000000000000 7
1'
b11110111 B
#5000000000000000
0'
#5010000000000000
b1101010000110010011011011001 8
b100000 9
b11111111111111111111111111111111 ,
b11111111111111111111111111111111 6
b0 7
b10000 2
1'
b11111000 B
#5020000000000000
0'
#5030000000000000
b111000010011111011110110111101 8
b100000 9
b11110010101111001101100100100110 ,
b11110010101111001101100100100110 6
b10001 2
b1101010000110010011011011001 7
1'
b11111001 B
#5040000000000000
0'
#5050000000000000
b11101100011111011101000000101101 8
b100000 9
b11000111101100000100001001000010 ,
b11000111101100000100001001000010 6
b111000010011111011110110111101 7
b10010 2
1'
b11111010 B
#5060000000000000
0'
#5070000000000000
b10110001111101110100000010110100 8
b100000 9
b10011100000100010111111010010 ,
b10011100000100010111111010010 6
b10011 2
b11101100011111011101000000101101 7
1'
b11111011 B
#5080000000000000
0'
#5090000000000000
b11000011000111000001111101100111 8
b100000 9
b1001110000010001011111101001011 ,
b1001110000010001011111101001011 6
b10110001111101110100000010110100 7
b10100 2
1'
b11111100 B
#5100000000000000
0'
#5110000000000000
b1100011100000111110110011100 8
b100000 9
b111100111000111110000010011000 ,
b111100111000111110000010011000 6
b10101 2
b11000011000111000001111101100111 7
1'
b11111101 B
#5120000000000000
0'
#5130000000000000
b111100100000101101000010101001 8
b100000 9
b11110011100011111000001001100011 ,
b11110011100011111000001001100011 6
b1100011100000111110110011100 7
b10110 2
1'
b11111110 B
#5140000000000000
0'
#5150000000000000
b11111111010010000110010001111101 8
b100000 9
b11000011011111010010111101010110 ,
b11000011011111010010111101010110 6
b10111 2
b111100100000101101000010101001 7
1'
b11111111 B
#5160000000000000
0'
#5170000000000000
b11110100101000111010101010011010 8
b100000 9
b101101111001101110000010 ,
b101101111001101110000010 6
b10 &
b10 3
b10 5
b11111111010010000110010001111101 7
b100 4
b0 2
1'
b100000000 B
#5180000000000000
0'
#5190000000000000
b11011011000011001001000100000110 8
b100000 9
b1011010111000101010101100101 ,
b1011010111000101010101100101 6
b1 2
b11110100101000111010101010011010 7
1'
b100000001 B
#5200000000000000
0'
#5210000000000000
b1100101101100000111111101110110 8
b100000 9
b100100111100110110111011111001 ,
b100100111100110110111011111001 6
b11011011000011001001000100000110 7
b10 2
1'
b100000010 B
#5220000000000000
0'
#5230000000000000
b10010110110000011111110111011000 8
b100000 9
b10011010010011111000000010001001 ,
b10011010010011111000000010001001 6
b11 2
b1100101101100000111111101110110 7
1'
b100000011 B
#5240000000000000
0'
#5250000000000000
b1010110010001001101000110111001 8
b100000 9
b1101001001111100000001000100111 ,
b1101001001111100000001000100111 6
b10010110110000011111110111011000 7
b100 2
1'
b100000100 B
#5260000000000000
0'
#5270000000000000
b1011001000100110100011011100100 8
b100000 9
b10101001101110110010111001000110 ,
b10101001101110110010111001000110 6
b101 2
b1010110010001001101000110111001 7
1'
b100000101 B
#5280000000000000
0'
#5290000000000000
b1100100010011010001101110010000 8
b100000 9
b10100110111011001011100100011011 ,
b10100110111011001011100100011011 6
b1011001000100110100011011100100 7
b110 2
1'
b100000110 B
#5300000000000000
0'
#5310000000000000
b10010001001101000110111001000000 8
b100000 9
b10011011101100101110010001101111 ,
b10011011101100101110010001101111 6
b111 2
b1100100010011010001101110010000 7
1'
b100000111 B
#5320000000000000
0'
#5330000000000000
b1001001100100101001111111011001 8
b100000 9
b1101110110010111001000110111111 ,
b1101110110010111001000110111111 6
b10010001001101000110111001000000 7
b1000 2
1'
b100001000 B
#5340000000000000
0'
#5350000000000000
b100110010010100111111101100100 8
b100000 9
b10110110011011010110000000100110 ,
b10110110011011010110000000100110 6
b1001 2
b1001001100100101001111111011001 7
1'
b100001001 B
#5360000000000000
0'
#5370000000000000
b10011101111010001110000000100111 8
b100000 9
b11011001101101011000000010011011 ,
b11011001101101011000000010011011 6
b100110010010100111111101100100 7
b1010 2
1'
b100001010 B
#5380000000000000
0'
#5390000000000000
b1111010111000001010011001000101 8
b100000 9
b1100010000101110001111111011000 ,
b1100010000101110001111111011000 6
b1011 2
b10011101111010001110000000100111 7
1'
b100001011 B
#5400000000000000
0'
#5410000000000000
b11101011100000101001100100010100 8
b100000 9
b10000101000111110101100110111010 ,
b10000101000111110101100110111010 6
b1111010111000001010011001000101 7
b1100 2
1'
b100001100 B
#5420000000000000
0'
#5430000000000000
b10100111100010000101111100111110 8
b100000 9
b10100011111010110011011101011 ,
b10100011111010110011011101011 6
b1101 2
b11101011100000101001100100010100 7
1'
b100001101 B
#5440000000000000
0'
#5450000000000000
b10010011011000100101101000100001 8
b100000 9
b1011000011101111010000011000001 ,
b1011000011101111010000011000001 6
b10100111100010000101111100111110 7
b1110 2
1'
b100001110 B
#5460000000000000
0'
#5470000000000000
b1000000110010100100111001011101 8
b100000 9
b1101100100111011010010111011110 ,
b1101100100111011010010111011110 6
b1111 2
b10010011011000100101101000100001 7
1'
b100001111 B
#5480000000000000
0'
#5490000000000000
b11001010010011100101110100 8
b100000 9
b10111111001101011011000110100010 ,
b10111111001101011011000110100010 6
b1000000110010100100111001011101 7
b10000 2
1'
b100010000 B
#5500000000000000
0'
#5510000000000000
b1000011001011111100001100111 8
b100000 9
b11111100110101101100011010001011 ,
b11111100110101101100011010001011 6
b10001 2
b11001010010011100101110100 7
1'
b100010001 B
#5520000000000000
0'
#5530000000000000
b100101010101101111110000101011 8
b100000 9
b11110111100110100000011110011000 ,
b11110111100110100000011110011000 6
b1000011001011111100001100111 7
b10010 2
1'
b100010010 B
#5540000000000000
0'
#5550000000000000
b10010001100110101110110100011011 8
b100000 9
b11011010101010010000001111010100 ,
b11011010101010010000001111010100 6
b10011 2
b100101010101101111110000101011 7
1'
b100010011 B
#5560000000000000
0'
#5570000000000000
b1001011001010001001001010110101 8
b100000 9
b1101110011001010001001011100100 ,
b1101110011001010001001011100100 6
b10010001100110101110110100011011 7
b10100 2
1'
b100010100 B
#5580000000000000
0'
#5590000000000000
b101100101000100100101011010100 8
b100000 9
b10110100110101110110110101001010 ,
b10110100110101110110110101001010 6
b10101 2
b1001011001010001001001010110101 7
1'
b100010101 B
#5600000000000000
0'
#5610000000000000
b10110110010010000011011011100111 8
b100000 9
b11010011010111011011010100101011 ,
b11010011010111011011010100101011 6
b101100101000100100101011010100 7
b10110 2
1'
b100010110 B
#5620000000000000
0'
#5630000000000000
b11010100011000111111110101000101 8
b100000 9
b1001001101101111100100100011000 ,
b1001001101101111100100100011000 6
b10111 2
b10110110010010000011011011100111 7
1'
b100010111 B
#5640000000000000
0'
#5650000000000000
b1011000000011011100111001111010 8
b100000 9
b101011100111000000001010111010 ,
b101011100111000000001010111010 6
b11010100011000111111110101000101 7
b101 4
b0 2
1'
b100011000 B
#5660000000000000
0'
#5670000000000000
b1100000001101110011100111101000 8
b100000 9
b10100111111100100011000110000101 ,
b10100111111100100011000110000101 6
b1 2
b1011000000011011100111001111010 7
1'
b100011001 B
#5680000000000000
0'
#5690000000000000
b10000000110111001110011110100000 8
b100000 9
b10011111110010001100011000010111 ,
b10011111110010001100011000010111 6
b1100000001101110011100111101000 7
b10 2
1'
b100011010 B
#5700000000000000
0'
#5710000000000000
b11 &
b11 3
b11 5
b111101100101000001100110111 8
b100000 9
b1111111001000110001100001011111 ,
b1111111001000110001100001011111 6
b11 2
b10000000110111001110011110100000 7
1'
b100011011 B
#5720000000000000
0'
#5730000000000000
b10011100010010010101000000101 8
b100000 9
b11111000010011010111110011001000 ,
b11111000010011010111110011001000 6
b111101100101000001100110111 7
b100 2
1'
b100011100 B
#5740000000000000
0'
#5750000000000000
b0 &
b0 3
b0 5
b1001110001001001010100000010100 8
b100000 9
b11101100011101101101010111111010 ,
b11101100011101101101010111111010 6
b101 2
b10011100010010010101000000101 7
1'
b100011101 B
#5760000000000000
0'
#5770000000000000
b110001000100001001101100111110 8
b100000 9
b10110001110110110101011111101011 ,
b10110001110110110101011111101011 6
b11 &
b11 3
b11 5
b1001110001001001010100000010100 7
b110 2
1'
b100011110 B
#5780000000000000
0'
