FPGA1/obj/reverse_bit_order.vcd
$date
	Thu Nov  3 13:14:14 2022
$end
$version
	Icarus Verilog
$end
$timescale
	1ps
$end
$scope module reverse_bit_order_tb $end
$var wire 24 ! pixel_addr [23:0] $end
$var wire 1 " axiov $end
$var wire 2 # axiod [1:0] $end
$var reg 1 $ clk $end
$var reg 8 % pixel [7:0] $end
$var reg 1 & rst $end
$var reg 1 ' stall $end
$scope module reverse_bit_order $end
$var wire 1 $ clk $end
$var wire 8 ( pixel [7:0] $end
$var wire 1 & rst $end
$var wire 1 ' stall $end
$var reg 6 ) addr_bit_counter [5:0] $end
$var reg 9 * audio_counter [8:0] $end
$var reg 2 + axiod [1:0] $end
$var reg 1 " axiov $end
$var reg 3 , byte_bit_counter [2:0] $end
$var reg 24 - pixel_addr [23:0] $end
$var reg 9 . pixel_counter [8:0] $end
$var reg 2 / state [1:0] $end
$upscope $end
$scope begin $ivl_for_loop0 $end
$var integer 32 0 i [31:0] $end
$upscope $end
$scope begin $ivl_for_loop1 $end
$var integer 32 1 i [31:0] $end
$upscope $end
$scope begin $ivl_for_loop2 $end
$var integer 32 2 i [31:0] $end
$upscope $end
$scope begin $ivl_for_loop3 $end
$var integer 32 3 i [31:0] $end
$upscope $end
$scope begin $ivl_for_loop4 $end
$var integer 32 4 i [31:0] $end
$upscope $end
$scope begin $ivl_for_loop5 $end
$var integer 32 5 i [31:0] $end
$upscope $end
$scope begin $ivl_for_loop6 $end
$var integer 32 6 i [31:0] $end
$upscope $end
$scope begin $ivl_for_loop7 $end
$var integer 32 7 i [31:0] $end
$upscope $end
$upscope $end
$enddefinitions $end
#0
$dumpvars
b0 7
b0 6
b0 5
b0 4
b0 3
b0 2
b0 1
b0 0
bx /
bx .
bx -
bx ,
bx +
bx *
bx )
bx (
x'
0&
bx %
0$
bx #
x"
bx !
$end
#10000000000000
1$
#20000000000000
0$
1&
#30000000000000
b0 *
b0 .
b0 ,
b0 )
b0 #
b0 +
0"
b0 /
b0 !
b0 -
1$
#40000000000000
0$
0&
#50000000000000
b10 )
b10 ,
1"
1$
b11111111 %
b11111111 (
0'
#60000000000000
0$
#70000000000000
b100 )
b100 ,
1$
b1 0
#80000000000000
0$
#90000000000000
b110 )
b110 ,
1$
b10 0
#100000000000000
0$
#110000000000000
b1000 )
b0 ,
1$
b11 0
#120000000000000
0$
#130000000000000
b1010 )
b10 ,
1$
b100 0
#140000000000000
0$
#150000000000000
b1100 )
b100 ,
1$
b101 0
#160000000000000
0$
#170000000000000
b1110 )
b110 ,
1$
b110 0
#180000000000000
0$
#190000000000000
b10000 )
b0 ,
1$
b111 0
#200000000000000
0$
#210000000000000
b10010 )
b10 ,
1$
b1000 0
#220000000000000
0$
#230000000000000
b10100 )
b100 ,
1$
b1001 0
#240000000000000
0$
#250000000000000
b10110 )
b110 ,
1$
b1010 0
#260000000000000
0$
#270000000000000
b1 /
b0 )
b0 ,
1$
b1011 0
#280000000000000
0$
#290000000000000
b1 .
b10 ,
1$
b11100100 %
b11100100 (
b1100 0
#300000000000000
0$
#310000000000000
b11 .
b1 #
b1 +
b100 ,
1$
b1 1
#320000000000000
0$
#330000000000000
b101 .
b10 #
b10 +
b1 !
b1 -
b110 ,
1$
b10 1
#340000000000000
0$
#350000000000000
b111 .
b11 #
b11 +
b0 ,
1$
b11 1
#360000000000000
0$
#370000000000000
b1 .
b0 #
b0 +
b10 ,
1$
b100 1
#380000000000000
0$
#390000000000000
b11 .
b1 #
b1 +
b100 ,
1$
b1 2
#400000000000000
0$
#410000000000000
b101 .
b10 #
b10 +
b10 !
b10 -
b110 ,
1$
b10 2
#420000000000000
0$
#430000000000000
b111 .
b11 #
b11 +
b0 ,
1$
b11 2
#440000000000000
0$
#450000000000000
b0 .
b0 #
b0 +
0"
b0 /
1$
1'
b100 2
#460000000000000
0$
#470000000000000
1$
b11111111 %
b11111111 (
#480000000000000
0$
#490000000000000
1$
b1 3
#500000000000000
0$
#510000000000000
1$
b10 3
#520000000000000
0$
#530000000000000
1$
b11 3
#540000000000000
0$
#550000000000000
1$
b100 3
#560000000000000
0$
#570000000000000
1$
b101 3
#580000000000000
0$
#590000000000000
1$
b110 3
#600000000000000
0$
#610000000000000
1$
b111 3
#620000000000000
0$
#630000000000000
1$
b1000 3
#640000000000000
0$
#650000000000000
1$
b1001 3
#660000000000000
0$
#670000000000000
1$
b1010 3
#680000000000000
0$
#690000000000000
1$
b1011 3
#700000000000000
0$
#710000000000000
b10 )
b10 ,
1"
1$
0'
b1100 3
#720000000000000
0$
#730000000000000
b100 )
b100 ,
1$
b1 4
#740000000000000
0$
#750000000000000
b110 )
b110 ,
1$
b10 4
#760000000000000
0$
#770000000000000
b1000 )
b0 ,
1$
b11 4
#780000000000000
0$
#790000000000000
b1010 )
b10 ,
1$
b100 4
#800000000000000
0$
#810000000000000
b1100 )
b100 ,
1$
b101 4
#820000000000000
0$
#830000000000000
b1110 )
b110 ,
1$
b110 4
#840000000000000
0$
#850000000000000
b10000 )
b0 ,
1$
b111 4
#860000000000000
0$
#870000000000000
b10010 )
b10 ,
b10 #
b10 +
1$
b1000 4
#880000000000000
0$
#890000000000000
b10100 )
b100 ,
b0 #
b0 +
1$
b1001 4
#900000000000000
0$
#910000000000000
b10110 )
b110 ,
1$
b1010 4
#920000000000000
0$
#930000000000000
b1 /
b0 )
b0 ,
1$
b1011 4
#940000000000000
0$
#950000000000000
b1 .
b11 #
b11 +
b10 ,
1$
b1111 %
b1111 (
b1100 4
#960000000000000
0$
#970000000000000
b11 .
b100 ,
1$
b1 5
#980000000000000
0$
#990000000000000
b101 .
b0 #
b0 +
b11 !
b11 -
b110 ,
1$
b10 5
#1000000000000000
0$
#1010000000000000
b111 .
b0 ,
1$
b11 5
#1020000000000000
0$
#1030000000000000
b1 .
b10 ,
1$
b11110000 %
b11110000 (
b100 5
#1040000000000000
0$
#1050000000000000
b11 .
b100 ,
1$
b1 6
#1060000000000000
0$
#1070000000000000
b101 .
b11 #
b11 +
b100 !
b100 -
b110 ,
1$
b10 6
#1080000000000000
0$
#1090000000000000
b111 .
b0 ,
1$
b11 6
#1100000000000000
0$
#1110000000000000
b0 .
b0 #
b0 +
0"
b0 /
1$
1'
b100 6
#1120000000000000
0$
#1130000000000000
1$
b11111111 %
b11111111 (
#1140000000000000
0$
#1150000000000000
1$
b1 7
#1160000000000000
0$
#1170000000000000
1$
b10 7
#1180000000000000
0$
#1190000000000000
1$
b11 7
#1200000000000000
0$
#1210000000000000
1$
b100 7
#1220000000000000
0$
#1230000000000000
1$
b101 7
#1240000000000000
0$
#1250000000000000
1$
b110 7
#1260000000000000
0$
#1270000000000000
1$
b111 7
#1280000000000000
0$
#1290000000000000
1$
b1000 7
#1300000000000000
0$
#1310000000000000
1$
b1001 7
#1320000000000000
0$
#1330000000000000
1$
b1010 7
#1340000000000000
0$
#1350000000000000
1$
b1011 7
#1360000000000000
0$
#1370000000000000
1$
b1100 7
