EthernetTesting/obj/image_audio_splitter.vcd
$date
	Mon Dec 12 15:08:11 2022
$end
$version
	Icarus Verilog
$end
$timescale
	1ps
$end
$scope module image_audio_splitter_tb $end
$var wire 1 ! stall $end
$var wire 24 " rbo_pixel_addr [23:0] $end
$var wire 1 # rbo_axiov $end
$var wire 2 $ rbo_axiod [1:0] $end
$var wire 1 % phy_txen $end
$var wire 2 & phy_txd [1:0] $end
$var wire 1 ' kill $end
$var wire 8 ( ias_pixel_out [7:0] $end
$var wire 1 ) ias_pixel_axiov $end
$var wire 8 * ias_audio_out [7:0] $end
$var wire 1 + ias_audio_axiov $end
$var wire 24 , ias_addr_out [23:0] $end
$var wire 1 - ias_addr_axiov $end
$var wire 8 . fp_written_pixel [7:0] $end
$var wire 1 / fp_pixel_wea $end
$var wire 17 0 fp_addr_axiod [16:0] $end
$var wire 1 1 firewall_axiov $end
$var wire 2 2 firewall_axiod [1:0] $end
$var wire 1 3 ether_axiov $end
$var wire 2 4 ether_axiod [1:0] $end
$var wire 1 5 done $end
$var wire 1 6 bitorder_axiov $end
$var wire 2 7 bitorder_axiod [1:0] $end
$var reg 1 8 clk $end
$var reg 24 9 old_rbo_pixel_addr [23:0] $end
$var reg 8 : pixel [7:0] $end
$var reg 1 ; rst $end
$scope module bitorder $end
$var wire 1 8 clk $end
$var wire 1 ; rst $end
$var wire 1 3 axiiv $end
$var wire 2 < axiid [1:0] $end
$var reg 2 = axiod [1:0] $end
$var reg 1 6 axiov $end
$var reg 5 > bitCounter1 [4:0] $end
$var reg 5 ? bitCounter2 [4:0] $end
$var reg 8 @ buffer1 [7:0] $end
$var reg 8 A buffer2 [7:0] $end
$var reg 1 B flag $end
$var reg 2 C state [1:0] $end
$upscope $end
$scope module cksum $end
$var wire 2 D axiid [1:0] $end
$var wire 1 E axiov $end
$var wire 1 8 clk $end
$var wire 1 ; rst $end
$var wire 32 F axiod [31:0] $end
$var wire 1 3 axiiv $end
$var reg 1 G crc32rst $end
$var reg 1 5 done $end
$var reg 1 ' kill $end
$var reg 2 H state [1:0] $end
$scope module cksum $end
$var wire 2 I axiid [1:0] $end
$var wire 32 J axiod [31:0] $end
$var wire 1 E axiov $end
$var wire 1 8 clk $end
$var wire 1 G rst $end
$var wire 1 3 axiiv $end
$var reg 32 K caxiod [31:0] $end
$var reg 32 L saxiod [31:0] $end
$var integer 32 M i [31:0] $end
$upscope $end
$upscope $end
$scope module eth_packer $end
$var wire 1 N cancelled $end
$var wire 1 O cksum_calculated $end
$var wire 1 8 clk $end
$var wire 1 ; rst $end
$var wire 32 P cksum [31:0] $end
$var wire 1 # axiiv $end
$var wire 2 Q axiid [1:0] $end
$var reg 9 R audio_counter [8:0] $end
$var reg 3 S byte_bit_counter [2:0] $end
$var reg 1 T cksum_axiiv $end
$var reg 1 U crc32rst $end
$var reg 13 V dibit_counter [12:0] $end
$var reg 2 W phy_txd [1:0] $end
$var reg 1 % phy_txen $end
$var reg 1 ! stall $end
$var reg 4 X state [3:0] $end
$scope module crc32 $end
$var wire 2 Y axiid [1:0] $end
$var wire 1 T axiiv $end
$var wire 32 Z axiod [31:0] $end
$var wire 1 O axiov $end
$var wire 1 8 clk $end
$var wire 1 U rst $end
$var reg 32 [ caxiod [31:0] $end
$var reg 32 \ saxiod [31:0] $end
$var integer 32 ] i [31:0] $end
$upscope $end
$upscope $end
$scope module firewall $end
$var wire 2 ^ axiid [1:0] $end
$var wire 1 6 axiiv $end
$var wire 1 8 clk $end
$var wire 1 ; rst $end
$var reg 2 _ axiod [1:0] $end
$var reg 1 1 axiov $end
$var reg 8 ` counter [7:0] $end
$var reg 48 a macAddress [47:0] $end
$upscope $end
$scope module fp $end
$var wire 1 8 clk $end
$var wire 1 ; rst $end
$var wire 1 ) pixel_axiiv $end
$var wire 8 b pixel_axiid [7:0] $end
$var wire 1 - addr_axiiv $end
$var wire 24 c addr_axiid [23:0] $end
$var reg 17 d addr_axiod [16:0] $end
$var reg 1 / axiov $end
$var reg 1 e firstBit $end
$var reg 8 f pixel_axiod [7:0] $end
$upscope $end
$scope module image_audio_splitter $end
$var wire 2 g axiid [1:0] $end
$var wire 1 1 axiiv $end
$var wire 1 8 clk $end
$var wire 1 ; rst $end
$var reg 24 h addr [23:0] $end
$var reg 1 - addr_axiov $end
$var reg 8 i audio [7:0] $end
$var reg 1 + audio_axiov $end
$var reg 3 j byte_bit_counter [2:0] $end
$var reg 18 k output_counter [17:0] $end
$var reg 8 l pixel [7:0] $end
$var reg 1 ) pixel_axiov $end
$var reg 2 m state [1:0] $end
$upscope $end
$scope module reverse_bit_order $end
$var wire 1 8 clk $end
$var wire 8 n pixel [7:0] $end
$var wire 1 ; rst $end
$var wire 1 ! stall $end
$var reg 6 o addr_bit_counter [5:0] $end
$var reg 9 p audio_counter [8:0] $end
$var reg 2 q axiod [1:0] $end
$var reg 1 # axiov $end
$var reg 4 r byte_bit_counter [3:0] $end
$var reg 24 s pixel_addr [23:0] $end
$var reg 9 t pixel_counter [8:0] $end
$var reg 2 u state [1:0] $end
$upscope $end
$scope module uut $end
$var wire 1 8 clk $end
$var wire 1 % crsdv $end
$var wire 1 ; rst $end
$var wire 2 v rxd [1:0] $end
$var reg 2 w axiod [1:0] $end
$var reg 1 3 axiov $end
$var reg 6 x counter [5:0] $end
$var reg 3 y state [2:0] $end
$upscope $end
$scope begin $ivl_for_loop0 $end
$var integer 32 z i [31:0] $end
$upscope $end
$upscope $end
$enddefinitions $end
#0
$dumpvars
b0 z
bx y
bx x
bx w
b0 v
bx u
bx t
bx s
bx r
b0 q
bx p
bx o
bx n
bx m
bx l
bx k
bx j
bx i
bx h
bx g
bx f
xe
bx d
bx c
bx b
bx a
bx `
bx _
bx ^
b100000 ]
bx \
bx [
bx Z
b0 Y
bx X
b0 W
bx V
xU
0T
bx S
bx R
b0 Q
bx P
1O
0N
bx M
bx L
bx K
bx J
bx I
bx H
xG
bx F
1E
bx D
bx C
xB
bx A
bx @
bx ?
bx >
bx =
bx <
0;
bx :
bx 9
08
bx 7
x6
x5
bx 4
x3
bx 2
01
bx 0
x/
bx .
x-
bx ,
x+
bx *
x)
bx (
x'
b0 &
0%
b0 $
x#
bx "
1!
$end
#10000
b0 p
b0 t
b1000 r
b0 o
0#
b0 u
b0 `
b0 a
0+
0)
0-
b0 *
b0 i
b0 (
b0 b
b0 l
b0 j
b0 k
b1 m
0/
18
#20000
bx 2
bx _
bx g
08
1;
#30000
b0 2
b0 _
b0 g
b100000 M
1e
b0 .
b0 f
b0 0
b0 d
b0 ,
b0 c
b0 h
b0 H
1G
0'
05
0B
b0 C
b0 A
b0 @
b0 ?
b0 >
b0 7
b0 =
b0 ^
06
b0 x
b0 y
b0 D
b0 I
b0 4
b0 <
b0 w
03
b0 V
1U
b0 R
b0 S
b0 X
b0 "
b0 s
18
#40000
08
0;
#50000
b11110010101111001101100100100101 \
b100000 ]
b0 P
b0 Z
b11110010101111001101100100100101 L
b100000 M
b0 F
b0 J
b11111111111111111111111111111111 [
b1 V
0U
b1 x
b11111111111111111111111111111111 K
0G
18
b11011 :
b11011 n
#60000
08
#70000
b10 V
b0 9
18
b1 z
#80000
08
#90000
b11 V
18
b10 z
#100000
08
#110000
b100 V
18
b11 z
#120000
08
#130000
b101 V
18
b100 z
#140000
08
#150000
b110 V
18
b101 z
#160000
08
#170000
b111 V
18
b110 z
#180000
08
#190000
b1000 V
18
b111 z
#200000
08
#210000
b1001 V
18
b1000 z
#220000
08
#230000
b1010 V
18
b1001 z
#240000
08
#250000
b1011 V
18
b1010 z
#260000
08
#270000
b1100 V
18
b1011 z
#280000
08
#290000
b1101 V
18
b1100 z
#300000
08
#310000
b1110 V
18
b1101 z
#320000
08
#330000
b1111 V
18
b1110 z
#340000
08
#350000
b10000 V
18
b1111 z
#360000
08
#370000
b10001 V
18
b10000 z
#380000
08
#390000
b10010 V
18
b10001 z
#400000
08
#410000
b10011 V
18
b10010 z
#420000
08
#430000
b10100 V
18
b10011 z
#440000
08
#450000
b10101 V
18
b10100 z
#460000
08
#470000
b10110 V
18
b10101 z
#480000
08
#490000
b10111 V
18
b10110 z
#500000
08
#510000
b11000 V
18
b10111 z
#520000
08
#530000
b11001 V
18
b11000 z
#540000
08
#550000
b11010 V
18
b11001 z
#560000
08
#570000
b11011 V
18
b11010 z
#580000
08
#590000
b11100 V
18
b11011 z
#600000
08
#610000
b11101 V
18
b11100 z
#620000
08
#630000
b11110 V
18
b11101 z
#640000
08
#650000
b11111 V
18
b11110 z
#660000
08
#670000
b100000 V
18
b11111 z
#680000
08
#690000
b100001 V
18
b100000 z
#700000
08
#710000
b100010 V
18
b100001 z
#720000
08
#730000
b100011 V
18
b100010 z
#740000
08
#750000
b100100 V
18
b100011 z
#760000
08
#770000
b100101 V
18
b100100 z
#780000
08
#790000
b100110 V
18
b100101 z
#800000
08
#810000
b100111 V
18
b100110 z
#820000
08
#830000
b101000 V
18
b100111 z
#840000
08
#850000
b101001 V
18
b101000 z
#860000
08
#870000
b101010 V
18
b101001 z
#880000
08
#890000
b101011 V
18
b101010 z
#900000
08
#910000
b101100 V
18
b101011 z
#920000
08
#930000
b101101 V
18
b101100 z
#940000
08
#950000
b101110 V
18
b101101 z
#960000
08
#970000
b101111 V
18
b101110 z
#980000
08
#990000
b11111011001111101110001001001011 \
b100000 ]
b1 &
b1 W
b1 Y
b1 v
b1 X
b0 V
18
b101111 z
#1000000
08
#1010000
1%
b1 V
18
b110000 z
#1020000
08
#1030000
b1 y
b10 V
18
b110001 z
#1040000
08
#1050000
b11 V
b10 x
18
b110010 z
#1060000
08
#1070000
b11 x
b100 V
18
b110011 z
#1080000
08
#1090000
b101 V
b100 x
18
b110100 z
#1100000
08
#1110000
b101 x
b110 V
18
b110101 z
#1120000
08
#1130000
b111 V
b110 x
18
b110110 z
#1140000
08
#1150000
b111 x
b1000 V
18
b110111 z
#1160000
08
#1170000
b1001 V
b1000 x
18
b111000 z
#1180000
08
#1190000
b1001 x
b1010 V
18
b111001 z
#1200000
08
#1210000
b1011 V
b1010 x
18
b111010 z
#1220000
08
#1230000
b1011 x
b1100 V
18
b111011 z
#1240000
08
#1250000
b1101 V
b1100 x
18
b111100 z
#1260000
08
#1270000
b1101 x
b1110 V
18
b111101 z
#1280000
08
#1290000
b1111 V
b1110 x
18
b111110 z
#1300000
08
#1310000
b1111 x
b10000 V
18
b111111 z
#1320000
08
#1330000
b10001 V
b10000 x
18
b1000000 z
#1340000
08
#1350000
b10001 x
b10010 V
18
b1000001 z
#1360000
08
#1370000
b10011 V
b10010 x
18
b1000010 z
#1380000
08
#1390000
b10011 x
b10100 V
18
b1000011 z
#1400000
08
#1410000
b10101 V
b10100 x
18
b1000100 z
#1420000
08
#1430000
b10101 x
b10110 V
18
b1000101 z
#1440000
08
#1450000
b10111 V
b10110 x
18
b1000110 z
#1460000
08
#1470000
b10111 x
b11000 V
18
b1000111 z
#1480000
08
#1490000
b11001 V
b11000 x
18
b1001000 z
#1500000
08
#1510000
b11001 x
b11010 V
18
b1001001 z
#1520000
08
#1530000
b11011 V
b11010 x
18
b1001010 z
#1540000
08
#1550000
b11011 x
b11100 V
18
b1001011 z
#1560000
08
#1570000
b11101 V
b11100 x
18
b1001100 z
#1580000
08
#1590000
b11101 x
b11110 V
18
b1001101 z
#1600000
08
#1610000
b11111 V
b11110 x
18
b1001110 z
#1620000
08
#1630000
b11111111111111111111111111111100 \
b100000 ]
b11 &
b11 W
b11 Y
b11 v
b10 y
b0 x
b100000 V
18
b1001111 z
#1640000
08
#1650000
1T
b11 X
b0 V
b11 y
18
b1010000 z
#1660000
08
#1670000
b11111111111111111111111111111100 L
b100000 M
b11111111111111111111111111110000 \
b100000 ]
b11 P
b11 Z
b11 D
b11 I
b11 4
b11 <
b11 w
13
b1 V
b11111111111111111111111111111100 [
18
b1010001 z
#1680000
08
#1690000
b11111111111111111111111111000000 \
b100000 ]
b1111 P
b1111 Z
b11111111111111111111111111110000 L
b100000 M
b11 F
b11 J
b11111111111111111111111111110000 [
b10 V
b10 >
b11 @
b11111111111111111111111111111100 K
b1 H
18
b1010010 z
#1700000
08
#1710000
b11111111111111111111111111000000 L
b100000 M
b1111 F
b1111 J
b11111111111111111111111100000000 \
b100000 ]
b111111 P
b111111 Z
b11111111111111111111111111110000 K
b100 >
b1111 @
b11 V
b11111111111111111111111111000000 [
18
b1010011 z
#1720000
08
#1730000
b11111111111111111111110000000000 \
b100000 ]
b11111111 P
b11111111 Z
b11111111111111111111111100000000 L
b100000 M
b111111 F
b111111 J
b11111111111111111111111100000000 [
b100 V
b110 >
b111111 @
b11111111111111111111111111000000 K
18
b1010100 z
#1740000
08
#1750000
b11111111111111111111110000000000 L
b100000 M
b11111111 F
b11111111 J
b11111111111111111111000000000000 \
b100000 ]
b1111111111 P
b1111111111 Z
b11111111111111111111111100000000 K
b1 C
b0 >
b11111111 @
b101 V
b11111111111111111111110000000000 [
18
b1010101 z
#1760000
08
#1770000
b11111111111111111100000000000000 \
b100000 ]
b111111111111 P
b111111111111 Z
b11 2
b11 _
b11 g
b11111111111111111111000000000000 L
b100000 M
b1111111111 F
b1111111111 J
b11111111111111111111000000000000 [
b110 V
b10 ?
b10 >
b11 A
b11 7
b11 =
b11 ^
16
b11111111111111111111110000000000 K
18
b1010110 z
#1780000
08
#1790000
b11111111111111111100000000000000 L
b100000 M
b111111111111 F
b111111111111 J
b11111111111111110000000000000000 \
b100000 ]
b11111111111111 P
b11111111111111 Z
b1 `
b11 a
b11111111111111111111000000000000 K
b100 ?
b100 >
b1111 A
b111 V
b11111111111111111100000000000000 [
18
b1010111 z
#1800000
08
#1810000
b11111111111111000000000000000000 \
b100000 ]
b1111111111111111 P
b1111111111111111 Z
b11111111111111110000000000000000 L
b100000 M
b11111111111111 F
b11111111111111 J
b11111111111111110000000000000000 [
b1000 V
b110 ?
b110 >
b111111 A
b11111111111111111100000000000000 K
b10 `
b1111 a
18
b1011000 z
#1820000
08
#1830000
b11111111111111000000000000000000 L
b100000 M
b1111111111111111 F
b1111111111111111 J
b11111111111100000000000000000000 \
b100000 ]
b111111111111111111 P
b111111111111111111 Z
b11 `
b111111 a
b11111111111111110000000000000000 K
b10 C
b0 ?
b0 >
b11111111 A
b1001 V
b11111111111111000000000000000000 [
18
b1011001 z
#1840000
08
#1850000
b11111111110000000000000000000000 \
b100000 ]
b11111111111111111111 P
b11111111111111111111 Z
b11111111111100000000000000000000 L
b100000 M
b111111111111111111 F
b111111111111111111 J
b11111111111100000000000000000000 [
b1010 V
b10 ?
b10 >
b11111111111111000000000000000000 K
b100 `
b11111111 a
18
b1011010 z
#1860000
08
#1870000
b11111111110000000000000000000000 L
b100000 M
b11111111111111111111 F
b11111111111111111111 J
b11111111000000000000000000000000 \
b100000 ]
b1111111111111111111111 P
b1111111111111111111111 Z
b101 `
b1111111111 a
b11111111111100000000000000000000 K
b100 ?
b100 >
b1011 V
b11111111110000000000000000000000 [
18
b1011011 z
#1880000
08
#1890000
b11111100000000000000000000000000 \
b100000 ]
b111111111111111111111111 P
b111111111111111111111111 Z
b11111111000000000000000000000000 L
b100000 M
b1111111111111111111111 F
b1111111111111111111111 J
b11111111000000000000000000000000 [
b1100 V
b110 ?
b110 >
b11111111110000000000000000000000 K
b110 `
b111111111111 a
18
b1011100 z
#1900000
08
#1910000
b11111100000000000000000000000000 L
b100000 M
b111111111111111111111111 F
b111111111111111111111111 J
b11110000000000000000000000000000 \
b100000 ]
b11111111111111111111111111 P
b11111111111111111111111111 Z
b111 `
b11111111111111 a
b11111111000000000000000000000000 K
b1 C
b0 ?
b0 >
b1101 V
b11111100000000000000000000000000 [
18
b1011101 z
#1920000
08
#1930000
b11000000000000000000000000000000 \
b100000 ]
b1111111111111111111111111111 P
b1111111111111111111111111111 Z
b11110000000000000000000000000000 L
b100000 M
b11111111111111111111111111 F
b11111111111111111111111111 J
b11110000000000000000000000000000 [
b1110 V
b10 ?
b10 >
b11111100000000000000000000000000 K
b1000 `
b1111111111111111 a
18
b1011110 z
#1940000
08
#1950000
b11000000000000000000000000000000 L
b100000 M
b1111111111111111111111111111 F
b1111111111111111111111111111 J
b0 \
b100000 ]
b111111111111111111111111111111 P
b111111111111111111111111111111 Z
b1001 `
b111111111111111111 a
b11110000000000000000000000000000 K
b100 ?
b100 >
b1111 V
b11000000000000000000000000000000 [
18
b1011111 z
#1960000
08
#1970000
b1101010000110010011011011001 \
b100000 ]
b11111111111111111111111111111111 P
b11111111111111111111111111111111 Z
b0 L
b100000 M
b111111111111111111111111111111 F
b111111111111111111111111111111 J
b0 [
b10000 V
b110 ?
b110 >
b11000000000000000000000000000000 K
b1010 `
b11111111111111111111 a
18
b1100000 z
#1980000
08
#1990000
b1101010000110010011011011001 L
b100000 M
b11111111111111111111111111111111 F
b11111111111111111111111111111111 J
b111000010011111011110110111101 \
b100000 ]
b11110010101111001101100100100110 P
b11110010101111001101100100100110 Z
b1011 `
b1111111111111111111111 a
b0 K
b10 C
b0 ?
b0 >
b10001 V
b1101010000110010011011011001 [
18
b1100001 z
#2000000
08
#2010000
b11101100011111011101000000101101 \
b100000 ]
b11000111101100000100001001000010 P
b11000111101100000100001001000010 Z
b111000010011111011110110111101 L
b100000 M
b11110010101111001101100100100110 F
b11110010101111001101100100100110 J
b111000010011111011110110111101 [
b10010 V
b10 ?
b10 >
b1101010000110010011011011001 K
b1100 `
b111111111111111111111111 a
18
b1100010 z
#2020000
08
#2030000
b11101100011111011101000000101101 L
b100000 M
b11000111101100000100001001000010 F
b11000111101100000100001001000010 J
b10110001111101110100000010110100 \
b100000 ]
b10011100000100010111111010010 P
b10011100000100010111111010010 Z
b1101 `
b11111111111111111111111111 a
b111000010011111011110110111101 K
b100 ?
b100 >
b10011 V
b11101100011111011101000000101101 [
18
b1100011 z
#2040000
08
#2050000
b11000011000111000001111101100111 \
b100000 ]
b1001110000010001011111101001011 P
b1001110000010001011111101001011 Z
b10110001111101110100000010110100 L
b100000 M
b10011100000100010111111010010 F
b10011100000100010111111010010 J
b10110001111101110100000010110100 [
b10100 V
b110 ?
b110 >
b11101100011111011101000000101101 K
b1110 `
b1111111111111111111111111111 a
18
b1100100 z
#2060000
08
#2070000
b11000011000111000001111101100111 L
b100000 M
b1001110000010001011111101001011 F
b1001110000010001011111101001011 J
b1100011100000111110110011100 \
b100000 ]
b111100111000111110000010011000 P
b111100111000111110000010011000 Z
b1111 `
b111111111111111111111111111111 a
b10110001111101110100000010110100 K
b1 C
b0 ?
b0 >
b10101 V
b11000011000111000001111101100111 [
18
b1100101 z
#2080000
08
#2090000
b111100100000101101000010101001 \
b100000 ]
b11110011100011111000001001100011 P
b11110011100011111000001001100011 Z
b1100011100000111110110011100 L
b100000 M
b111100111000111110000010011000 F
b111100111000111110000010011000 J
b1100011100000111110110011100 [
b10110 V
b10 ?
b10 >
b11000011000111000001111101100111 K
b10000 `
b11111111111111111111111111111111 a
18
b1100110 z
#2100000
08
#2110000
b111100100000101101000010101001 L
b100000 M
b11110011100011111000001001100011 F
b11110011100011111000001001100011 J
b11111111010010000110010001111101 \
b100000 ]
b11000011011111010010111101010110 P
b11000011011111010010111101010110 Z
b10001 `
b1111111111111111111111111111111111 a
b1100011100000111110110011100 K
b100 ?
b100 >
b10111 V
b111100100000101101000010101001 [
18
b1100111 z
#2120000
08
#2130000
b11110100101000111010101010011010 \
b100000 ]
b101101111001101110000010 P
b101101111001101110000010 Z
b11111111010010000110010001111101 L
b100000 M
b11000011011111010010111101010110 F
b11000011011111010010111101010110 J
b10 &
b10 W
b10 Y
b10 v
b11111111010010000110010001111101 [
b100 X
b0 V
b110 ?
b110 >
b111100100000101101000010101001 K
b10010 `
b111111111111111111111111111111111111 a
18
b1101000 z
#2140000
08
#2150000
b101101111001101110000010 F
b101101111001101110000010 J
b11110100101000111010101010011010 L
b100000 M
b11011011000011001001000100000110 \
b100000 ]
b1011010111000101010101100101 P
b1011010111000101010101100101 Z
b10011 `
b11111111111111111111111111111111111111 a
b11111111010010000110010001111101 K
b10 C
b0 ?
b0 >
b10 D
b10 I
b10 4
b10 <
b10 w
b1 V
b11110100101000111010101010011010 [
18
b1101001 z
#2160000
08
#2170000
b1100101101100000111111101110110 \
b100000 ]
b100100111100110110111011111001 P
b100100111100110110111011111001 Z
b11011011000011001001000100000110 L
b100000 M
b1011010111000101010101100101 F
b1011010111000101010101100101 J
b11011011000011001001000100000110 [
b10 V
b10 ?
b10 >
b11111110 @
b11110100101000111010101010011010 K
b10100 `
b1111111111111111111111111111111111111111 a
18
b1101010 z
#2180000
08
#2190000
b1100101101100000111111101110110 L
b100000 M
b100100111100110110111011111001 F
b100100111100110110111011111001 J
b10010110110000011111110111011000 \
b100000 ]
b10011010010011111000000010001001 P
b10011010010011111000000010001001 Z
b10101 `
b111111111111111111111111111111111111111111 a
b11011011000011001001000100000110 K
b100 ?
b100 >
b11111010 @
b11 V
b1100101101100000111111101110110 [
18
b1101011 z
#2200000
08
#2210000
b1010110010001001101000110111001 \
b100000 ]
b1101001001111100000001000100111 P
b1101001001111100000001000100111 Z
b10010110110000011111110111011000 L
b100000 M
b10011010010011111000000010001001 F
b10011010010011111000000010001001 J
b10010110110000011111110111011000 [
b100 V
b110 ?
b110 >
b11101010 @
b1100101101100000111111101110110 K
b10110 `
b11111111111111111111111111111111111111111111 a
18
b1101100 z
#2220000
08
#2230000
b1010110010001001101000110111001 L
b100000 M
b1101001001111100000001000100111 F
b1101001001111100000001000100111 J
b1011001000100110100011011100100 \
b100000 ]
b10101001101110110010111001000110 P
b10101001101110110010111001000110 Z
b10111 `
b1111111111111111111111111111111111111111111111 a
b10010110110000011111110111011000 K
b1 C
b0 ?
b0 >
b10101010 @
b101 V
b1010110010001001101000110111001 [
18
b1101101 z
#2240000
08
#2250000
b1100100010011010001101110010000 \
b100000 ]
b10100110111011001011100100011011 P
b10100110111011001011100100011011 Z
b1011001000100110100011011100100 L
b100000 M
b10101001101110110010111001000110 F
b10101001101110110010111001000110 J
b10 2
b10 _
b10 g
b1011001000100110100011011100100 [
b110 V
b10 ?
b10 >
b11111110 A
b10 7
b10 =
b10 ^
b1010110010001001101000110111001 K
b11000 `
b111111111111111111111111111111111111111111111111 a
18
b1101110 z
#2260000
08
#2270000
b1100100010011010001101110010000 L
b100000 M
b10100110111011001011100100011011 F
b10100110111011001011100100011011 J
b10010001001101000110111001000000 \
b100000 ]
b10011011101100101110010001101111 P
b10011011101100101110010001101111 Z
b11001 `
b1011001000100110100011011100100 K
b100 ?
b100 >
b11111010 A
b111 V
b1100100010011010001101110010000 [
18
b1101111 z
#2280000
08
#2290000
b1001001100100101001111111011001 \
b100000 ]
b1101110110010111001000110111111 P
b1101110110010111001000110111111 Z
b10010001001101000110111001000000 L
b100000 M
b10011011101100101110010001101111 F
b10011011101100101110010001101111 J
b10010001001101000110111001000000 [
b1000 V
b110 ?
b110 >
b11101010 A
b1100100010011010001101110010000 K
b11010 `
18
b1110000 z
#2300000
08
#2310000
b1001001100100101001111111011001 L
b100000 M
b1101110110010111001000110111111 F
b1101110110010111001000110111111 J
b100110010010100111111101100100 \
b100000 ]
b10110110011011010110000000100110 P
b10110110011011010110000000100110 Z
b11011 `
b10010001001101000110111001000000 K
b10 C
b0 ?
b0 >
b10101010 A
b1001 V
b1001001100100101001111111011001 [
18
b1110001 z
#2320000
08
#2330000
b10011101111010001110000000100111 \
b100000 ]
b11011001101101011000000010011011 P
b11011001101101011000000010011011 Z
b100110010010100111111101100100 L
b100000 M
b10110110011011010110000000100110 F
b10110110011011010110000000100110 J
b100110010010100111111101100100 [
b1010 V
b10 ?
b10 >
b1001001100100101001111111011001 K
b11100 `
18
b1110010 z
#2340000
08
#2350000
b10011101111010001110000000100111 L
b100000 M
b11011001101101011000000010011011 F
b11011001101101011000000010011011 J
b1111010111000001010011001000101 \
b100000 ]
b1100010000101110001111111011000 P
b1100010000101110001111111011000 Z
b11101 `
b100110010010100111111101100100 K
b100 ?
b100 >
b1011 V
b10011101111010001110000000100111 [
18
b1110011 z
#2360000
08
#2370000
b11101011100000101001100100010100 \
b100000 ]
b10000101000111110101100110111010 P
b10000101000111110101100110111010 Z
b1111010111000001010011001000101 L
b100000 M
b1100010000101110001111111011000 F
b1100010000101110001111111011000 J
b1111010111000001010011001000101 [
b1100 V
b110 ?
b110 >
b10011101111010001110000000100111 K
b11110 `
18
b1110100 z
#2380000
08
#2390000
b11101011100000101001100100010100 L
b100000 M
b10000101000111110101100110111010 F
b10000101000111110101100110111010 J
b10100111100010000101111100111110 \
b100000 ]
b10100011111010110011011101011 P
b10100011111010110011011101011 Z
b11111 `
b1111010111000001010011001000101 K
b1 C
b0 ?
b0 >
b1101 V
b11101011100000101001100100010100 [
18
b1110101 z
#2400000
08
#2410000
b10010011011000100101101000100001 \
b100000 ]
b1011000011101111010000011000001 P
b1011000011101111010000011000001 Z
b10100111100010000101111100111110 L
b100000 M
b10100011111010110011011101011 F
b10100011111010110011011101011 J
b10100111100010000101111100111110 [
b1110 V
b10 ?
b10 >
b11101011100000101001100100010100 K
b100000 `
18
b1110110 z
#2420000
08
#2430000
b10010011011000100101101000100001 L
b100000 M
b1011000011101111010000011000001 F
b1011000011101111010000011000001 J
b1000000110010100100111001011101 \
b100000 ]
b1101100100111011010010111011110 P
b1101100100111011010010111011110 Z
b100001 `
b10100111100010000101111100111110 K
b100 ?
b100 >
b1111 V
b10010011011000100101101000100001 [
18
b1110111 z
#2440000
08
#2450000
b11001010010011100101110100 \
b100000 ]
b10111111001101011011000110100010 P
b10111111001101011011000110100010 Z
b1000000110010100100111001011101 L
b100000 M
b1101100100111011010010111011110 F
b1101100100111011010010111011110 J
b1000000110010100100111001011101 [
b10000 V
b110 ?
b110 >
b10010011011000100101101000100001 K
b100010 `
18
b1111000 z
#2460000
08
#2470000
b11001010010011100101110100 L
b100000 M
b10111111001101011011000110100010 F
b10111111001101011011000110100010 J
b1000011001011111100001100111 \
b100000 ]
b11111100110101101100011010001011 P
b11111100110101101100011010001011 Z
b100011 `
b1000000110010100100111001011101 K
b10 C
b0 ?
b0 >
b10001 V
b11001010010011100101110100 [
18
b1111001 z
#2480000
08
#2490000
b100101010101101111110000101011 \
b100000 ]
b11110111100110100000011110011000 P
b11110111100110100000011110011000 Z
b1000011001011111100001100111 L
b100000 M
b11111100110101101100011010001011 F
b11111100110101101100011010001011 J
b1000011001011111100001100111 [
b10010 V
b10 ?
b10 >
b11001010010011100101110100 K
b100100 `
18
b1111010 z
#2500000
08
#2510000
b100101010101101111110000101011 L
b100000 M
b11110111100110100000011110011000 F
b11110111100110100000011110011000 J
b10010001100110101110110100011011 \
b100000 ]
b11011010101010010000001111010100 P
b11011010101010010000001111010100 Z
b100101 `
b1000011001011111100001100111 K
b100 ?
b100 >
b10011 V
b100101010101101111110000101011 [
18
b1111011 z
#2520000
08
#2530000
b1001011001010001001001010110101 \
b100000 ]
b1101110011001010001001011100100 P
b1101110011001010001001011100100 Z
b10010001100110101110110100011011 L
b100000 M
b11011010101010010000001111010100 F
b11011010101010010000001111010100 J
b10010001100110101110110100011011 [
b10100 V
b110 ?
b110 >
b100101010101101111110000101011 K
b100110 `
18
b1111100 z
#2540000
08
#2550000
b1001011001010001001001010110101 L
b100000 M
b1101110011001010001001011100100 F
b1101110011001010001001011100100 J
b101100101000100100101011010100 \
b100000 ]
b10110100110101110110110101001010 P
b10110100110101110110110101001010 Z
b100111 `
b10010001100110101110110100011011 K
b1 C
b0 ?
b0 >
b10101 V
b1001011001010001001001010110101 [
18
b1111101 z
#2560000
08
#2570000
b10110110010010000011011011100111 \
b100000 ]
b11010011010111011011010100101011 P
b11010011010111011011010100101011 Z
b101100101000100100101011010100 L
b100000 M
b10110100110101110110110101001010 F
b10110100110101110110110101001010 J
b101100101000100100101011010100 [
b10110 V
b10 ?
b10 >
b1001011001010001001001010110101 K
b101000 `
18
b1111110 z
#2580000
08
#2590000
b10110110010010000011011011100111 L
b100000 M
b11010011010111011011010100101011 F
b11010011010111011011010100101011 J
b11010100011000111111110101000101 \
b100000 ]
b1001001101101111100100100011000 P
b1001001101101111100100100011000 Z
b101001 `
b101100101000100100101011010100 K
b100 ?
b100 >
b10111 V
b10110110010010000011011011100111 [
18
b1111111 z
#2600000
08
#2610000
b1011000000011011100111001111010 \
b100000 ]
b101011100111000000001010111010 P
b101011100111000000001010111010 Z
b11010100011000111111110101000101 L
b100000 M
b1001001101101111100100100011000 F
b1001001101101111100100100011000 J
b11010100011000111111110101000101 [
b101 X
b0 V
b110 ?
b110 >
b10110110010010000011011011100111 K
b101010 `
18
b10000000 z
#2620000
08
#2630000
b1011000000011011100111001111010 L
b100000 M
b101011100111000000001010111010 F
b101011100111000000001010111010 J
b1100000001101110011100111101000 \
b100000 ]
b10100111111100100011000110000101 P
b10100111111100100011000110000101 Z
b101011 `
b11010100011000111111110101000101 K
b10 C
b0 ?
b0 >
b1 V
b1011000000011011100111001111010 [
18
b10000001 z
#2640000
08
#2650000
b10000000110111001110011110100000 \
b100000 ]
b10011111110010001100011000010111 P
b10011111110010001100011000010111 Z
b1100000001101110011100111101000 L
b100000 M
b10100111111100100011000110000101 F
b10100111111100100011000110000101 J
b1100000001101110011100111101000 [
b10 V
b10 ?
b10 >
b1011000000011011100111001111010 K
b101100 `
18
b10000010 z
#2660000
08
