EthernetTesting/obj/image_audio_splitter.vcd
$date
	Tue Dec 13 14:32:03 2022
$end
$version
	Icarus Verilog
$end
$timescale
	1ps
$end
$scope module image_audio_splitter_tb $end
$var wire 1 ! stall $end
$var wire 24 " rbo_pixel_addr [23:0] $end
$var wire 1 # rbo_axiov $end
$var wire 2 $ rbo_axiod [1:0] $end
$var wire 1 % phy_txen $end
$var wire 2 & phy_txd [1:0] $end
$var wire 1 ' kill $end
$var wire 8 ( ias_pixel_out [7:0] $end
$var wire 1 ) ias_pixel_axiov $end
$var wire 8 * ias_audio_out [7:0] $end
$var wire 1 + ias_audio_axiov $end
$var wire 24 , ias_addr_out [23:0] $end
$var wire 1 - ias_addr_axiov $end
$var wire 8 . fp_written_pixel [7:0] $end
$var wire 1 / fp_pixel_wea $end
$var wire 17 0 fp_addr_axiod [16:0] $end
$var wire 1 1 firewall_axiov $end
$var wire 2 2 firewall_axiod [1:0] $end
$var wire 1 3 ether_axiov $end
$var wire 2 4 ether_axiod [1:0] $end
$var wire 1 5 done $end
$var wire 1 6 bitorder_axiov $end
$var wire 2 7 bitorder_axiod [1:0] $end
$var reg 8 8 audio [7:0] $end
$var reg 1 9 clk $end
$var reg 24 : old_rbo_pixel_addr [23:0] $end
$var reg 8 ; pixel [7:0] $end
$var reg 3 < pixel_counter [2:0] $end
$var reg 1 = rst $end
$scope module bitorder $end
$var wire 1 9 clk $end
$var wire 1 = rst $end
$var wire 1 3 axiiv $end
$var wire 2 > axiid [1:0] $end
$var reg 2 ? axiod [1:0] $end
$var reg 1 6 axiov $end
$var reg 5 @ bitCounter1 [4:0] $end
$var reg 5 A bitCounter2 [4:0] $end
$var reg 8 B buffer1 [7:0] $end
$var reg 8 C buffer2 [7:0] $end
$var reg 1 D flag $end
$var reg 2 E state [1:0] $end
$upscope $end
$scope module cksum $end
$var wire 2 F axiid [1:0] $end
$var wire 1 G axiov $end
$var wire 1 9 clk $end
$var wire 1 = rst $end
$var wire 32 H axiod [31:0] $end
$var wire 1 3 axiiv $end
$var reg 1 I crc32rst $end
$var reg 1 5 done $end
$var reg 1 ' kill $end
$var reg 2 J state [1:0] $end
$scope module cksum $end
$var wire 2 K axiid [1:0] $end
$var wire 32 L axiod [31:0] $end
$var wire 1 G axiov $end
$var wire 1 9 clk $end
$var wire 1 I rst $end
$var wire 1 3 axiiv $end
$var reg 32 M caxiod [31:0] $end
$var reg 32 N saxiod [31:0] $end
$var integer 32 O i [31:0] $end
$upscope $end
$upscope $end
$scope module eth_packer $end
$var wire 1 P cancelled $end
$var wire 1 Q cksum_calculated $end
$var wire 1 9 clk $end
$var wire 1 = rst $end
$var wire 32 R cksum [31:0] $end
$var wire 1 # axiiv $end
$var wire 2 S axiid [1:0] $end
$var reg 9 T audio_counter [8:0] $end
$var reg 3 U byte_bit_counter [2:0] $end
$var reg 1 V cksum_axiiv $end
$var reg 1 W crc32rst $end
$var reg 13 X dibit_counter [12:0] $end
$var reg 2 Y phy_txd [1:0] $end
$var reg 1 % phy_txen $end
$var reg 1 ! stall $end
$var reg 4 Z state [3:0] $end
$scope module crc32 $end
$var wire 2 [ axiid [1:0] $end
$var wire 1 V axiiv $end
$var wire 32 \ axiod [31:0] $end
$var wire 1 Q axiov $end
$var wire 1 9 clk $end
$var wire 1 W rst $end
$var reg 32 ] caxiod [31:0] $end
$var reg 32 ^ saxiod [31:0] $end
$var integer 32 _ i [31:0] $end
$upscope $end
$upscope $end
$scope module firewall $end
$var wire 2 ` axiid [1:0] $end
$var wire 1 6 axiiv $end
$var wire 1 9 clk $end
$var wire 1 = rst $end
$var reg 2 a axiod [1:0] $end
$var reg 1 1 axiov $end
$var reg 8 b counter [7:0] $end
$var reg 48 c macAddress [47:0] $end
$upscope $end
$scope module fp $end
$var wire 1 9 clk $end
$var wire 1 = rst $end
$var wire 1 ) pixel_axiiv $end
$var wire 8 d pixel_axiid [7:0] $end
$var wire 1 - addr_axiiv $end
$var wire 24 e addr_axiid [23:0] $end
$var reg 17 f addr_axiod [16:0] $end
$var reg 1 / axiov $end
$var reg 1 g firstBit $end
$var reg 8 h pixel_axiod [7:0] $end
$upscope $end
$scope module image_audio_splitter $end
$var wire 2 i axiid [1:0] $end
$var wire 1 1 axiiv $end
$var wire 1 9 clk $end
$var wire 1 = rst $end
$var reg 24 j addr [23:0] $end
$var reg 1 - addr_axiov $end
$var reg 8 k audio [7:0] $end
$var reg 1 + audio_axiov $end
$var reg 3 l byte_bit_counter [2:0] $end
$var reg 18 m output_counter [17:0] $end
$var reg 8 n pixel [7:0] $end
$var reg 1 ) pixel_axiov $end
$var reg 2 o state [1:0] $end
$upscope $end
$scope module reverse_bit_order $end
$var wire 8 p audio [7:0] $end
$var wire 1 9 clk $end
$var wire 8 q pixel [7:0] $end
$var wire 1 = rst $end
$var wire 1 ! stall $end
$var reg 6 r addr_bit_counter [5:0] $end
$var reg 9 s audio_counter [8:0] $end
$var reg 2 t axiod [1:0] $end
$var reg 1 # axiov $end
$var reg 4 u byte_bit_counter [3:0] $end
$var reg 24 v pixel_addr [23:0] $end
$var reg 12 w pixel_counter [11:0] $end
$var reg 2 x state [1:0] $end
$upscope $end
$scope module uut $end
$var wire 1 9 clk $end
$var wire 1 % crsdv $end
$var wire 1 = rst $end
$var wire 2 y rxd [1:0] $end
$var reg 2 z axiod [1:0] $end
$var reg 1 3 axiov $end
$var reg 6 { counter [5:0] $end
$var reg 3 | state [2:0] $end
$upscope $end
$scope begin $ivl_for_loop0 $end
$var integer 32 } i [31:0] $end
$upscope $end
$upscope $end
$enddefinitions $end
#0
$dumpvars
b0 }
bx |
bx {
bx z
b0 y
bx x
bx w
bx v
bx u
b0 t
bx s
bx r
bx q
bx p
bx o
bx n
bx m
bx l
bx k
bx j
bx i
bx h
xg
bx f
bx e
bx d
bx c
bx b
bx a
bx `
b100000 _
bx ^
bx ]
bx \
b0 [
bx Z
b0 Y
bx X
xW
0V
bx U
bx T
b0 S
bx R
1Q
0P
bx O
bx N
bx M
bx L
bx K
bx J
xI
bx H
1G
bx F
bx E
xD
bx C
bx B
bx A
bx @
bx ?
bx >
0=
bx <
bx ;
bx :
09
bx 8
bx 7
x6
x5
bx 4
x3
bx 2
01
bx 0
x/
bx .
x-
bx ,
x+
bx *
x)
bx (
x'
b0 &
0%
b0 $
x#
bx "
1!
$end
#10000
b0 s
b0 w
b1000 u
b0 r
0#
b0 x
b0 b
b0 c
0+
0)
0-
b0 (
b0 d
b0 n
b0 l
b0 m
b1 o
0/
19
#20000
bx 2
bx a
bx i
09
1=
#30000
b0 2
b0 a
b0 i
b100000 O
1g
b0 .
b0 h
b0 0
b0 f
b0 *
b0 k
b0 ,
b0 e
b0 j
b0 J
1I
0'
05
0D
b0 E
b0 C
b0 B
b0 A
b0 @
b0 7
b0 ?
b0 `
06
b0 {
b0 |
b0 F
b0 K
b0 4
b0 >
b0 z
03
b0 X
1W
b0 T
b0 U
b0 Z
b0 "
b0 v
19
#40000
09
0=
#50000
b11110010101111001101100100100101 ^
b100000 _
b0 R
b0 \
b11110010101111001101100100100101 N
b100000 O
b0 H
b0 L
b11111111111111111111111111111111 ]
b1 X
0W
b1 {
b11111111111111111111111111111111 M
0I
19
b11111111 8
b11111111 p
b10101010 ;
b10101010 q
#60000
09
#70000
b10 X
b0 :
19
b1 }
#80000
09
#90000
b11 X
19
b10 }
#100000
09
#110000
b100 X
19
b11 }
#120000
09
#130000
b101 X
19
b100 }
#140000
09
#150000
b110 X
19
b101 }
#160000
09
#170000
b111 X
19
b110 }
#180000
09
#190000
b1000 X
19
b111 }
#200000
09
#210000
b1001 X
19
b1000 }
#220000
09
#230000
b1010 X
19
b1001 }
#240000
09
#250000
b1011 X
19
b1010 }
#260000
09
#270000
b1100 X
19
b1011 }
#280000
09
#290000
b1101 X
19
b1100 }
#300000
09
#310000
b1110 X
19
b1101 }
#320000
09
#330000
b1111 X
19
b1110 }
#340000
09
#350000
b10000 X
19
b1111 }
#360000
09
#370000
b10001 X
19
b10000 }
#380000
09
#390000
b10010 X
19
b10001 }
#400000
09
#410000
b10011 X
19
b10010 }
#420000
09
#430000
b10100 X
19
b10011 }
#440000
09
#450000
b10101 X
19
b10100 }
#460000
09
#470000
b10110 X
19
b10101 }
#480000
09
#490000
b10111 X
19
b10110 }
#500000
09
#510000
b11000 X
19
b10111 }
#520000
09
#530000
b11001 X
19
b11000 }
#540000
09
#550000
b11010 X
19
b11001 }
#560000
09
#570000
b11011 X
19
b11010 }
#580000
09
#590000
b11100 X
19
b11011 }
#600000
09
#610000
b11101 X
19
b11100 }
#620000
09
#630000
b11110 X
19
b11101 }
#640000
09
#650000
b11111 X
19
b11110 }
#660000
09
#670000
b100000 X
19
b11111 }
#680000
09
#690000
b100001 X
19
b100000 }
#700000
09
#710000
b100010 X
19
b100001 }
#720000
09
#730000
b100011 X
19
b100010 }
#740000
09
#750000
b100100 X
19
b100011 }
#760000
09
#770000
b100101 X
19
b100100 }
#780000
09
#790000
b100110 X
19
b100101 }
#800000
09
#810000
b100111 X
19
b100110 }
#820000
09
#830000
b101000 X
19
b100111 }
#840000
09
#850000
b101001 X
19
b101000 }
#860000
09
#870000
b101010 X
19
b101001 }
#880000
09
#890000
b101011 X
19
b101010 }
#900000
09
#910000
b101100 X
19
b101011 }
#920000
09
#930000
b101101 X
19
b101100 }
#940000
09
#950000
b101110 X
19
b101101 }
#960000
09
#970000
b101111 X
19
b101110 }
#980000
09
#990000
b11111011001111101110001001001011 ^
b100000 _
b1 &
b1 Y
b1 [
b1 y
b1 Z
b0 X
19
b101111 }
#1000000
09
#1010000
1%
b1 X
19
b110000 }
#1020000
09
#1030000
b1 |
b10 X
19
b110001 }
#1040000
09
#1050000
b11 X
b10 {
19
b110010 }
#1060000
09
#1070000
b11 {
b100 X
19
b110011 }
#1080000
09
#1090000
b101 X
b100 {
19
b110100 }
#1100000
09
#1110000
b101 {
b110 X
19
b110101 }
#1120000
09
#1130000
b111 X
b110 {
19
b110110 }
#1140000
09
#1150000
b111 {
b1000 X
19
b110111 }
#1160000
09
#1170000
b1001 X
b1000 {
19
b111000 }
#1180000
09
#1190000
b1001 {
b1010 X
19
b111001 }
#1200000
09
#1210000
b1011 X
b1010 {
19
b111010 }
#1220000
09
#1230000
b1011 {
b1100 X
19
b111011 }
#1240000
09
#1250000
b1101 X
b1100 {
19
b111100 }
#1260000
09
#1270000
b1101 {
b1110 X
19
b111101 }
#1280000
09
#1290000
b1111 X
b1110 {
19
b111110 }
#1300000
09
#1310000
b1111 {
b10000 X
19
b111111 }
#1320000
09
#1330000
b10001 X
b10000 {
19
b1000000 }
#1340000
09
#1350000
b10001 {
b10010 X
19
b1000001 }
#1360000
09
#1370000
b10011 X
b10010 {
19
b1000010 }
#1380000
09
#1390000
b10011 {
b10100 X
19
b1000011 }
#1400000
09
#1410000
b10101 X
b10100 {
19
b1000100 }
#1420000
09
#1430000
b10101 {
b10110 X
19
b1000101 }
#1440000
09
#1450000
b10111 X
b10110 {
19
b1000110 }
#1460000
09
#1470000
b10111 {
b11000 X
19
b1000111 }
#1480000
09
#1490000
b11001 X
b11000 {
19
b1001000 }
#1500000
09
#1510000
b11001 {
b11010 X
19
b1001001 }
#1520000
09
#1530000
b11011 X
b11010 {
19
b1001010 }
#1540000
09
#1550000
b11011 {
b11100 X
19
b1001011 }
#1560000
09
#1570000
b11101 X
b11100 {
19
b1001100 }
#1580000
09
#1590000
b11101 {
b11110 X
19
b1001101 }
#1600000
09
#1610000
b11111 X
b11110 {
19
b1001110 }
#1620000
09
#1630000
b11111111111111111111111111111100 ^
b100000 _
b11 &
b11 Y
b11 [
b11 y
b10 |
b0 {
b100000 X
19
b1001111 }
#1640000
09
#1650000
1V
b11 Z
b0 X
b11 |
19
b1010000 }
#1660000
09
#1670000
b11111111111111111111111111111100 N
b100000 O
b11111111111111111111111111110000 ^
b100000 _
b11 R
b11 \
b11 F
b11 K
b11 4
b11 >
b11 z
13
b1 X
b11111111111111111111111111111100 ]
19
b1010001 }
#1680000
09
#1690000
b11111111111111111111111111000000 ^
b100000 _
b1111 R
b1111 \
b11111111111111111111111111110000 N
b100000 O
b11 H
b11 L
b11111111111111111111111111110000 ]
b10 X
b10 @
b11 B
b11111111111111111111111111111100 M
b1 J
19
b1010010 }
#1700000
09
#1710000
b11111111111111111111111111000000 N
b100000 O
b1111 H
b1111 L
b11111111111111111111111100000000 ^
b100000 _
b111111 R
b111111 \
b11111111111111111111111111110000 M
b100 @
b1111 B
b11 X
b11111111111111111111111111000000 ]
19
b1010011 }
#1720000
09
#1730000
b11111111111111111111110000000000 ^
b100000 _
b11111111 R
b11111111 \
b11111111111111111111111100000000 N
b100000 O
b111111 H
b111111 L
b11111111111111111111111100000000 ]
b100 X
b110 @
b111111 B
b11111111111111111111111111000000 M
19
b1010100 }
#1740000
09
#1750000
b11111111111111111111110000000000 N
b100000 O
b11111111 H
b11111111 L
b11111111111111111111000000000000 ^
b100000 _
b1111111111 R
b1111111111 \
b11111111111111111111111100000000 M
b1 E
b0 @
b11111111 B
b101 X
b11111111111111111111110000000000 ]
19
b1010101 }
#1760000
09
#1770000
b11111111111111111100000000000000 ^
b100000 _
b111111111111 R
b111111111111 \
b11 2
b11 a
b11 i
b11111111111111111111000000000000 N
b100000 O
b1111111111 H
b1111111111 L
b11111111111111111111000000000000 ]
b110 X
b10 A
b10 @
b11 C
b11 7
b11 ?
b11 `
16
b11111111111111111111110000000000 M
19
b1010110 }
#1780000
09
#1790000
b11111111111111111100000000000000 N
b100000 O
b111111111111 H
b111111111111 L
b11111111111111110000000000000000 ^
b100000 _
b11111111111111 R
b11111111111111 \
b1 b
b11 c
b11111111111111111111000000000000 M
b100 A
b100 @
b1111 C
b111 X
b11111111111111111100000000000000 ]
19
b1010111 }
#1800000
09
#1810000
b11111111111111000000000000000000 ^
b100000 _
b1111111111111111 R
b1111111111111111 \
b11111111111111110000000000000000 N
b100000 O
b11111111111111 H
b11111111111111 L
b11111111111111110000000000000000 ]
b1000 X
b110 A
b110 @
b111111 C
b11111111111111111100000000000000 M
b10 b
b1111 c
19
b1011000 }
#1820000
09
#1830000
b11111111111111000000000000000000 N
b100000 O
b1111111111111111 H
b1111111111111111 L
b11111111111100000000000000000000 ^
b100000 _
b111111111111111111 R
b111111111111111111 \
b11 b
b111111 c
b11111111111111110000000000000000 M
b10 E
b0 A
b0 @
b11111111 C
b1001 X
b11111111111111000000000000000000 ]
19
b1011001 }
#1840000
09
#1850000
b11111111110000000000000000000000 ^
b100000 _
b11111111111111111111 R
b11111111111111111111 \
b11111111111100000000000000000000 N
b100000 O
b111111111111111111 H
b111111111111111111 L
b11111111111100000000000000000000 ]
b1010 X
b10 A
b10 @
b11111111111111000000000000000000 M
b100 b
b11111111 c
19
b1011010 }
#1860000
09
#1870000
b11111111110000000000000000000000 N
b100000 O
b11111111111111111111 H
b11111111111111111111 L
b11111111000000000000000000000000 ^
b100000 _
b1111111111111111111111 R
b1111111111111111111111 \
b101 b
b1111111111 c
b11111111111100000000000000000000 M
b100 A
b100 @
b1011 X
b11111111110000000000000000000000 ]
19
b1011011 }
#1880000
09
#1890000
b11111100000000000000000000000000 ^
b100000 _
b111111111111111111111111 R
b111111111111111111111111 \
b11111111000000000000000000000000 N
b100000 O
b1111111111111111111111 H
b1111111111111111111111 L
b11111111000000000000000000000000 ]
b1100 X
b110 A
b110 @
b11111111110000000000000000000000 M
b110 b
b111111111111 c
19
b1011100 }
#1900000
09
#1910000
b11111100000000000000000000000000 N
b100000 O
b111111111111111111111111 H
b111111111111111111111111 L
b11110000000000000000000000000000 ^
b100000 _
b11111111111111111111111111 R
b11111111111111111111111111 \
b111 b
b11111111111111 c
b11111111000000000000000000000000 M
b1 E
b0 A
b0 @
b1101 X
b11111100000000000000000000000000 ]
19
b1011101 }
#1920000
09
#1930000
b11000000000000000000000000000000 ^
b100000 _
b1111111111111111111111111111 R
b1111111111111111111111111111 \
b11110000000000000000000000000000 N
b100000 O
b11111111111111111111111111 H
b11111111111111111111111111 L
b11110000000000000000000000000000 ]
b1110 X
b10 A
b10 @
b11111100000000000000000000000000 M
b1000 b
b1111111111111111 c
19
b1011110 }
#1940000
09
#1950000
b11000000000000000000000000000000 N
b100000 O
b1111111111111111111111111111 H
b1111111111111111111111111111 L
b0 ^
b100000 _
b111111111111111111111111111111 R
b111111111111111111111111111111 \
b1001 b
b111111111111111111 c
b11110000000000000000000000000000 M
b100 A
b100 @
b1111 X
b11000000000000000000000000000000 ]
19
b1011111 }
#1960000
09
#1970000
b1101010000110010011011011001 ^
b100000 _
b11111111111111111111111111111111 R
b11111111111111111111111111111111 \
b0 N
b100000 O
b111111111111111111111111111111 H
b111111111111111111111111111111 L
b0 ]
b10000 X
b110 A
b110 @
b11000000000000000000000000000000 M
b1010 b
b11111111111111111111 c
19
b1100000 }
#1980000
09
#1990000
b1101010000110010011011011001 N
b100000 O
b11111111111111111111111111111111 H
b11111111111111111111111111111111 L
b111000010011111011110110111101 ^
b100000 _
b11110010101111001101100100100110 R
b11110010101111001101100100100110 \
b1011 b
b1111111111111111111111 c
b0 M
b10 E
b0 A
b0 @
b10001 X
b1101010000110010011011011001 ]
19
b1100001 }
#2000000
09
#2010000
b11101100011111011101000000101101 ^
b100000 _
b11000111101100000100001001000010 R
b11000111101100000100001001000010 \
b111000010011111011110110111101 N
b100000 O
b11110010101111001101100100100110 H
b11110010101111001101100100100110 L
b111000010011111011110110111101 ]
b10010 X
b10 A
b10 @
b1101010000110010011011011001 M
b1100 b
b111111111111111111111111 c
19
b1100010 }
#2020000
09
#2030000
b11101100011111011101000000101101 N
b100000 O
b11000111101100000100001001000010 H
b11000111101100000100001001000010 L
b10110001111101110100000010110100 ^
b100000 _
b10011100000100010111111010010 R
b10011100000100010111111010010 \
b1101 b
b11111111111111111111111111 c
b111000010011111011110110111101 M
b100 A
b100 @
b10011 X
b11101100011111011101000000101101 ]
19
b1100011 }
#2040000
09
#2050000
b11000011000111000001111101100111 ^
b100000 _
b1001110000010001011111101001011 R
b1001110000010001011111101001011 \
b10110001111101110100000010110100 N
b100000 O
b10011100000100010111111010010 H
b10011100000100010111111010010 L
b10110001111101110100000010110100 ]
b10100 X
b110 A
b110 @
b11101100011111011101000000101101 M
b1110 b
b1111111111111111111111111111 c
19
b1100100 }
#2060000
09
#2070000
b11000011000111000001111101100111 N
b100000 O
b1001110000010001011111101001011 H
b1001110000010001011111101001011 L
b1100011100000111110110011100 ^
b100000 _
b111100111000111110000010011000 R
b111100111000111110000010011000 \
b1111 b
b111111111111111111111111111111 c
b10110001111101110100000010110100 M
b1 E
b0 A
b0 @
b10101 X
b11000011000111000001111101100111 ]
19
b1100101 }
#2080000
09
#2090000
b111100100000101101000010101001 ^
b100000 _
b11110011100011111000001001100011 R
b11110011100011111000001001100011 \
b1100011100000111110110011100 N
b100000 O
b111100111000111110000010011000 H
b111100111000111110000010011000 L
b1100011100000111110110011100 ]
b10110 X
b10 A
b10 @
b11000011000111000001111101100111 M
b10000 b
b11111111111111111111111111111111 c
19
b1100110 }
#2100000
09
#2110000
b111100100000101101000010101001 N
b100000 O
b11110011100011111000001001100011 H
b11110011100011111000001001100011 L
b11111111010010000110010001111101 ^
b100000 _
b11000011011111010010111101010110 R
b11000011011111010010111101010110 \
b10001 b
b1111111111111111111111111111111111 c
b1100011100000111110110011100 M
b100 A
b100 @
b10111 X
b111100100000101101000010101001 ]
19
b1100111 }
#2120000
09
#2130000
b11110100101000111010101010011010 ^
b100000 _
b101101111001101110000010 R
b101101111001101110000010 \
b11111111010010000110010001111101 N
b100000 O
b11000011011111010010111101010110 H
b11000011011111010010111101010110 L
b10 &
b10 Y
b10 [
b10 y
b11111111010010000110010001111101 ]
b100 Z
b0 X
b110 A
b110 @
b111100100000101101000010101001 M
b10010 b
b111111111111111111111111111111111111 c
19
b1101000 }
#2140000
09
#2150000
b101101111001101110000010 H
b101101111001101110000010 L
b11110100101000111010101010011010 N
b100000 O
b11011011000011001001000100000110 ^
b100000 _
b1011010111000101010101100101 R
b1011010111000101010101100101 \
b10011 b
b11111111111111111111111111111111111111 c
b11111111010010000110010001111101 M
b10 E
b0 A
b0 @
b10 F
b10 K
b10 4
b10 >
b10 z
b1 X
b11110100101000111010101010011010 ]
19
b1101001 }
#2160000
09
#2170000
b1100101101100000111111101110110 ^
b100000 _
b100100111100110110111011111001 R
b100100111100110110111011111001 \
b11011011000011001001000100000110 N
b100000 O
b1011010111000101010101100101 H
b1011010111000101010101100101 L
b11011011000011001001000100000110 ]
b10 X
b10 A
b10 @
b11111110 B
b11110100101000111010101010011010 M
b10100 b
b1111111111111111111111111111111111111111 c
19
b1101010 }
#2180000
09
#2190000
b1100101101100000111111101110110 N
b100000 O
b100100111100110110111011111001 H
b100100111100110110111011111001 L
b10010110110000011111110111011000 ^
b100000 _
b10011010010011111000000010001001 R
b10011010010011111000000010001001 \
b10101 b
b111111111111111111111111111111111111111111 c
b11011011000011001001000100000110 M
b100 A
b100 @
b11111010 B
b11 X
b1100101101100000111111101110110 ]
19
b1101011 }
#2200000
09
#2210000
b1010110010001001101000110111001 ^
b100000 _
b1101001001111100000001000100111 R
b1101001001111100000001000100111 \
b10010110110000011111110111011000 N
b100000 O
b10011010010011111000000010001001 H
b10011010010011111000000010001001 L
b10010110110000011111110111011000 ]
b100 X
b110 A
b110 @
b11101010 B
b1100101101100000111111101110110 M
b10110 b
b11111111111111111111111111111111111111111111 c
19
b1101100 }
#2220000
09
#2230000
b1010110010001001101000110111001 N
b100000 O
b1101001001111100000001000100111 H
b1101001001111100000001000100111 L
b1011001000100110100011011100100 ^
b100000 _
b10101001101110110010111001000110 R
b10101001101110110010111001000110 \
b10111 b
b1111111111111111111111111111111111111111111111 c
b10010110110000011111110111011000 M
b1 E
b0 A
b0 @
b10101010 B
b101 X
b1010110010001001101000110111001 ]
19
b1101101 }
#2240000
09
#2250000
b1100100010011010001101110010000 ^
b100000 _
b10100110111011001011100100011011 R
b10100110111011001011100100011011 \
b1011001000100110100011011100100 N
b100000 O
b10101001101110110010111001000110 H
b10101001101110110010111001000110 L
b10 2
b10 a
b10 i
b1011001000100110100011011100100 ]
b110 X
b10 A
b10 @
b11111110 C
b10 7
b10 ?
b10 `
b1010110010001001101000110111001 M
b11000 b
b111111111111111111111111111111111111111111111111 c
19
b1101110 }
#2260000
09
#2270000
b1100100010011010001101110010000 N
b100000 O
b10100110111011001011100100011011 H
b10100110111011001011100100011011 L
b10010001001101000110111001000000 ^
b100000 _
b10011011101100101110010001101111 R
b10011011101100101110010001101111 \
b11001 b
b1011001000100110100011011100100 M
b100 A
b100 @
b11111010 C
b111 X
b1100100010011010001101110010000 ]
19
b1101111 }
#2280000
09
#2290000
b1001001100100101001111111011001 ^
b100000 _
b1101110110010111001000110111111 R
b1101110110010111001000110111111 \
b10010001001101000110111001000000 N
b100000 O
b10011011101100101110010001101111 H
b10011011101100101110010001101111 L
b10010001001101000110111001000000 ]
b1000 X
b110 A
b110 @
b11101010 C
b1100100010011010001101110010000 M
b11010 b
19
b1110000 }
#2300000
09
#2310000
b1001001100100101001111111011001 N
b100000 O
b1101110110010111001000110111111 H
b1101110110010111001000110111111 L
b100110010010100111111101100100 ^
b100000 _
b10110110011011010110000000100110 R
b10110110011011010110000000100110 \
b11011 b
b10010001001101000110111001000000 M
b10 E
b0 A
b0 @
b10101010 C
b1001 X
b1001001100100101001111111011001 ]
19
b1110001 }
#2320000
09
#2330000
b10011101111010001110000000100111 ^
b100000 _
b11011001101101011000000010011011 R
b11011001101101011000000010011011 \
b100110010010100111111101100100 N
b100000 O
b10110110011011010110000000100110 H
b10110110011011010110000000100110 L
b100110010010100111111101100100 ]
b1010 X
b10 A
b10 @
b1001001100100101001111111011001 M
b11100 b
19
b1110010 }
#2340000
09
#2350000
b10011101111010001110000000100111 N
b100000 O
b11011001101101011000000010011011 H
b11011001101101011000000010011011 L
b1111010111000001010011001000101 ^
b100000 _
b1100010000101110001111111011000 R
b1100010000101110001111111011000 \
b11101 b
b100110010010100111111101100100 M
b100 A
b100 @
b1011 X
b10011101111010001110000000100111 ]
19
b1110011 }
#2360000
09
#2370000
b11101011100000101001100100010100 ^
b100000 _
b10000101000111110101100110111010 R
b10000101000111110101100110111010 \
b1111010111000001010011001000101 N
b100000 O
b1100010000101110001111111011000 H
b1100010000101110001111111011000 L
b1111010111000001010011001000101 ]
b1100 X
b110 A
b110 @
b10011101111010001110000000100111 M
b11110 b
19
b1110100 }
#2380000
09
#2390000
b11101011100000101001100100010100 N
b100000 O
b10000101000111110101100110111010 H
b10000101000111110101100110111010 L
b10100111100010000101111100111110 ^
b100000 _
b10100011111010110011011101011 R
b10100011111010110011011101011 \
b11111 b
b1111010111000001010011001000101 M
b1 E
b0 A
b0 @
b1101 X
b11101011100000101001100100010100 ]
19
b1110101 }
#2400000
09
#2410000
b10010011011000100101101000100001 ^
b100000 _
b1011000011101111010000011000001 R
b1011000011101111010000011000001 \
b10100111100010000101111100111110 N
b100000 O
b10100011111010110011011101011 H
b10100011111010110011011101011 L
b10100111100010000101111100111110 ]
b1110 X
b10 A
b10 @
b11101011100000101001100100010100 M
b100000 b
19
b1110110 }
#2420000
09
#2430000
b10010011011000100101101000100001 N
b100000 O
b1011000011101111010000011000001 H
b1011000011101111010000011000001 L
b1000000110010100100111001011101 ^
b100000 _
b1101100100111011010010111011110 R
b1101100100111011010010111011110 \
b100001 b
b10100111100010000101111100111110 M
b100 A
b100 @
b1111 X
b10010011011000100101101000100001 ]
19
b1110111 }
#2440000
09
#2450000
b11001010010011100101110100 ^
b100000 _
b10111111001101011011000110100010 R
b10111111001101011011000110100010 \
b1000000110010100100111001011101 N
b100000 O
b1101100100111011010010111011110 H
b1101100100111011010010111011110 L
b1000000110010100100111001011101 ]
b10000 X
b110 A
b110 @
b10010011011000100101101000100001 M
b100010 b
19
b1111000 }
#2460000
09
#2470000
b11001010010011100101110100 N
b100000 O
b10111111001101011011000110100010 H
b10111111001101011011000110100010 L
b1000011001011111100001100111 ^
b100000 _
b11111100110101101100011010001011 R
b11111100110101101100011010001011 \
b100011 b
b1000000110010100100111001011101 M
b10 E
b0 A
b0 @
b10001 X
b11001010010011100101110100 ]
19
b1111001 }
#2480000
09
#2490000
b100101010101101111110000101011 ^
b100000 _
b11110111100110100000011110011000 R
b11110111100110100000011110011000 \
b1000011001011111100001100111 N
b100000 O
b11111100110101101100011010001011 H
b11111100110101101100011010001011 L
b1000011001011111100001100111 ]
b10010 X
b10 A
b10 @
b11001010010011100101110100 M
b100100 b
19
b1111010 }
#2500000
09
#2510000
b100101010101101111110000101011 N
b100000 O
b11110111100110100000011110011000 H
b11110111100110100000011110011000 L
b10010001100110101110110100011011 ^
b100000 _
b11011010101010010000001111010100 R
b11011010101010010000001111010100 \
b100101 b
b1000011001011111100001100111 M
b100 A
b100 @
b10011 X
b100101010101101111110000101011 ]
19
b1111011 }
#2520000
09
#2530000
b1001011001010001001001010110101 ^
b100000 _
b1101110011001010001001011100100 R
b1101110011001010001001011100100 \
b10010001100110101110110100011011 N
b100000 O
b11011010101010010000001111010100 H
b11011010101010010000001111010100 L
b10010001100110101110110100011011 ]
b10100 X
b110 A
b110 @
b100101010101101111110000101011 M
b100110 b
19
b1111100 }
#2540000
09
#2550000
b1001011001010001001001010110101 N
b100000 O
b1101110011001010001001011100100 H
b1101110011001010001001011100100 L
b101100101000100100101011010100 ^
b100000 _
b10110100110101110110110101001010 R
b10110100110101110110110101001010 \
b100111 b
b10010001100110101110110100011011 M
b1 E
b0 A
b0 @
b10101 X
b1001011001010001001001010110101 ]
19
b1111101 }
#2560000
09
#2570000
b10110110010010000011011011100111 ^
b100000 _
b11010011010111011011010100101011 R
b11010011010111011011010100101011 \
b101100101000100100101011010100 N
b100000 O
b10110100110101110110110101001010 H
b10110100110101110110110101001010 L
b101100101000100100101011010100 ]
b10110 X
b10 A
b10 @
b1001011001010001001001010110101 M
b101000 b
19
b1111110 }
#2580000
09
#2590000
b10110110010010000011011011100111 N
b100000 O
b11010011010111011011010100101011 H
b11010011010111011011010100101011 L
b11010100011000111111110101000101 ^
b100000 _
b1001001101101111100100100011000 R
b1001001101101111100100100011000 \
b101001 b
b101100101000100100101011010100 M
b100 A
b100 @
b10111 X
b10110110010010000011011011100111 ]
19
b1111111 }
#2600000
09
#2610000
b1010001100011111111010100010100 ^
b100000 _
b101011100111000000001010111010 R
b101011100111000000001010111010 \
b11010100011000111111110101000101 N
b100000 O
b1001001101101111100100100011000 H
b1001001101101111100100100011000 L
b11 &
b11 Y
b11 [
b11 y
b11010100011000111111110101000101 ]
b101 Z
b0 X
b110 A
b110 @
b10110110010010000011011011100111 M
b101010 b
19
b10000000 }
#2620000
09
#2630000
b101011100111000000001010111010 H
b101011100111000000001010111010 L
b1010001100011111111010100010100 N
b100000 O
b1001111101111011110111100111110 ^
b100000 _
b10101110011100000000101011101011 R
b10101110011100000000101011101011 \
b101011 b
b11010100011000111111110101000101 M
b10 E
b0 A
b0 @
b11 F
b11 K
b11 4
b11 >
b11 z
b1 X
b1010001100011111111010100010100 ]
19
b10000001 }
#2640000
09
#2650000
b110111011101011000011110010110 ^
b100000 _
b10110000010000100001000011000001 R
b10110000010000100001000011000001 \
b1001111101111011110111100111110 N
b100000 O
b10101110011100000000101011101011 H
b10101110011100000000101011101011 L
b1001111101111011110111100111110 ]
b10 X
b10 A
b10 @
b10101011 B
b1010001100011111111010100010100 M
b101100 b
19
b10000010 }
#2660000
09
