EthernetTesting/obj/image_audio_splitter.vcd
$date
	Mon Dec 12 21:14:08 2022
$end
$version
	Icarus Verilog
$end
$timescale
	1ps
$end
$scope module image_audio_splitter_tb $end
$var wire 1 ! stall $end
$var wire 24 " rbo_pixel_addr [23:0] $end
$var wire 1 # rbo_axiov $end
$var wire 2 $ rbo_axiod [1:0] $end
$var wire 1 % phy_txen $end
$var wire 2 & phy_txd [1:0] $end
$var wire 1 ' kill $end
$var wire 8 ( ias_pixel_out [7:0] $end
$var wire 1 ) ias_pixel_axiov $end
$var wire 8 * ias_audio_out [7:0] $end
$var wire 1 + ias_audio_axiov $end
$var wire 24 , ias_addr_out [23:0] $end
$var wire 1 - ias_addr_axiov $end
$var wire 8 . fp_written_pixel [7:0] $end
$var wire 1 / fp_pixel_wea $end
$var wire 17 0 fp_addr_axiod [16:0] $end
$var wire 1 1 firewall_axiov $end
$var wire 2 2 firewall_axiod [1:0] $end
$var wire 1 3 ether_axiov $end
$var wire 2 4 ether_axiod [1:0] $end
$var wire 1 5 done $end
$var wire 1 6 bitorder_axiov $end
$var wire 2 7 bitorder_axiod [1:0] $end
$var reg 1 8 clk $end
$var reg 24 9 old_rbo_pixel_addr [23:0] $end
$var reg 8 : pixel [7:0] $end
$var reg 3 ; pixel_counter [2:0] $end
$var reg 1 < rst $end
$scope module bitorder $end
$var wire 1 8 clk $end
$var wire 1 < rst $end
$var wire 1 3 axiiv $end
$var wire 2 = axiid [1:0] $end
$var reg 2 > axiod [1:0] $end
$var reg 1 6 axiov $end
$var reg 5 ? bitCounter1 [4:0] $end
$var reg 5 @ bitCounter2 [4:0] $end
$var reg 8 A buffer1 [7:0] $end
$var reg 8 B buffer2 [7:0] $end
$var reg 1 C flag $end
$var reg 2 D state [1:0] $end
$upscope $end
$scope module cksum $end
$var wire 2 E axiid [1:0] $end
$var wire 1 F axiov $end
$var wire 1 8 clk $end
$var wire 1 < rst $end
$var wire 32 G axiod [31:0] $end
$var wire 1 3 axiiv $end
$var reg 1 H crc32rst $end
$var reg 1 5 done $end
$var reg 1 ' kill $end
$var reg 2 I state [1:0] $end
$scope module cksum $end
$var wire 2 J axiid [1:0] $end
$var wire 32 K axiod [31:0] $end
$var wire 1 F axiov $end
$var wire 1 8 clk $end
$var wire 1 H rst $end
$var wire 1 3 axiiv $end
$var reg 32 L caxiod [31:0] $end
$var reg 32 M saxiod [31:0] $end
$var integer 32 N i [31:0] $end
$upscope $end
$upscope $end
$scope module eth_packer $end
$var wire 1 O cancelled $end
$var wire 1 P cksum_calculated $end
$var wire 1 8 clk $end
$var wire 1 < rst $end
$var wire 32 Q cksum [31:0] $end
$var wire 1 # axiiv $end
$var wire 2 R axiid [1:0] $end
$var reg 9 S audio_counter [8:0] $end
$var reg 3 T byte_bit_counter [2:0] $end
$var reg 1 U cksum_axiiv $end
$var reg 1 V crc32rst $end
$var reg 13 W dibit_counter [12:0] $end
$var reg 2 X phy_txd [1:0] $end
$var reg 1 % phy_txen $end
$var reg 1 ! stall $end
$var reg 4 Y state [3:0] $end
$scope module crc32 $end
$var wire 2 Z axiid [1:0] $end
$var wire 1 U axiiv $end
$var wire 32 [ axiod [31:0] $end
$var wire 1 P axiov $end
$var wire 1 8 clk $end
$var wire 1 V rst $end
$var reg 32 \ caxiod [31:0] $end
$var reg 32 ] saxiod [31:0] $end
$var integer 32 ^ i [31:0] $end
$upscope $end
$upscope $end
$scope module firewall $end
$var wire 2 _ axiid [1:0] $end
$var wire 1 6 axiiv $end
$var wire 1 8 clk $end
$var wire 1 < rst $end
$var reg 2 ` axiod [1:0] $end
$var reg 1 1 axiov $end
$var reg 8 a counter [7:0] $end
$var reg 48 b macAddress [47:0] $end
$upscope $end
$scope module fp $end
$var wire 1 8 clk $end
$var wire 1 < rst $end
$var wire 1 ) pixel_axiiv $end
$var wire 8 c pixel_axiid [7:0] $end
$var wire 1 - addr_axiiv $end
$var wire 24 d addr_axiid [23:0] $end
$var reg 17 e addr_axiod [16:0] $end
$var reg 1 / axiov $end
$var reg 1 f firstBit $end
$var reg 8 g pixel_axiod [7:0] $end
$upscope $end
$scope module image_audio_splitter $end
$var wire 2 h axiid [1:0] $end
$var wire 1 1 axiiv $end
$var wire 1 8 clk $end
$var wire 1 < rst $end
$var reg 24 i addr [23:0] $end
$var reg 1 - addr_axiov $end
$var reg 8 j audio [7:0] $end
$var reg 1 + audio_axiov $end
$var reg 3 k byte_bit_counter [2:0] $end
$var reg 18 l output_counter [17:0] $end
$var reg 8 m pixel [7:0] $end
$var reg 1 ) pixel_axiov $end
$var reg 2 n state [1:0] $end
$upscope $end
$scope module reverse_bit_order $end
$var wire 1 8 clk $end
$var wire 8 o pixel [7:0] $end
$var wire 1 < rst $end
$var wire 1 ! stall $end
$var reg 6 p addr_bit_counter [5:0] $end
$var reg 9 q audio_counter [8:0] $end
$var reg 2 r axiod [1:0] $end
$var reg 1 # axiov $end
$var reg 4 s byte_bit_counter [3:0] $end
$var reg 24 t pixel_addr [23:0] $end
$var reg 9 u pixel_counter [8:0] $end
$var reg 2 v state [1:0] $end
$upscope $end
$scope module uut $end
$var wire 1 8 clk $end
$var wire 1 % crsdv $end
$var wire 1 < rst $end
$var wire 2 w rxd [1:0] $end
$var reg 2 x axiod [1:0] $end
$var reg 1 3 axiov $end
$var reg 6 y counter [5:0] $end
$var reg 3 z state [2:0] $end
$upscope $end
$scope begin $ivl_for_loop0 $end
$var integer 32 { i [31:0] $end
$upscope $end
$upscope $end
$enddefinitions $end
#0
$dumpvars
b0 {
bx z
bx y
bx x
b0 w
bx v
bx u
bx t
bx s
b0 r
bx q
bx p
bx o
bx n
bx m
bx l
bx k
bx j
bx i
bx h
bx g
xf
bx e
bx d
bx c
bx b
bx a
bx `
bx _
b100000 ^
bx ]
bx \
bx [
b0 Z
bx Y
b0 X
bx W
xV
0U
bx T
bx S
b0 R
bx Q
1P
0O
bx N
bx M
bx L
bx K
bx J
bx I
xH
bx G
1F
bx E
bx D
xC
bx B
bx A
bx @
bx ?
bx >
bx =
0<
bx ;
bx :
bx 9
08
bx 7
x6
x5
bx 4
x3
bx 2
01
bx 0
x/
bx .
x-
bx ,
x+
bx *
x)
bx (
x'
b0 &
0%
b0 $
x#
bx "
1!
$end
#10000
b0 q
b0 u
b1000 s
b0 p
0#
b0 v
b0 a
b0 b
0+
0)
0-
b0 *
b0 j
b0 (
b0 c
b0 m
b0 k
b0 l
b1 n
0/
18
#20000
bx 2
bx `
bx h
08
1<
#30000
b0 2
b0 `
b0 h
b100000 N
1f
b0 .
b0 g
b0 0
b0 e
b0 ,
b0 d
b0 i
b0 I
1H
0'
05
0C
b0 D
b0 B
b0 A
b0 @
b0 ?
b0 7
b0 >
b0 _
06
b0 y
b0 z
b0 E
b0 J
b0 4
b0 =
b0 x
03
b0 W
1V
b0 S
b0 T
b0 Y
b0 "
b0 t
18
#40000
08
0<
#50000
b11110010101111001101100100100101 ]
b100000 ^
b0 Q
b0 [
b11110010101111001101100100100101 M
b100000 N
b0 G
b0 K
b11111111111111111111111111111111 \
b1 W
0V
b1 y
b11111111111111111111111111111111 L
0H
18
b11011 :
b11011 o
#60000
08
#70000
b10 W
b0 9
18
b1 {
#80000
08
#90000
b11 W
18
b10 {
#100000
08
#110000
b100 W
18
b11 {
#120000
08
#130000
b101 W
18
b100 {
#140000
08
#150000
b110 W
18
b101 {
#160000
08
#170000
b111 W
18
b110 {
#180000
08
#190000
b1000 W
18
b111 {
#200000
08
#210000
b1001 W
18
b1000 {
#220000
08
#230000
b1010 W
18
b1001 {
#240000
08
#250000
b1011 W
18
b1010 {
#260000
08
#270000
b1100 W
18
b1011 {
#280000
08
#290000
b1101 W
18
b1100 {
#300000
08
#310000
b1110 W
18
b1101 {
#320000
08
#330000
b1111 W
18
b1110 {
#340000
08
#350000
b10000 W
18
b1111 {
#360000
08
#370000
b10001 W
18
b10000 {
#380000
08
#390000
b10010 W
18
b10001 {
#400000
08
#410000
b10011 W
18
b10010 {
#420000
08
#430000
b10100 W
18
b10011 {
#440000
08
#450000
b10101 W
18
b10100 {
#460000
08
#470000
b10110 W
18
b10101 {
#480000
08
#490000
b10111 W
18
b10110 {
#500000
08
#510000
b11000 W
18
b10111 {
#520000
08
#530000
b11001 W
18
b11000 {
#540000
08
#550000
b11010 W
18
b11001 {
#560000
08
#570000
b11011 W
18
b11010 {
#580000
08
#590000
b11100 W
18
b11011 {
#600000
08
#610000
b11101 W
18
b11100 {
#620000
08
#630000
b11110 W
18
b11101 {
#640000
08
#650000
b11111 W
18
b11110 {
#660000
08
#670000
b100000 W
18
b11111 {
#680000
08
#690000
b100001 W
18
b100000 {
#700000
08
#710000
b100010 W
18
b100001 {
#720000
08
#730000
b100011 W
18
b100010 {
#740000
08
#750000
b100100 W
18
b100011 {
#760000
08
#770000
b100101 W
18
b100100 {
#780000
08
#790000
b100110 W
18
b100101 {
#800000
08
#810000
b100111 W
18
b100110 {
#820000
08
#830000
b101000 W
18
b100111 {
#840000
08
#850000
b101001 W
18
b101000 {
#860000
08
#870000
b101010 W
18
b101001 {
#880000
08
#890000
b101011 W
18
b101010 {
#900000
08
#910000
b101100 W
18
b101011 {
#920000
08
#930000
b101101 W
18
b101100 {
#940000
08
#950000
b101110 W
18
b101101 {
#960000
08
#970000
b101111 W
18
b101110 {
#980000
08
#990000
b11111011001111101110001001001011 ]
b100000 ^
b1 &
b1 X
b1 Z
b1 w
b1 Y
b0 W
18
b101111 {
#1000000
08
#1010000
1%
b1 W
18
b110000 {
#1020000
08
#1030000
b1 z
b10 W
18
b110001 {
#1040000
08
#1050000
b11 W
b10 y
18
b110010 {
#1060000
08
#1070000
b11 y
b100 W
18
b110011 {
#1080000
08
#1090000
b101 W
b100 y
18
b110100 {
#1100000
08
#1110000
b101 y
b110 W
18
b110101 {
#1120000
08
#1130000
b111 W
b110 y
18
b110110 {
#1140000
08
#1150000
b111 y
b1000 W
18
b110111 {
#1160000
08
#1170000
b1001 W
b1000 y
18
b111000 {
#1180000
08
#1190000
b1001 y
b1010 W
18
b111001 {
#1200000
08
#1210000
b1011 W
b1010 y
18
b111010 {
#1220000
08
#1230000
b1011 y
b1100 W
18
b111011 {
#1240000
08
#1250000
b1101 W
b1100 y
18
b111100 {
#1260000
08
#1270000
b1101 y
b1110 W
18
b111101 {
#1280000
08
#1290000
b1111 W
b1110 y
18
b111110 {
#1300000
08
#1310000
b1111 y
b10000 W
18
b111111 {
#1320000
08
#1330000
b10001 W
b10000 y
18
b1000000 {
#1340000
08
#1350000
b10001 y
b10010 W
18
b1000001 {
#1360000
08
#1370000
b10011 W
b10010 y
18
b1000010 {
#1380000
08
#1390000
b10011 y
b10100 W
18
b1000011 {
#1400000
08
#1410000
b10101 W
b10100 y
18
b1000100 {
#1420000
08
#1430000
b10101 y
b10110 W
18
b1000101 {
#1440000
08
#1450000
b10111 W
b10110 y
18
b1000110 {
#1460000
08
#1470000
b10111 y
b11000 W
18
b1000111 {
#1480000
08
#1490000
b11001 W
b11000 y
18
b1001000 {
#1500000
08
#1510000
b11001 y
b11010 W
18
b1001001 {
#1520000
08
#1530000
b11011 W
b11010 y
18
b1001010 {
#1540000
08
#1550000
b11011 y
b11100 W
18
b1001011 {
#1560000
08
#1570000
b11101 W
b11100 y
18
b1001100 {
#1580000
08
#1590000
b11101 y
b11110 W
18
b1001101 {
#1600000
08
#1610000
b11111 W
b11110 y
18
b1001110 {
#1620000
08
#1630000
b11111111111111111111111111111100 ]
b100000 ^
b11 &
b11 X
b11 Z
b11 w
b10 z
b0 y
b100000 W
18
b1001111 {
#1640000
08
#1650000
1U
b11 Y
b0 W
b11 z
18
b1010000 {
#1660000
08
#1670000
b11111111111111111111111111111100 M
b100000 N
b11111111111111111111111111110000 ]
b100000 ^
b11 Q
b11 [
b11 E
b11 J
b11 4
b11 =
b11 x
13
b1 W
b11111111111111111111111111111100 \
18
b1010001 {
#1680000
08
#1690000
b11111111111111111111111111000000 ]
b100000 ^
b1111 Q
b1111 [
b11111111111111111111111111110000 M
b100000 N
b11 G
b11 K
b11111111111111111111111111110000 \
b10 W
b10 ?
b11 A
b11111111111111111111111111111100 L
b1 I
18
b1010010 {
#1700000
08
#1710000
b11111111111111111111111111000000 M
b100000 N
b1111 G
b1111 K
b11111111111111111111111100000000 ]
b100000 ^
b111111 Q
b111111 [
b11111111111111111111111111110000 L
b100 ?
b1111 A
b11 W
b11111111111111111111111111000000 \
18
b1010011 {
#1720000
08
#1730000
b11111111111111111111110000000000 ]
b100000 ^
b11111111 Q
b11111111 [
b11111111111111111111111100000000 M
b100000 N
b111111 G
b111111 K
b11111111111111111111111100000000 \
b100 W
b110 ?
b111111 A
b11111111111111111111111111000000 L
18
b1010100 {
#1740000
08
#1750000
b11111111111111111111110000000000 M
b100000 N
b11111111 G
b11111111 K
b11111111111111111111000000000000 ]
b100000 ^
b1111111111 Q
b1111111111 [
b11111111111111111111111100000000 L
b1 D
b0 ?
b11111111 A
b101 W
b11111111111111111111110000000000 \
18
b1010101 {
#1760000
08
#1770000
b11111111111111111100000000000000 ]
b100000 ^
b111111111111 Q
b111111111111 [
b11 2
b11 `
b11 h
b11111111111111111111000000000000 M
b100000 N
b1111111111 G
b1111111111 K
b11111111111111111111000000000000 \
b110 W
b10 @
b10 ?
b11 B
b11 7
b11 >
b11 _
16
b11111111111111111111110000000000 L
18
b1010110 {
#1780000
08
#1790000
b11111111111111111100000000000000 M
b100000 N
b111111111111 G
b111111111111 K
b11111111111111110000000000000000 ]
b100000 ^
b11111111111111 Q
b11111111111111 [
b1 a
b11 b
b11111111111111111111000000000000 L
b100 @
b100 ?
b1111 B
b111 W
b11111111111111111100000000000000 \
18
b1010111 {
#1800000
08
#1810000
b11111111111111000000000000000000 ]
b100000 ^
b1111111111111111 Q
b1111111111111111 [
b11111111111111110000000000000000 M
b100000 N
b11111111111111 G
b11111111111111 K
b11111111111111110000000000000000 \
b1000 W
b110 @
b110 ?
b111111 B
b11111111111111111100000000000000 L
b10 a
b1111 b
18
b1011000 {
#1820000
08
#1830000
b11111111111111000000000000000000 M
b100000 N
b1111111111111111 G
b1111111111111111 K
b11111111111100000000000000000000 ]
b100000 ^
b111111111111111111 Q
b111111111111111111 [
b11 a
b111111 b
b11111111111111110000000000000000 L
b10 D
b0 @
b0 ?
b11111111 B
b1001 W
b11111111111111000000000000000000 \
18
b1011001 {
#1840000
08
#1850000
b11111111110000000000000000000000 ]
b100000 ^
b11111111111111111111 Q
b11111111111111111111 [
b11111111111100000000000000000000 M
b100000 N
b111111111111111111 G
b111111111111111111 K
b11111111111100000000000000000000 \
b1010 W
b10 @
b10 ?
b11111111111111000000000000000000 L
b100 a
b11111111 b
18
b1011010 {
#1860000
08
#1870000
b11111111110000000000000000000000 M
b100000 N
b11111111111111111111 G
b11111111111111111111 K
b11111111000000000000000000000000 ]
b100000 ^
b1111111111111111111111 Q
b1111111111111111111111 [
b101 a
b1111111111 b
b11111111111100000000000000000000 L
b100 @
b100 ?
b1011 W
b11111111110000000000000000000000 \
18
b1011011 {
#1880000
08
#1890000
b11111100000000000000000000000000 ]
b100000 ^
b111111111111111111111111 Q
b111111111111111111111111 [
b11111111000000000000000000000000 M
b100000 N
b1111111111111111111111 G
b1111111111111111111111 K
b11111111000000000000000000000000 \
b1100 W
b110 @
b110 ?
b11111111110000000000000000000000 L
b110 a
b111111111111 b
18
b1011100 {
#1900000
08
#1910000
b11111100000000000000000000000000 M
b100000 N
b111111111111111111111111 G
b111111111111111111111111 K
b11110000000000000000000000000000 ]
b100000 ^
b11111111111111111111111111 Q
b11111111111111111111111111 [
b111 a
b11111111111111 b
b11111111000000000000000000000000 L
b1 D
b0 @
b0 ?
b1101 W
b11111100000000000000000000000000 \
18
b1011101 {
#1920000
08
#1930000
b11000000000000000000000000000000 ]
b100000 ^
b1111111111111111111111111111 Q
b1111111111111111111111111111 [
b11110000000000000000000000000000 M
b100000 N
b11111111111111111111111111 G
b11111111111111111111111111 K
b11110000000000000000000000000000 \
b1110 W
b10 @
b10 ?
b11111100000000000000000000000000 L
b1000 a
b1111111111111111 b
18
b1011110 {
#1940000
08
#1950000
b11000000000000000000000000000000 M
b100000 N
b1111111111111111111111111111 G
b1111111111111111111111111111 K
b0 ]
b100000 ^
b111111111111111111111111111111 Q
b111111111111111111111111111111 [
b1001 a
b111111111111111111 b
b11110000000000000000000000000000 L
b100 @
b100 ?
b1111 W
b11000000000000000000000000000000 \
18
b1011111 {
#1960000
08
#1970000
b1101010000110010011011011001 ]
b100000 ^
b11111111111111111111111111111111 Q
b11111111111111111111111111111111 [
b0 M
b100000 N
b111111111111111111111111111111 G
b111111111111111111111111111111 K
b0 \
b10000 W
b110 @
b110 ?
b11000000000000000000000000000000 L
b1010 a
b11111111111111111111 b
18
b1100000 {
#1980000
08
#1990000
b1101010000110010011011011001 M
b100000 N
b11111111111111111111111111111111 G
b11111111111111111111111111111111 K
b111000010011111011110110111101 ]
b100000 ^
b11110010101111001101100100100110 Q
b11110010101111001101100100100110 [
b1011 a
b1111111111111111111111 b
b0 L
b10 D
b0 @
b0 ?
b10001 W
b1101010000110010011011011001 \
18
b1100001 {
#2000000
08
#2010000
b11101100011111011101000000101101 ]
b100000 ^
b11000111101100000100001001000010 Q
b11000111101100000100001001000010 [
b111000010011111011110110111101 M
b100000 N
b11110010101111001101100100100110 G
b11110010101111001101100100100110 K
b111000010011111011110110111101 \
b10010 W
b10 @
b10 ?
b1101010000110010011011011001 L
b1100 a
b111111111111111111111111 b
18
b1100010 {
#2020000
08
#2030000
b11101100011111011101000000101101 M
b100000 N
b11000111101100000100001001000010 G
b11000111101100000100001001000010 K
b10110001111101110100000010110100 ]
b100000 ^
b10011100000100010111111010010 Q
b10011100000100010111111010010 [
b1101 a
b11111111111111111111111111 b
b111000010011111011110110111101 L
b100 @
b100 ?
b10011 W
b11101100011111011101000000101101 \
18
b1100011 {
#2040000
08
#2050000
b11000011000111000001111101100111 ]
b100000 ^
b1001110000010001011111101001011 Q
b1001110000010001011111101001011 [
b10110001111101110100000010110100 M
b100000 N
b10011100000100010111111010010 G
b10011100000100010111111010010 K
b10110001111101110100000010110100 \
b10100 W
b110 @
b110 ?
b11101100011111011101000000101101 L
b1110 a
b1111111111111111111111111111 b
18
b1100100 {
#2060000
08
#2070000
b11000011000111000001111101100111 M
b100000 N
b1001110000010001011111101001011 G
b1001110000010001011111101001011 K
b1100011100000111110110011100 ]
b100000 ^
b111100111000111110000010011000 Q
b111100111000111110000010011000 [
b1111 a
b111111111111111111111111111111 b
b10110001111101110100000010110100 L
b1 D
b0 @
b0 ?
b10101 W
b11000011000111000001111101100111 \
18
b1100101 {
#2080000
08
#2090000
b111100100000101101000010101001 ]
b100000 ^
b11110011100011111000001001100011 Q
b11110011100011111000001001100011 [
b1100011100000111110110011100 M
b100000 N
b111100111000111110000010011000 G
b111100111000111110000010011000 K
b1100011100000111110110011100 \
b10110 W
b10 @
b10 ?
b11000011000111000001111101100111 L
b10000 a
b11111111111111111111111111111111 b
18
b1100110 {
#2100000
08
#2110000
b111100100000101101000010101001 M
b100000 N
b11110011100011111000001001100011 G
b11110011100011111000001001100011 K
b11111111010010000110010001111101 ]
b100000 ^
b11000011011111010010111101010110 Q
b11000011011111010010111101010110 [
b10001 a
b1111111111111111111111111111111111 b
b1100011100000111110110011100 L
b100 @
b100 ?
b10111 W
b111100100000101101000010101001 \
18
b1100111 {
#2120000
08
#2130000
b11110100101000111010101010011010 ]
b100000 ^
b101101111001101110000010 Q
b101101111001101110000010 [
b11111111010010000110010001111101 M
b100000 N
b11000011011111010010111101010110 G
b11000011011111010010111101010110 K
b10 &
b10 X
b10 Z
b10 w
b11111111010010000110010001111101 \
b100 Y
b0 W
b110 @
b110 ?
b111100100000101101000010101001 L
b10010 a
b111111111111111111111111111111111111 b
18
b1101000 {
#2140000
08
#2150000
b101101111001101110000010 G
b101101111001101110000010 K
b11110100101000111010101010011010 M
b100000 N
b11011011000011001001000100000110 ]
b100000 ^
b1011010111000101010101100101 Q
b1011010111000101010101100101 [
b10011 a
b11111111111111111111111111111111111111 b
b11111111010010000110010001111101 L
b10 D
b0 @
b0 ?
b10 E
b10 J
b10 4
b10 =
b10 x
b1 W
b11110100101000111010101010011010 \
18
b1101001 {
#2160000
08
#2170000
b1100101101100000111111101110110 ]
b100000 ^
b100100111100110110111011111001 Q
b100100111100110110111011111001 [
b11011011000011001001000100000110 M
b100000 N
b1011010111000101010101100101 G
b1011010111000101010101100101 K
b11011011000011001001000100000110 \
b10 W
b10 @
b10 ?
b11111110 A
b11110100101000111010101010011010 L
b10100 a
b1111111111111111111111111111111111111111 b
18
b1101010 {
#2180000
08
#2190000
b1100101101100000111111101110110 M
b100000 N
b100100111100110110111011111001 G
b100100111100110110111011111001 K
b10010110110000011111110111011000 ]
b100000 ^
b10011010010011111000000010001001 Q
b10011010010011111000000010001001 [
b10101 a
b111111111111111111111111111111111111111111 b
b11011011000011001001000100000110 L
b100 @
b100 ?
b11111010 A
b11 W
b1100101101100000111111101110110 \
18
b1101011 {
#2200000
08
#2210000
b1010110010001001101000110111001 ]
b100000 ^
b1101001001111100000001000100111 Q
b1101001001111100000001000100111 [
b10010110110000011111110111011000 M
b100000 N
b10011010010011111000000010001001 G
b10011010010011111000000010001001 K
b10010110110000011111110111011000 \
b100 W
b110 @
b110 ?
b11101010 A
b1100101101100000111111101110110 L
b10110 a
b11111111111111111111111111111111111111111111 b
18
b1101100 {
#2220000
08
#2230000
b1010110010001001101000110111001 M
b100000 N
b1101001001111100000001000100111 G
b1101001001111100000001000100111 K
b1011001000100110100011011100100 ]
b100000 ^
b10101001101110110010111001000110 Q
b10101001101110110010111001000110 [
b10111 a
b1111111111111111111111111111111111111111111111 b
b10010110110000011111110111011000 L
b1 D
b0 @
b0 ?
b10101010 A
b101 W
b1010110010001001101000110111001 \
18
b1101101 {
#2240000
08
#2250000
b1100100010011010001101110010000 ]
b100000 ^
b10100110111011001011100100011011 Q
b10100110111011001011100100011011 [
b1011001000100110100011011100100 M
b100000 N
b10101001101110110010111001000110 G
b10101001101110110010111001000110 K
b10 2
b10 `
b10 h
b1011001000100110100011011100100 \
b110 W
b10 @
b10 ?
b11111110 B
b10 7
b10 >
b10 _
b1010110010001001101000110111001 L
b11000 a
b111111111111111111111111111111111111111111111111 b
18
b1101110 {
#2260000
08
#2270000
b1100100010011010001101110010000 M
b100000 N
b10100110111011001011100100011011 G
b10100110111011001011100100011011 K
b10010001001101000110111001000000 ]
b100000 ^
b10011011101100101110010001101111 Q
b10011011101100101110010001101111 [
b11001 a
b1011001000100110100011011100100 L
b100 @
b100 ?
b11111010 B
b111 W
b1100100010011010001101110010000 \
18
b1101111 {
#2280000
08
#2290000
b1001001100100101001111111011001 ]
b100000 ^
b1101110110010111001000110111111 Q
b1101110110010111001000110111111 [
b10010001001101000110111001000000 M
b100000 N
b10011011101100101110010001101111 G
b10011011101100101110010001101111 K
b10010001001101000110111001000000 \
b1000 W
b110 @
b110 ?
b11101010 B
b1100100010011010001101110010000 L
b11010 a
18
b1110000 {
#2300000
08
#2310000
b1001001100100101001111111011001 M
b100000 N
b1101110110010111001000110111111 G
b1101110110010111001000110111111 K
b100110010010100111111101100100 ]
b100000 ^
b10110110011011010110000000100110 Q
b10110110011011010110000000100110 [
b11011 a
b10010001001101000110111001000000 L
b10 D
b0 @
b0 ?
b10101010 B
b1001 W
b1001001100100101001111111011001 \
18
b1110001 {
#2320000
08
#2330000
b10011101111010001110000000100111 ]
b100000 ^
b11011001101101011000000010011011 Q
b11011001101101011000000010011011 [
b100110010010100111111101100100 M
b100000 N
b10110110011011010110000000100110 G
b10110110011011010110000000100110 K
b100110010010100111111101100100 \
b1010 W
b10 @
b10 ?
b1001001100100101001111111011001 L
b11100 a
18
b1110010 {
#2340000
08
#2350000
b10011101111010001110000000100111 M
b100000 N
b11011001101101011000000010011011 G
b11011001101101011000000010011011 K
b1111010111000001010011001000101 ]
b100000 ^
b1100010000101110001111111011000 Q
b1100010000101110001111111011000 [
b11101 a
b100110010010100111111101100100 L
b100 @
b100 ?
b1011 W
b10011101111010001110000000100111 \
18
b1110011 {
#2360000
08
#2370000
b11101011100000101001100100010100 ]
b100000 ^
b10000101000111110101100110111010 Q
b10000101000111110101100110111010 [
b1111010111000001010011001000101 M
b100000 N
b1100010000101110001111111011000 G
b1100010000101110001111111011000 K
b1111010111000001010011001000101 \
b1100 W
b110 @
b110 ?
b10011101111010001110000000100111 L
b11110 a
18
b1110100 {
#2380000
08
#2390000
b11101011100000101001100100010100 M
b100000 N
b10000101000111110101100110111010 G
b10000101000111110101100110111010 K
b10100111100010000101111100111110 ]
b100000 ^
b10100011111010110011011101011 Q
b10100011111010110011011101011 [
b11111 a
b1111010111000001010011001000101 L
b1 D
b0 @
b0 ?
b1101 W
b11101011100000101001100100010100 \
18
b1110101 {
#2400000
08
#2410000
b10010011011000100101101000100001 ]
b100000 ^
b1011000011101111010000011000001 Q
b1011000011101111010000011000001 [
b10100111100010000101111100111110 M
b100000 N
b10100011111010110011011101011 G
b10100011111010110011011101011 K
b10100111100010000101111100111110 \
b1110 W
b10 @
b10 ?
b11101011100000101001100100010100 L
b100000 a
18
b1110110 {
#2420000
08
#2430000
b10010011011000100101101000100001 M
b100000 N
b1011000011101111010000011000001 G
b1011000011101111010000011000001 K
b1000000110010100100111001011101 ]
b100000 ^
b1101100100111011010010111011110 Q
b1101100100111011010010111011110 [
b100001 a
b10100111100010000101111100111110 L
b100 @
b100 ?
b1111 W
b10010011011000100101101000100001 \
18
b1110111 {
#2440000
08
#2450000
b11001010010011100101110100 ]
b100000 ^
b10111111001101011011000110100010 Q
b10111111001101011011000110100010 [
b1000000110010100100111001011101 M
b100000 N
b1101100100111011010010111011110 G
b1101100100111011010010111011110 K
b1000000110010100100111001011101 \
b10000 W
b110 @
b110 ?
b10010011011000100101101000100001 L
b100010 a
18
b1111000 {
#2460000
08
#2470000
b11001010010011100101110100 M
b100000 N
b10111111001101011011000110100010 G
b10111111001101011011000110100010 K
b1000011001011111100001100111 ]
b100000 ^
b11111100110101101100011010001011 Q
b11111100110101101100011010001011 [
b100011 a
b1000000110010100100111001011101 L
b10 D
b0 @
b0 ?
b10001 W
b11001010010011100101110100 \
18
b1111001 {
#2480000
08
#2490000
b100101010101101111110000101011 ]
b100000 ^
b11110111100110100000011110011000 Q
b11110111100110100000011110011000 [
b1000011001011111100001100111 M
b100000 N
b11111100110101101100011010001011 G
b11111100110101101100011010001011 K
b1000011001011111100001100111 \
b10010 W
b10 @
b10 ?
b11001010010011100101110100 L
b100100 a
18
b1111010 {
#2500000
08
#2510000
b100101010101101111110000101011 M
b100000 N
b11110111100110100000011110011000 G
b11110111100110100000011110011000 K
b10010001100110101110110100011011 ]
b100000 ^
b11011010101010010000001111010100 Q
b11011010101010010000001111010100 [
b100101 a
b1000011001011111100001100111 L
b100 @
b100 ?
b10011 W
b100101010101101111110000101011 \
18
b1111011 {
#2520000
08
#2530000
b1001011001010001001001010110101 ]
b100000 ^
b1101110011001010001001011100100 Q
b1101110011001010001001011100100 [
b10010001100110101110110100011011 M
b100000 N
b11011010101010010000001111010100 G
b11011010101010010000001111010100 K
b10010001100110101110110100011011 \
b10100 W
b110 @
b110 ?
b100101010101101111110000101011 L
b100110 a
18
b1111100 {
#2540000
08
#2550000
b1001011001010001001001010110101 M
b100000 N
b1101110011001010001001011100100 G
b1101110011001010001001011100100 K
b101100101000100100101011010100 ]
b100000 ^
b10110100110101110110110101001010 Q
b10110100110101110110110101001010 [
b100111 a
b10010001100110101110110100011011 L
b1 D
b0 @
b0 ?
b10101 W
b1001011001010001001001010110101 \
18
b1111101 {
#2560000
08
#2570000
b10110110010010000011011011100111 ]
b100000 ^
b11010011010111011011010100101011 Q
b11010011010111011011010100101011 [
b101100101000100100101011010100 M
b100000 N
b10110100110101110110110101001010 G
b10110100110101110110110101001010 K
b101100101000100100101011010100 \
b10110 W
b10 @
b10 ?
b1001011001010001001001010110101 L
b101000 a
18
b1111110 {
#2580000
08
#2590000
b10110110010010000011011011100111 M
b100000 N
b11010011010111011011010100101011 G
b11010011010111011011010100101011 K
b11010100011000111111110101000101 ]
b100000 ^
b1001001101101111100100100011000 Q
b1001001101101111100100100011000 [
b101001 a
b101100101000100100101011010100 L
b100 @
b100 ?
b10111 W
b10110110010010000011011011100111 \
18
b1111111 {
#2600000
08
#2610000
b1011000000011011100111001111010 ]
b100000 ^
b101011100111000000001010111010 Q
b101011100111000000001010111010 [
b11010100011000111111110101000101 M
b100000 N
b1001001101101111100100100011000 G
b1001001101101111100100100011000 K
b11010100011000111111110101000101 \
b101 Y
b0 W
b110 @
b110 ?
b10110110010010000011011011100111 L
b101010 a
18
b10000000 {
#2620000
08
#2630000
b1011000000011011100111001111010 M
b100000 N
b101011100111000000001010111010 G
b101011100111000000001010111010 K
b1100000001101110011100111101000 ]
b100000 ^
b10100111111100100011000110000101 Q
b10100111111100100011000110000101 [
b101011 a
b11010100011000111111110101000101 L
b10 D
b0 @
b0 ?
b1 W
b1011000000011011100111001111010 \
18
b10000001 {
#2640000
08
#2650000
b10000000110111001110011110100000 ]
b100000 ^
b10011111110010001100011000010111 Q
b10011111110010001100011000010111 [
b1100000001101110011100111101000 M
b100000 N
b10100111111100100011000110000101 G
b10100111111100100011000110000101 K
b1100000001101110011100111101000 \
b10 W
b10 @
b10 ?
b1011000000011011100111001111010 L
b101100 a
18
b10000010 {
#2660000
08
