EthernetTesting/obj/image_audio_splitter.vcd
$date
	Mon Nov 14 00:00:39 2022
$end
$version
	Icarus Verilog
$end
$timescale
	1ps
$end
$scope module image_audio_splitter_tb $end
$var wire 1 ! pixel_axiov $end
$var wire 8 " pixel [7:0] $end
$var wire 1 # audio_axiov $end
$var wire 8 $ audio [7:0] $end
$var wire 1 % addr_axiov $end
$var wire 24 & addr [23:0] $end
$var reg 2 ' axiid [1:0] $end
$var reg 1 ( axiiv $end
$var reg 1 ) clk $end
$var reg 1 * rst $end
$scope module image_audio_splitter $end
$var wire 2 + axiid [1:0] $end
$var wire 1 ( axiiv $end
$var wire 1 ) clk $end
$var wire 1 * rst $end
$var reg 24 , addr [23:0] $end
$var reg 1 % addr_axiov $end
$var reg 8 - audio [7:0] $end
$var reg 1 # audio_axiov $end
$var reg 3 . byte_bit_counter [2:0] $end
$var reg 9 / output_counter [8:0] $end
$var reg 8 0 pixel [7:0] $end
$var reg 1 ! pixel_axiov $end
$var reg 2 1 state [1:0] $end
$upscope $end
$scope begin $ivl_for_loop0 $end
$var integer 32 2 i [31:0] $end
$upscope $end
$scope begin $ivl_for_loop1 $end
$var integer 32 3 i [31:0] $end
$upscope $end
$scope begin $ivl_for_loop2 $end
$var integer 32 4 i [31:0] $end
$upscope $end
$scope begin $ivl_for_loop3 $end
$var integer 32 5 i [31:0] $end
$upscope $end
$scope begin $ivl_for_loop4 $end
$var integer 32 6 i [31:0] $end
$upscope $end
$scope begin $ivl_for_loop5 $end
$var integer 32 7 i [31:0] $end
$upscope $end
$scope begin $ivl_for_loop6 $end
$var integer 32 8 i [31:0] $end
$upscope $end
$upscope $end
$enddefinitions $end
#0
$dumpvars
b0 8
b0 7
b0 6
b0 5
b0 4
b0 3
b0 2
bx 1
bx 0
bx /
bx .
bx -
bx ,
bx +
0*
0)
x(
bx '
bx &
x%
bx $
x#
bx "
x!
$end
#10000000000000
b0 .
b0 /
b1 1
1)
#20000000000000
0)
1*
#30000000000000
0#
0!
0%
b0 $
b0 -
b0 "
b0 0
b0 &
b0 ,
1)
#40000000000000
0)
0*
#50000000000000
b10 /
b10000000000000000 &
b10000000000000000 ,
b10 .
1)
b1 '
b1 +
1(
#60000000000000
0)
#70000000000000
b100 /
b1010000000000000000 &
b1010000000000000000 ,
b100 .
1)
b1 2
#80000000000000
0)
#90000000000000
b110 /
b101010000000000000000 &
b101010000000000000000 ,
b110 .
1)
b10 2
#100000000000000
0)
#110000000000000
b1000 /
b10101010000000000000000 &
b10101010000000000000000 ,
b0 .
1)
b11 2
#120000000000000
0)
#130000000000000
b1010 /
b10101010000000100000000 &
b10101010000000100000000 ,
b10 .
1)
b100 2
#140000000000000
0)
#150000000000000
b1100 /
b10101010000010100000000 &
b10101010000010100000000 ,
b100 .
1)
b101 2
#160000000000000
0)
#170000000000000
b1110 /
b10101010001010100000000 &
b10101010001010100000000 ,
b110 .
1)
b110 2
#180000000000000
0)
#190000000000000
b10000 /
b10101010101010100000000 &
b10101010101010100000000 ,
b0 .
1)
b111 2
#200000000000000
0)
#210000000000000
b10010 /
b10101010101010100000001 &
b10101010101010100000001 ,
b10 .
1)
b1000 2
#220000000000000
0)
#230000000000000
b10100 /
b10101010101010100000101 &
b10101010101010100000101 ,
b100 .
1)
b1001 2
#240000000000000
0)
#250000000000000
b10110 /
b10101010101010100010101 &
b10101010101010100010101 ,
b110 .
1)
b1010 2
#260000000000000
0)
#270000000000000
b10 1
b0 /
1%
b10101010101010101010101 &
b10101010101010101010101 ,
b0 .
1)
b1011 2
#280000000000000
0)
#290000000000000
0%
b10 .
1)
b0 '
b0 +
b1100 2
#300000000000000
0)
#310000000000000
b1000000 "
b1000000 0
b100 .
1)
b1 '
b1 +
b1 3
#320000000000000
0)
#330000000000000
b10010000 "
b10010000 0
b110 .
1)
b10 '
b10 +
b10 3
#340000000000000
0)
#350000000000000
b11100100 "
b11100100 0
1!
b0 .
1)
b11 '
b11 +
b11 3
#360000000000000
0)
#370000000000000
b111001 "
b111001 0
0!
b10 .
1)
b0 '
b0 +
b100 3
#380000000000000
0)
#390000000000000
b1001110 "
b1001110 0
b100 .
1)
b1 '
b1 +
b1 4
#400000000000000
0)
#410000000000000
b10010011 "
b10010011 0
b110 .
1)
b10 '
b10 +
b10 4
#420000000000000
0)
#430000000000000
b11100100 "
b11100100 0
1!
b0 .
1)
b11 '
b11 +
b11 4
#440000000000000
0)
#450000000000000
0!
b0 "
b0 0
b0 &
b0 ,
b1 1
1)
1*
b100 4
#460000000000000
0)
#470000000000000
b10 /
b10000000000000000 &
b10000000000000000 ,
b10 .
1)
b1 '
b1 +
0*
#480000000000000
0)
#490000000000000
b100 /
b1010000000000000000 &
b1010000000000000000 ,
b100 .
1)
b1 5
#500000000000000
0)
#510000000000000
b110 /
b101010000000000000000 &
b101010000000000000000 ,
b110 .
1)
b10 5
#520000000000000
0)
#530000000000000
b1000 /
b10101010000000000000000 &
b10101010000000000000000 ,
b0 .
1)
b11 5
#540000000000000
0)
#550000000000000
b1010 /
b10101010000000100000000 &
b10101010000000100000000 ,
b10 .
1)
b100 5
#560000000000000
0)
#570000000000000
b1100 /
b10101010000010100000000 &
b10101010000010100000000 ,
b100 .
1)
b101 5
#580000000000000
0)
#590000000000000
b1110 /
b10101010001010100000000 &
b10101010001010100000000 ,
b110 .
1)
b110 5
#600000000000000
0)
#610000000000000
b10000 /
b10101010101010100000000 &
b10101010101010100000000 ,
b0 .
1)
b111 5
#620000000000000
0)
#630000000000000
b10010 /
b10101010101010100000001 &
b10101010101010100000001 ,
b10 .
1)
b1000 5
#640000000000000
0)
#650000000000000
b10100 /
b10101010101010100000101 &
b10101010101010100000101 ,
b100 .
1)
b1001 5
#660000000000000
0)
#670000000000000
b10110 /
b10101010101010100010101 &
b10101010101010100010101 ,
b110 .
1)
b1010 5
#680000000000000
0)
#690000000000000
b10 1
b0 /
1%
b10101010101010101010101 &
b10101010101010101010101 ,
b0 .
1)
b1011 5
#700000000000000
0)
#710000000000000
0%
b10 .
1)
b0 '
b0 +
b1100 5
#720000000000000
0)
#730000000000000
b1000000 "
b1000000 0
b100 .
1)
b1 '
b1 +
b1 6
#740000000000000
0)
#750000000000000
b10010000 "
b10010000 0
b110 .
1)
b10 '
b10 +
b10 6
#760000000000000
0)
#770000000000000
b11100100 "
b11100100 0
1!
b0 .
1)
b11 '
b11 +
b11 6
#780000000000000
0)
#790000000000000
b111001 "
b111001 0
0!
b10 .
1)
b0 '
b0 +
b100 6
#800000000000000
0)
#810000000000000
b1001110 "
b1001110 0
b100 .
1)
b1 '
b1 +
b101 6
#820000000000000
0)
#830000000000000
b10010011 "
b10010011 0
b110 .
1)
b10 '
b10 +
b110 6
#840000000000000
0)
#850000000000000
b0 .
b1 1
1)
0(
b111 6
#860000000000000
0)
#870000000000000
b10 /
b10101100101010101010101 &
b10101100101010101010101 ,
b10 .
1)
1(
#880000000000000
0)
#890000000000000
b100 /
b10110100101010101010101 &
b10110100101010101010101 ,
b100 .
1)
b1 7
#900000000000000
0)
#910000000000000
b110 /
b11010100101010101010101 &
b11010100101010101010101 ,
b110 .
1)
b10 7
#920000000000000
0)
#930000000000000
b1000 /
b101010100101010101010101 &
b101010100101010101010101 ,
b0 .
1)
b11 7
#940000000000000
0)
#950000000000000
b1010 /
b101010100101011001010101 &
b101010100101011001010101 ,
b10 .
1)
b100 7
#960000000000000
0)
#970000000000000
b1100 /
b101010100101101001010101 &
b101010100101101001010101 ,
b100 .
1)
b101 7
#980000000000000
0)
#990000000000000
b1110 /
b101010100110101001010101 &
b101010100110101001010101 ,
b110 .
1)
b110 7
#1000000000000000
0)
#1010000000000000
b10000 /
b101010101010101001010101 &
b101010101010101001010101 ,
b0 .
1)
b111 7
#1020000000000000
0)
#1030000000000000
b10010 /
b101010101010101001010110 &
b101010101010101001010110 ,
b10 .
1)
b1000 7
#1040000000000000
0)
#1050000000000000
b10100 /
b101010101010101001011010 &
b101010101010101001011010 ,
b100 .
1)
b1001 7
#1060000000000000
0)
#1070000000000000
b10110 /
b101010101010101001101010 &
b101010101010101001101010 ,
b110 .
1)
b1010 7
#1080000000000000
0)
#1090000000000000
b10 1
b0 /
1%
b101010101010101010101010 &
b101010101010101010101010 ,
b0 .
1)
b1011 7
#1100000000000000
0)
#1110000000000000
b100100 "
b100100 0
0%
b10 .
1)
b0 '
b0 +
b1100 7
#1120000000000000
0)
#1130000000000000
b1001001 "
b1001001 0
b100 .
1)
b1 '
b1 +
b1 8
#1140000000000000
0)
#1150000000000000
b10010010 "
b10010010 0
b110 .
1)
b10 '
b10 +
b10 8
#1160000000000000
0)
#1170000000000000
b11100100 "
b11100100 0
1!
b0 .
1)
b11 '
b11 +
b11 8
#1180000000000000
0)
#1190000000000000
b111001 "
b111001 0
0!
b10 .
1)
b0 '
b0 +
b100 8
#1200000000000000
0)
#1210000000000000
b1001110 "
b1001110 0
b100 .
1)
b1 '
b1 +
b101 8
#1220000000000000
0)
#1230000000000000
b10010011 "
b10010011 0
b110 .
1)
b10 '
b10 +
b110 8
#1240000000000000
0)
#1250000000000000
b11100100 "
b11100100 0
1!
b0 .
1)
b11 '
b11 +
b111 8
#1260000000000000
0)
#1270000000000000
b11111001 "
b11111001 0
0!
b10 .
1)
b1000 8
#1280000000000000
0)
#1290000000000000
b11111110 "
b11111110 0
b100 .
1)
#1300000000000000
0)
#1310000000000000
b11111111 "
b11111111 0
b110 .
1)
