EthernetTesting/obj/rbo_ethpack_tb.vcd
$date
	Thu Dec  1 18:32:26 2022
$end
$version
	Icarus Verilog
$end
$timescale
	1ps
$end
$scope module rbo_ethpack_tb $end
$var wire 1 ! stall $end
$var wire 1 " rbo_axiov $end
$var wire 2 # rbo_axiod [1:0] $end
$var wire 24 $ pixel_addr [23:0] $end
$var wire 1 % phy_txen $end
$var wire 2 & phy_txd [1:0] $end
$var reg 1 ' clk $end
$var reg 8 ( pixel [7:0] $end
$var reg 1 ) rst $end
$scope module eth_packer $end
$var wire 1 * cksum_calculated $end
$var wire 1 ' clk $end
$var wire 1 ) rst $end
$var wire 32 + cksum [31:0] $end
$var wire 1 " axiiv $end
$var wire 2 , axiid [1:0] $end
$var reg 9 - audio_counter [8:0] $end
$var reg 3 . byte_bit_counter [2:0] $end
$var reg 1 / cksum_axiiv $end
$var reg 1 0 crc32rst $end
$var reg 13 1 dibit_counter [12:0] $end
$var reg 2 2 phy_txd [1:0] $end
$var reg 1 % phy_txen $end
$var reg 1 ! stall $end
$var reg 4 3 state [3:0] $end
$scope module crc32 $end
$var wire 2 4 axiid [1:0] $end
$var wire 1 / axiiv $end
$var wire 32 5 axiod [31:0] $end
$var wire 1 * axiov $end
$var wire 1 ' clk $end
$var wire 1 0 rst $end
$var reg 32 6 caxiod [31:0] $end
$var reg 32 7 saxiod [31:0] $end
$var integer 32 8 i [31:0] $end
$upscope $end
$upscope $end
$scope module reverse_bit_order $end
$var wire 1 ' clk $end
$var wire 8 9 pixel [7:0] $end
$var wire 1 ) rst $end
$var wire 1 ! stall $end
$var reg 6 : addr_bit_counter [5:0] $end
$var reg 9 ; audio_counter [8:0] $end
$var reg 2 < axiod [1:0] $end
$var reg 1 " axiov $end
$var reg 4 = byte_bit_counter [3:0] $end
$var reg 24 > pixel_addr [23:0] $end
$var reg 9 ? pixel_counter [8:0] $end
$var reg 2 @ state [1:0] $end
$upscope $end
$scope begin $ivl_for_loop0 $end
$var integer 32 A i [31:0] $end
$upscope $end
$upscope $end
$enddefinitions $end
#0
$dumpvars
b0 A
bx @
bx ?
bx >
bx =
b0 <
bx ;
bx :
bx 9
b100000 8
bx 7
bx 6
bx 5
b0 4
bx 3
b0 2
bx 1
x0
0/
bx .
bx -
b0 ,
bx +
1*
0)
bx (
0'
b0 &
0%
bx $
b0 #
x"
1!
$end
#10000000000000
b0 ;
b0 ?
b1000 =
b0 :
0"
b0 @
1'
#20000000000000
0'
1)
#30000000000000
b0 1
10
b0 -
b0 .
b0 3
b0 $
b0 >
1'
#40000000000000
0'
b11111111 (
b11111111 9
0)
#50000000000000
b11110010101111001101100100100101 7
b100000 8
b0 +
b0 5
b11111111111111111111111111111111 6
b1 1
00
1'
#60000000000000
0'
#70000000000000
b10 1
1'
b1 A
#80000000000000
0'
#90000000000000
b11 1
1'
b10 A
#100000000000000
0'
#110000000000000
b100 1
1'
b11 A
#120000000000000
0'
#130000000000000
b101 1
1'
b100 A
#140000000000000
0'
#150000000000000
b110 1
1'
b101 A
#160000000000000
0'
#170000000000000
b111 1
1'
b110 A
#180000000000000
0'
#190000000000000
b1000 1
1'
b111 A
#200000000000000
0'
#210000000000000
b1001 1
1'
b1000 A
#220000000000000
0'
#230000000000000
b1010 1
1'
b1001 A
#240000000000000
0'
#250000000000000
b1011 1
1'
b1010 A
#260000000000000
0'
#270000000000000
b1100 1
1'
b1011 A
#280000000000000
0'
#290000000000000
b1101 1
1'
b1100 A
#300000000000000
0'
#310000000000000
b1110 1
1'
b1101 A
#320000000000000
0'
#330000000000000
b1111 1
1'
b1110 A
#340000000000000
0'
#350000000000000
b10000 1
1'
b1111 A
#360000000000000
0'
#370000000000000
b10001 1
1'
b10000 A
#380000000000000
0'
#390000000000000
b10010 1
1'
b10001 A
#400000000000000
0'
#410000000000000
b10011 1
1'
b10010 A
#420000000000000
0'
#430000000000000
b10100 1
1'
b10011 A
#440000000000000
0'
#450000000000000
b10101 1
1'
b10100 A
#460000000000000
0'
#470000000000000
b10110 1
1'
b10101 A
#480000000000000
0'
#490000000000000
b10111 1
1'
b10110 A
#500000000000000
0'
#510000000000000
b11000 1
1'
b10111 A
#520000000000000
0'
#530000000000000
b11001 1
1'
b11000 A
#540000000000000
0'
#550000000000000
b11010 1
1'
b11001 A
#560000000000000
0'
#570000000000000
b11011 1
1'
b11010 A
#580000000000000
0'
#590000000000000
b11100 1
1'
b11011 A
#600000000000000
0'
#610000000000000
b11101 1
1'
b11100 A
#620000000000000
0'
#630000000000000
b11110 1
1'
b11101 A
#640000000000000
0'
#650000000000000
b11111 1
1'
b11110 A
#660000000000000
0'
#670000000000000
b100000 1
1'
b11111 A
#680000000000000
0'
#690000000000000
b100001 1
1'
b100000 A
#700000000000000
0'
#710000000000000
b100010 1
1'
b100001 A
#720000000000000
0'
#730000000000000
b100011 1
1'
b100010 A
#740000000000000
0'
#750000000000000
b100100 1
1'
b100011 A
#760000000000000
0'
#770000000000000
b100101 1
1'
b100100 A
#780000000000000
0'
#790000000000000
b100110 1
1'
b100101 A
#800000000000000
0'
#810000000000000
b100111 1
1'
b100110 A
#820000000000000
0'
#830000000000000
b101000 1
1'
b100111 A
#840000000000000
0'
#850000000000000
b101001 1
1'
b101000 A
#860000000000000
0'
#870000000000000
b101010 1
1'
b101001 A
#880000000000000
0'
#890000000000000
b101011 1
1'
b101010 A
#900000000000000
0'
#910000000000000
b101100 1
1'
b101011 A
#920000000000000
0'
#930000000000000
b101101 1
1'
b101100 A
#940000000000000
0'
#950000000000000
b101110 1
1'
b101101 A
#960000000000000
0'
#970000000000000
b101111 1
1'
b101110 A
#980000000000000
0'
#990000000000000
b11111011001111101110001001001011 7
b100000 8
b1 &
b1 2
b1 4
b1 3
b0 1
1'
b101111 A
#1000000000000000
0'
#1010000000000000
1%
b1 1
1'
b110000 A
#1020000000000000
0'
#1030000000000000
b10 1
1'
b110001 A
#1040000000000000
0'
#1050000000000000
b11 1
1'
b110010 A
#1060000000000000
0'
#1070000000000000
b100 1
1'
b110011 A
#1080000000000000
0'
#1090000000000000
b101 1
1'
b110100 A
#1100000000000000
0'
#1110000000000000
b110 1
1'
b110101 A
#1120000000000000
0'
#1130000000000000
b111 1
1'
b110110 A
#1140000000000000
0'
#1150000000000000
b1000 1
1'
b110111 A
#1160000000000000
0'
#1170000000000000
b1001 1
1'
b111000 A
#1180000000000000
0'
#1190000000000000
b1010 1
1'
b111001 A
#1200000000000000
0'
#1210000000000000
b1011 1
1'
b111010 A
#1220000000000000
0'
#1230000000000000
b1100 1
1'
b111011 A
#1240000000000000
0'
#1250000000000000
b1101 1
1'
b111100 A
#1260000000000000
0'
#1270000000000000
b1110 1
1'
b111101 A
#1280000000000000
0'
#1290000000000000
b1111 1
1'
b111110 A
#1300000000000000
0'
#1310000000000000
b10000 1
1'
b111111 A
#1320000000000000
0'
#1330000000000000
b10001 1
1'
b1000000 A
#1340000000000000
0'
#1350000000000000
b10010 1
1'
b1000001 A
#1360000000000000
0'
#1370000000000000
b10011 1
1'
b1000010 A
#1380000000000000
0'
#1390000000000000
b10100 1
1'
b1000011 A
#1400000000000000
0'
#1410000000000000
b10101 1
1'
b1000100 A
#1420000000000000
0'
#1430000000000000
b10110 1
1'
b1000101 A
#1440000000000000
0'
#1450000000000000
b10111 1
1'
b1000110 A
#1460000000000000
0'
#1470000000000000
b11000 1
1'
b1000111 A
#1480000000000000
0'
#1490000000000000
b11001 1
1'
b1001000 A
#1500000000000000
0'
#1510000000000000
b11010 1
1'
b1001001 A
#1520000000000000
0'
#1530000000000000
b11111111111111111111111111111100 7
b100000 8
b11 &
b11 2
b11 4
b11011 1
1'
b1001010 A
#1540000000000000
0'
#1550000000000000
b11111011001111101110001001001011 7
b100000 8
b1 &
b1 2
b1 4
b10 3
b0 1
1'
b1001011 A
#1560000000000000
0'
#1570000000000000
b11111111111111111111111111111100 7
b100000 8
b11 &
b11 2
b11 4
b1 1
1'
b1001100 A
#1580000000000000
0'
#1590000000000000
b11111011001111101110001001001011 7
b100000 8
b1 &
b1 2
b1 4
b10 1
1'
b1001101 A
#1600000000000000
0'
#1610000000000000
b11 1
1'
b1001110 A
#1620000000000000
0'
#1630000000000000
b11111111111111111111111111111100 7
b100000 8
b11 &
b11 2
b11 4
1/
b11 3
b0 1
1'
b1001111 A
#1640000000000000
0'
#1650000000000000
b11111111111111111111111111110000 7
b100000 8
b11 +
b11 5
b11111111111111111111111111111100 6
b1 1
1'
b1010000 A
#1660000000000000
0'
#1670000000000000
b11111111111111111111111111000000 7
b100000 8
b1111 +
b1111 5
b10 1
b11111111111111111111111111110000 6
1'
b1010001 A
#1680000000000000
0'
#1690000000000000
b11111111111111111111111100000000 7
b100000 8
b111111 +
b111111 5
b11111111111111111111111111000000 6
b11 1
1'
b1010010 A
#1700000000000000
0'
#1710000000000000
b11111111111111111111110000000000 7
b100000 8
b11111111 +
b11111111 5
b100 1
b11111111111111111111111100000000 6
1'
b1010011 A
#1720000000000000
0'
#1730000000000000
b11111111111111111111000000000000 7
b100000 8
b1111111111 +
b1111111111 5
b11111111111111111111110000000000 6
b101 1
1'
b1010100 A
#1740000000000000
0'
#1750000000000000
b11111111111111111100000000000000 7
b100000 8
b111111111111 +
b111111111111 5
b110 1
b11111111111111111111000000000000 6
1'
b1010101 A
#1760000000000000
0'
#1770000000000000
b11111111111111110000000000000000 7
b100000 8
b11111111111111 +
b11111111111111 5
b11111111111111111100000000000000 6
b111 1
1'
b1010110 A
#1780000000000000
0'
#1790000000000000
b11111111111111000000000000000000 7
b100000 8
b1111111111111111 +
b1111111111111111 5
b1000 1
b11111111111111110000000000000000 6
1'
b1010111 A
#1800000000000000
0'
#1810000000000000
b11111111111100000000000000000000 7
b100000 8
b111111111111111111 +
b111111111111111111 5
b11111111111111000000000000000000 6
b1001 1
1'
b1011000 A
#1820000000000000
0'
#1830000000000000
b11111111110000000000000000000000 7
b100000 8
b11111111111111111111 +
b11111111111111111111 5
b1010 1
b11111111111100000000000000000000 6
1'
b1011001 A
#1840000000000000
0'
#1850000000000000
b11111111000000000000000000000000 7
b100000 8
b1111111111111111111111 +
b1111111111111111111111 5
b11111111110000000000000000000000 6
b1011 1
1'
b1011010 A
#1860000000000000
0'
#1870000000000000
b11111100000000000000000000000000 7
b100000 8
b111111111111111111111111 +
b111111111111111111111111 5
b1100 1
b11111111000000000000000000000000 6
1'
b1011011 A
#1880000000000000
0'
#1890000000000000
b11110000000000000000000000000000 7
b100000 8
b11111111111111111111111111 +
b11111111111111111111111111 5
b11111100000000000000000000000000 6
b1101 1
1'
b1011100 A
#1900000000000000
0'
#1910000000000000
b11000000000000000000000000000000 7
b100000 8
b1111111111111111111111111111 +
b1111111111111111111111111111 5
b1110 1
b11110000000000000000000000000000 6
1'
b1011101 A
#1920000000000000
0'
#1930000000000000
b0 7
b100000 8
b111111111111111111111111111111 +
b111111111111111111111111111111 5
b11000000000000000000000000000000 6
b1111 1
1'
b1011110 A
#1940000000000000
0'
#1950000000000000
b1101010000110010011011011001 7
b100000 8
b11111111111111111111111111111111 +
b11111111111111111111111111111111 5
b10000 1
b0 6
1'
b1011111 A
#1960000000000000
0'
#1970000000000000
b111000010011111011110110111101 7
b100000 8
b11110010101111001101100100100110 +
b11110010101111001101100100100110 5
b1101010000110010011011011001 6
b10001 1
1'
b1100000 A
#1980000000000000
0'
#1990000000000000
b11101100011111011101000000101101 7
b100000 8
b11000111101100000100001001000010 +
b11000111101100000100001001000010 5
b10010 1
b111000010011111011110110111101 6
1'
b1100001 A
#2000000000000000
0'
#2010000000000000
b10110001111101110100000010110100 7
b100000 8
b10011100000100010111111010010 +
b10011100000100010111111010010 5
b11101100011111011101000000101101 6
b10011 1
1'
b1100010 A
#2020000000000000
0'
#2030000000000000
b11000011000111000001111101100111 7
b100000 8
b1001110000010001011111101001011 +
b1001110000010001011111101001011 5
b10100 1
b10110001111101110100000010110100 6
1'
b1100011 A
#2040000000000000
0'
#2050000000000000
b1100011100000111110110011100 7
b100000 8
b111100111000111110000010011000 +
b111100111000111110000010011000 5
b11000011000111000001111101100111 6
b10101 1
1'
b1100100 A
#2060000000000000
0'
#2070000000000000
b111100100000101101000010101001 7
b100000 8
b11110011100011111000001001100011 +
b11110011100011111000001001100011 5
b10110 1
b1100011100000111110110011100 6
1'
b1100101 A
#2080000000000000
0'
#2090000000000000
b11111111010010000110010001111101 7
b100000 8
b11000011011111010010111101010110 +
b11000011011111010010111101010110 5
b111100100000101101000010101001 6
b10111 1
1'
b1100110 A
#2100000000000000
0'
#2110000000000000
b10 &
b10 2
b10 4
b11110100101000111010101010011010 7
b100000 8
b101101111001101110000010 +
b101101111001101110000010 5
b100 3
b0 1
b11111111010010000110010001111101 6
1'
b1100111 A
#2120000000000000
0'
#2130000000000000
b11011011000011001001000100000110 7
b100000 8
b1011010111000101010101100101 +
b1011010111000101010101100101 5
b11110100101000111010101010011010 6
b1 1
1'
b1101000 A
#2140000000000000
0'
#2150000000000000
b1100101101100000111111101110110 7
b100000 8
b100100111100110110111011111001 +
b100100111100110110111011111001 5
b10 1
b11011011000011001001000100000110 6
1'
b1101001 A
#2160000000000000
0'
#2170000000000000
b10010110110000011111110111011000 7
b100000 8
b10011010010011111000000010001001 +
b10011010010011111000000010001001 5
b1100101101100000111111101110110 6
b11 1
1'
b1101010 A
#2180000000000000
0'
#2190000000000000
b1010110010001001101000110111001 7
b100000 8
b1101001001111100000001000100111 +
b1101001001111100000001000100111 5
b100 1
b10010110110000011111110111011000 6
1'
b1101011 A
#2200000000000000
0'
#2210000000000000
b1011001000100110100011011100100 7
b100000 8
b10101001101110110010111001000110 +
b10101001101110110010111001000110 5
b1010110010001001101000110111001 6
b101 1
1'
b1101100 A
#2220000000000000
0'
#2230000000000000
b1100100010011010001101110010000 7
b100000 8
b10100110111011001011100100011011 +
b10100110111011001011100100011011 5
b110 1
b1011001000100110100011011100100 6
1'
b1101101 A
#2240000000000000
0'
#2250000000000000
b10010001001101000110111001000000 7
b100000 8
b10011011101100101110010001101111 +
b10011011101100101110010001101111 5
b1100100010011010001101110010000 6
b111 1
1'
b1101110 A
#2260000000000000
0'
#2270000000000000
b1001001100100101001111111011001 7
b100000 8
b1101110110010111001000110111111 +
b1101110110010111001000110111111 5
b1000 1
b10010001001101000110111001000000 6
1'
b1101111 A
#2280000000000000
0'
#2290000000000000
b100110010010100111111101100100 7
b100000 8
b10110110011011010110000000100110 +
b10110110011011010110000000100110 5
b1001001100100101001111111011001 6
b1001 1
1'
b1110000 A
#2300000000000000
0'
#2310000000000000
b10011101111010001110000000100111 7
b100000 8
b11011001101101011000000010011011 +
b11011001101101011000000010011011 5
b1010 1
b100110010010100111111101100100 6
1'
b1110001 A
#2320000000000000
0'
#2330000000000000
b1111010111000001010011001000101 7
b100000 8
b1100010000101110001111111011000 +
b1100010000101110001111111011000 5
b10011101111010001110000000100111 6
b1011 1
1'
b1110010 A
#2340000000000000
0'
#2350000000000000
b11101011100000101001100100010100 7
b100000 8
b10000101000111110101100110111010 +
b10000101000111110101100110111010 5
b1100 1
b1111010111000001010011001000101 6
1'
b1110011 A
#2360000000000000
0'
#2370000000000000
b10100111100010000101111100111110 7
b100000 8
b10100011111010110011011101011 +
b10100011111010110011011101011 5
b11101011100000101001100100010100 6
b1101 1
1'
b1110100 A
#2380000000000000
0'
#2390000000000000
b10010011011000100101101000100001 7
b100000 8
b1011000011101111010000011000001 +
b1011000011101111010000011000001 5
b1110 1
b10100111100010000101111100111110 6
1'
b1110101 A
#2400000000000000
0'
#2410000000000000
b1000000110010100100111001011101 7
b100000 8
b1101100100111011010010111011110 +
b1101100100111011010010111011110 5
b10010011011000100101101000100001 6
b1111 1
1'
b1110110 A
#2420000000000000
0'
#2430000000000000
b11001010010011100101110100 7
b100000 8
b10111111001101011011000110100010 +
b10111111001101011011000110100010 5
b10000 1
b1000000110010100100111001011101 6
1'
b1110111 A
#2440000000000000
0'
#2450000000000000
b1000011001011111100001100111 7
b100000 8
b11111100110101101100011010001011 +
b11111100110101101100011010001011 5
b11001010010011100101110100 6
b10001 1
1'
b1111000 A
#2460000000000000
0'
#2470000000000000
b100101010101101111110000101011 7
b100000 8
b11110111100110100000011110011000 +
b11110111100110100000011110011000 5
b10010 1
b1000011001011111100001100111 6
1'
b1111001 A
#2480000000000000
0'
#2490000000000000
b10010001100110101110110100011011 7
b100000 8
b11011010101010010000001111010100 +
b11011010101010010000001111010100 5
b100101010101101111110000101011 6
b10011 1
1'
b1111010 A
#2500000000000000
0'
#2510000000000000
b1001011001010001001001010110101 7
b100000 8
b1101110011001010001001011100100 +
b1101110011001010001001011100100 5
b10100 1
b10010001100110101110110100011011 6
1'
b1111011 A
#2520000000000000
0'
#2530000000000000
b101100101000100100101011010100 7
b100000 8
b10110100110101110110110101001010 +
b10110100110101110110110101001010 5
b1001011001010001001001010110101 6
b10101 1
1'
b1111100 A
#2540000000000000
0'
#2550000000000000
b10110110010010000011011011100111 7
b100000 8
b11010011010111011011010100101011 +
b11010011010111011011010100101011 5
b10110 1
b101100101000100100101011010100 6
1'
b1111101 A
#2560000000000000
0'
#2570000000000000
b11010100011000111111110101000101 7
b100000 8
b1001001101101111100100100011000 +
b1001001101101111100100100011000 5
b10110110010010000011011011100111 6
b10111 1
1'
b1111110 A
#2580000000000000
0'
#2590000000000000
b1011000000011011100111001111010 7
b100000 8
b101011100111000000001010111010 +
b101011100111000000001010111010 5
b101 3
b0 1
b11010100011000111111110101000101 6
1'
b1111111 A
#2600000000000000
0'
#2610000000000000
b1100000001101110011100111101000 7
b100000 8
b10100111111100100011000110000101 +
b10100111111100100011000110000101 5
b1011000000011011100111001111010 6
b1 1
1'
b10000000 A
#2620000000000000
0'
#2630000000000000
b10000000110111001110011110100000 7
b100000 8
b10011111110010001100011000010111 +
b10011111110010001100011000010111 5
b10 1
b1100000001101110011100111101000 6
1'
b10000001 A
#2640000000000000
0'
#2650000000000000
b111101100101000001100110111 7
b100000 8
b1111111001000110001100001011111 +
b1111111001000110001100001011111 5
b11 &
b11 2
b11 4
b10000000110111001110011110100000 6
b11 1
1'
b10000010 A
#2660000000000000
0'
#2670000000000000
b10011100010010010101000000101 7
b100000 8
b11111000010011010111110011001000 +
b11111000010011010111110011001000 5
b100 1
b111101100101000001100110111 6
1'
b10000011 A
#2680000000000000
0'
#2690000000000000
b1001110001001001010100000010100 7
b100000 8
b11101100011101101101010111111010 +
b11101100011101101101010111111010 5
b0 &
b0 2
b0 4
b10011100010010010101000000101 6
b101 1
1'
b10000100 A
#2700000000000000
0'
#2710000000000000
b11 &
b11 2
b11 4
b110001000100001001101100111110 7
b100000 8
b10110001110110110101011111101011 +
b10110001110110110101011111101011 5
b110 1
b1001110001001001010100000010100 6
1'
b10000101 A
#2720000000000000
0'
#2730000000000000
b11001101110000000101011110010110 7
b100000 8
b11001110111011110110010011000001 +
b11001110111011110110010011000001 5
0!
b1 &
b1 2
b1 4
b110001000100001001101100111110 6
b111 1
1'
b10000110 A
#2740000000000000
0'
#2750000000000000
b0 &
b0 2
b0 4
b111010010000100111100010000001 7
b100000 8
b110010001111111010100001101001 +
b110010001111111010100001101001 5
b110 3
b0 1
b11001101110000000101011110010110 6
b1 :
b0 =
1"
1'
b10000111 A
#2760000000000000
0'
#2770000000000000
b11101001000010011110001000000100 7
b100000 8
b11000101101111011000011101111110 +
b11000101101111011000011101111110 5
b10 :
b10 =
b111010010000100111100010000001 6
b1 1
1'
b10001000 A
#2780000000000000
0'
#2790000000000000
b10101001011001001010111011001001 7
b100000 8
b10110111101100001110111111011 +
b10110111101100001110111111011 5
b10 1
b11101001000010011110001000000100 6
b11 :
b100 =
1'
b10001001 A
#2800000000000000
0'
#2810000000000000
b10101100000100001000000001001010 7
b100000 8
b1010110100110110101000100110110 +
b1010110100110110101000100110110 5
b100 :
b110 =
b10101001011001001010111011001001 6
b11 1
1'
b10001010 A
#2820000000000000
0'
#2830000000000000
b10111001110000000011101001000110 7
b100000 8
b1010011111011110111111110110101 +
b1010011111011110111111110110101 5
b100 1
b10101100000100001000000001001010 6
b101 :
b0 =
1'
b10001011 A
#2840000000000000
0'
#2850000000000000
b11101110100000101101001001110110 7
b100000 8
b1000110001111111100010110111001 +
b1000110001111111100010110111001 5
b110 :
b10 =
b10111001110000000011101001000110 6
b101 1
1'
b10001100 A
#2860000000000000
0'
#2870000000000000
b10110111010010000110111100000001 7
b100000 8
b10001011111010010110110001001 +
b10001011111010010110110001001 5
b110 1
b11101110100000101101001001110110 6
b111 :
b100 =
1'
b10001101 A
#2880000000000000
0'
#2890000000000000
b11010100101000111000011101101010 7
b100000 8
b1001000101101111001000011111110 +
b1001000101101111001000011111110 5
b1000 :
b110 =
b10110111010010000110111100000001 6
b111 1
1'
b10001110 A
#2900000000000000
0'
#2910000000000000
b1011111110011010011101101110001 7
b100000 8
b101011010111000111100010010101 +
b101011010111000111100010010101 5
b1000 1
b11010100101000111000011101101010 6
b1001 :
b0 =
1'
b10001111 A
#2920000000000000
0'
#2930000000000000
b1111011111101011111000001110011 7
b100000 8
b10100000001100101100010010001110 +
b10100000001100101100010010001110 5
b1010 :
b10 =
b1011111110011010011101101110001 6
b1001 1
1'
b10010000 A
#2940000000000000
0'
#2950000000000000
b11101011000101101101110001111011 7
b100000 8
b10000100000010100000111110001100 +
b10000100000010100000111110001100 5
b1010 1
b1111011111101011111000001110011 6
b1011 :
b100 =
1'
b10010001 A
#2960000000000000
0'
#2970000000000000
b10100001000110000101011100110101 7
b100000 8
b10100111010010010001110000100 +
b10100111010010010001110000100 5
b1100 :
b110 =
b11101011000101101101110001111011 6
b1011 1
1'
b10010010 A
#2980000000000000
0'
#2990000000000000
b11 &
b11 2
b11 4
b10000000101000000100000101100011 7
b100000 8
b1011110111001111010100011001010 +
b1011110111001111010100011001010 5
b11 #
b11 ,
b11 <
b1100 1
b10100001000110000101011100110101 6
b1 @
b0 :
b0 =
1'
b10010011 A
#3000000000000000
0'
#3010000000000000
b110010000000001100000111011 7
b100000 8
b1111111010111111011111010011100 +
b1111111010111111011111010011100 5
b1 ?
b10 =
b10000000101000000100000101100011 6
b1101 1
1'
b10010100 A
#3020000000000000
0'
#3030000000000000
b10100010000110100011000110101 7
b100000 8
b11111001101111111110011111000100 +
b11111001101111111110011111000100 5
b1110 1
b110010000000001100000111011 6
b11 ?
b100 =
1'
b10010101 A
#3040000000000000
0'
#3050000000000000
b1011100010011100011111000001101 7
b100000 8
b11101011101111001011100111001010 +
b11101011101111001011100111001010 5
b101 ?
b110 =
b1 $
b1 >
b10100010000110100011000110101 6
b1111 1
1'
b10010110 A
#3060000000000000
0'
#3070000000000000
b1111000101110101100001101011010 7
b100000 8
b10100011101100011100000111110010 +
b10100011101100011100000111110010 5
b10000 1
b1011100010011100011111000001101 6
b111 ?
b0 =
1'
b10010111 A
#3080000000000000
0'
#3090000000000000
b11101011011010010011011000000110 7
b100000 8
b10000111010001010011110010100101 +
b10000111010001010011110010100101 5
b1 ?
b10 =
b1111000101110101100001101011010 6
b10001 1
1'
b10011000 A
#3100000000000000
0'
#3110000000000000
b10101101101001001101100000011000 7
b100000 8
b10100100101101100100111111001 +
b10100100101101100100111111001 5
b10010 1
b11101011011010010011011000000110 6
b11 ?
b100 =
1'
b10011001 A
#3120000000000000
0'
#3130000000000000
b10110010010100100111110111010111 7
b100000 8
b1010010010110110010011111100111 +
b1010010010110110010011111100111 5
b101 ?
b110 =
b10 $
b10 >
b10101101101001001101100000011000 6
b10011 1
1'
b10011010 A
#3140000000000000
0'
#3150000000000000
b11001101100010001110101011101011 7
b100000 8
b1001101101011011000001000101000 +
b1001101101011011000001000101000 5
b10100 1
b10110010010100100111110111010111 6
b111 ?
b0 =
1'
b10011011 A
#3160000000000000
0'
#3170000000000000
b110110001000111010101110101100 7
b100000 8
b110010011101110001010100010100 +
b110010011101110001010100010100 5
b1 ?
b10 =
b11001101100010001110101011101011 6
b10101 1
1'
b10011100 A
#3180000000000000
0'
#3190000000000000
b11010101110011011000100001101001 7
b100000 8
b11001001110111000101010001010011 +
b11001001110111000101010001010011 5
b10110 1
b110110001000111010101110101100 6
b11 ?
b100 =
1'
b10011101 A
#3200000000000000
0'
#3210000000000000
b1010111001101100010000110100100 7
b100000 8
b101010001100100111011110010110 +
b101010001100100111011110010110 5
b101 ?
b110 =
b11 $
b11 >
b11010101110011011000100001101001 6
b10111 1
1'
b10011110 A
#3220000000000000
0'
#3230000000000000
1!
b0 &
b0 2
b0 4
0/
b1011000000110011001101100100111 7
b100000 8
b10101000110010011101111001011011 +
b10101000110010011101111001011011 5
b111 3
b0 1
b1010111001101100010000110100100 6
b111 ?
b0 =
1'
b10011111 A
#3240000000000000
0'
#3250000000000000
b1011100110110001000011010010000 7
b100000 8
b0 #
b0 ,
b0 <
b10 &
b10 2
b10 4
b0 ?
b1000 =
0"
b0 @
b1 1
b10 .
1'
b10100000 A
#3260000000000000
0'
#3270000000000000
b10 1
b100 .
1'
b10100001 A
#3280000000000000
0'
#3290000000000000
b11 1
b110 .
1'
b10100010 A
#3300000000000000
0'
#3310000000000000
b1010001100110111010000001001001 7
b100000 8
b1 &
b1 2
b1 4
b100 1
b0 .
1'
b10100011 A
#3320000000000000
0'
#3330000000000000
b1011100110110001000011010010000 7
b100000 8
b10 &
b10 2
b10 4
b101 1
b10 .
1'
b10100100 A
#3340000000000000
0'
#3350000000000000
b1011000000110011001101100100111 7
b100000 8
b0 &
b0 2
b0 4
b110 1
b100 .
1'
b10100101 A
#3360000000000000
0'
#3370000000000000
b1010101010110101011110111111110 7
b100000 8
b11 &
b11 2
b11 4
b111 1
b110 .
1'
b10100110 A
#3380000000000000
0'
#3390000000000000
b1011100110110001000011010010000 7
b100000 8
b10 &
b10 2
b10 4
b1000 1
b0 .
1'
b10100111 A
#3400000000000000
0'
#3410000000000000
b1010101010110101011110111111110 7
b100000 8
b11 &
b11 2
b11 4
b1001 1
b10 .
1'
b10101000 A
#3420000000000000
0'
#3430000000000000
b1010001100110111010000001001001 7
b100000 8
b1 &
b1 2
b1 4
b1010 1
b100 .
1'
b10101001 A
#3440000000000000
0'
#3450000000000000
b1010101010110101011110111111110 7
b100000 8
b11 &
b11 2
b11 4
b1011 1
b110 .
1'
b10101010 A
#3460000000000000
0'
#3470000000000000
b1100 1
b0 .
1'
b10101011 A
#3480000000000000
0'
#3490000000000000
b1011100110110001000011010010000 7
b100000 8
b10 &
b10 2
b10 4
b1101 1
b10 .
1'
b10101100 A
#3500000000000000
0'
#3510000000000000
b1010001100110111010000001001001 7
b100000 8
b1 &
b1 2
b1 4
b1110 1
b100 .
1'
b10101101 A
#3520000000000000
0'
#3530000000000000
b1111 1
b110 .
1'
b10101110 A
#3540000000000000
0'
#3550000000000000
b1011000000110011001101100100111 7
b100000 8
b0 &
b0 2
b0 4
0%
10
b0 3
b0 1
b0 .
1'
b10101111 A
#3560000000000000
0'
#3570000000000000
b11110010101111001101100100100101 7
b100000 8
b0 +
b0 5
b11111111111111111111111111111111 6
b1 1
00
1'
b10110000 A
#3580000000000000
0'
#3590000000000000
b10 1
1'
b10110001 A
#3600000000000000
0'
#3610000000000000
b11 1
1'
b10110010 A
#3620000000000000
0'
#3630000000000000
b100 1
1'
b10110011 A
#3640000000000000
0'
#3650000000000000
b101 1
1'
b10110100 A
#3660000000000000
0'
#3670000000000000
b110 1
1'
b10110101 A
#3680000000000000
0'
#3690000000000000
b111 1
1'
b10110110 A
#3700000000000000
0'
#3710000000000000
b1000 1
1'
b10110111 A
#3720000000000000
0'
#3730000000000000
b1001 1
1'
b10111000 A
#3740000000000000
0'
#3750000000000000
b1010 1
1'
b10111001 A
#3760000000000000
0'
#3770000000000000
b1011 1
1'
b10111010 A
#3780000000000000
0'
#3790000000000000
b1100 1
1'
b10111011 A
#3800000000000000
0'
#3810000000000000
b1101 1
1'
b10111100 A
#3820000000000000
0'
#3830000000000000
b1110 1
1'
b10111101 A
#3840000000000000
0'
#3850000000000000
b1111 1
1'
b10111110 A
#3860000000000000
0'
#3870000000000000
b10000 1
1'
b10111111 A
#3880000000000000
0'
#3890000000000000
b10001 1
1'
b11000000 A
#3900000000000000
0'
#3910000000000000
b10010 1
1'
b11000001 A
#3920000000000000
0'
#3930000000000000
b10011 1
1'
b11000010 A
#3940000000000000
0'
#3950000000000000
b10100 1
1'
b11000011 A
#3960000000000000
0'
#3970000000000000
b10101 1
1'
b11000100 A
#3980000000000000
0'
#3990000000000000
b10110 1
1'
b11000101 A
#4000000000000000
0'
#4010000000000000
b10111 1
1'
b11000110 A
#4020000000000000
0'
#4030000000000000
b11000 1
1'
b11000111 A
#4040000000000000
0'
#4050000000000000
b11001 1
1'
b11001000 A
#4060000000000000
0'
#4070000000000000
b11010 1
1'
b11001001 A
#4080000000000000
0'
#4090000000000000
b11011 1
1'
b11001010 A
#4100000000000000
0'
#4110000000000000
b11100 1
1'
b11001011 A
#4120000000000000
0'
#4130000000000000
b11101 1
1'
b11001100 A
#4140000000000000
0'
#4150000000000000
b11110 1
1'
b11001101 A
#4160000000000000
0'
#4170000000000000
b11111 1
1'
b11001110 A
#4180000000000000
0'
#4190000000000000
b100000 1
1'
b11001111 A
#4200000000000000
0'
#4210000000000000
b100001 1
1'
b11010000 A
#4220000000000000
0'
#4230000000000000
b100010 1
1'
b11010001 A
#4240000000000000
0'
#4250000000000000
b100011 1
1'
b11010010 A
#4260000000000000
0'
#4270000000000000
b100100 1
1'
b11010011 A
#4280000000000000
0'
#4290000000000000
b100101 1
1'
b11010100 A
#4300000000000000
0'
#4310000000000000
b100110 1
1'
b11010101 A
#4320000000000000
0'
#4330000000000000
b100111 1
1'
b11010110 A
#4340000000000000
0'
