EthernetTesting/obj/rbo_ethpack_tb.vcd
$date
	Thu Dec  1 16:50:15 2022
$end
$version
	Icarus Verilog
$end
$timescale
	1ps
$end
$scope module rbo_ethpack_tb $end
$var wire 1 ! stall $end
$var wire 1 " rbo_axiov $end
$var wire 2 # rbo_axiod [1:0] $end
$var wire 24 $ pixel_addr [23:0] $end
$var wire 1 % phy_txen $end
$var wire 2 & phy_txd [1:0] $end
$var reg 1 ' clk $end
$var reg 8 ( pixel [7:0] $end
$var reg 1 ) rst $end
$scope module eth_packer $end
$var wire 1 * cksum_calculated $end
$var wire 1 ' clk $end
$var wire 1 ) rst $end
$var wire 32 + cksum [31:0] $end
$var wire 1 " axiiv $end
$var wire 2 , axiid [1:0] $end
$var reg 9 - audio_counter [8:0] $end
$var reg 3 . byte_bit_counter [2:0] $end
$var reg 1 / cksum_axiiv $end
$var reg 1 0 crc32rst $end
$var reg 13 1 dibit_counter [12:0] $end
$var reg 2 2 phy_txd [1:0] $end
$var reg 1 % phy_txen $end
$var reg 1 ! stall $end
$var reg 4 3 state [3:0] $end
$scope module crc32 $end
$var wire 2 4 axiid [1:0] $end
$var wire 1 / axiiv $end
$var wire 32 5 axiod [31:0] $end
$var wire 1 * axiov $end
$var wire 1 ' clk $end
$var wire 1 0 rst $end
$var reg 32 6 caxiod [31:0] $end
$var reg 32 7 saxiod [31:0] $end
$var integer 32 8 i [31:0] $end
$upscope $end
$upscope $end
$scope module reverse_bit_order $end
$var wire 1 ' clk $end
$var wire 8 9 pixel [7:0] $end
$var wire 1 ) rst $end
$var wire 1 ! stall $end
$var reg 6 : addr_bit_counter [5:0] $end
$var reg 9 ; audio_counter [8:0] $end
$var reg 2 < axiod [1:0] $end
$var reg 1 " axiov $end
$var reg 4 = byte_bit_counter [3:0] $end
$var reg 24 > pixel_addr [23:0] $end
$var reg 9 ? pixel_counter [8:0] $end
$var reg 2 @ state [1:0] $end
$upscope $end
$scope begin $ivl_for_loop0 $end
$var integer 32 A i [31:0] $end
$upscope $end
$upscope $end
$enddefinitions $end
#0
$dumpvars
b0 A
bx @
bx ?
bx >
bx =
b0 <
bx ;
bx :
bx 9
b100000 8
bx 7
bx 6
bx 5
b0 4
bx 3
b0 2
bx 1
x0
0/
bx .
bx -
b0 ,
bx +
1*
0)
bx (
0'
b0 &
0%
bx $
b0 #
x"
1!
$end
#10000000000000
b0 ;
b0 ?
b1000 =
b0 :
0"
b0 @
1'
#20000000000000
0'
1)
#30000000000000
b0 1
10
b0 -
b0 .
b0 3
b0 $
b0 >
1'
#40000000000000
0'
b11111111 (
b11111111 9
0)
#50000000000000
b11110010101111001101100100100101 7
b100000 8
b0 +
b0 5
b11111111111111111111111111111111 6
b1 1
00
1'
#60000000000000
0'
#70000000000000
b10 1
1'
b1 A
#80000000000000
0'
#90000000000000
b11 1
1'
b10 A
#100000000000000
0'
#110000000000000
b100 1
1'
b11 A
#120000000000000
0'
#130000000000000
b101 1
1'
b100 A
#140000000000000
0'
#150000000000000
b110 1
1'
b101 A
#160000000000000
0'
#170000000000000
b111 1
1'
b110 A
#180000000000000
0'
#190000000000000
b1000 1
1'
b111 A
#200000000000000
0'
#210000000000000
b1001 1
1'
b1000 A
#220000000000000
0'
#230000000000000
b1010 1
1'
b1001 A
#240000000000000
0'
#250000000000000
b1011 1
1'
b1010 A
#260000000000000
0'
#270000000000000
b1100 1
1'
b1011 A
#280000000000000
0'
#290000000000000
b1101 1
1'
b1100 A
#300000000000000
0'
#310000000000000
b1110 1
1'
b1101 A
#320000000000000
0'
#330000000000000
b1111 1
1'
b1110 A
#340000000000000
0'
#350000000000000
b10000 1
1'
b1111 A
#360000000000000
0'
#370000000000000
b10001 1
1'
b10000 A
#380000000000000
0'
#390000000000000
b10010 1
1'
b10001 A
#400000000000000
0'
#410000000000000
b10011 1
1'
b10010 A
#420000000000000
0'
#430000000000000
b10100 1
1'
b10011 A
#440000000000000
0'
#450000000000000
b10101 1
1'
b10100 A
#460000000000000
0'
#470000000000000
b10110 1
1'
b10101 A
#480000000000000
0'
#490000000000000
b10111 1
1'
b10110 A
#500000000000000
0'
#510000000000000
b11000 1
1'
b10111 A
#520000000000000
0'
#530000000000000
b11001 1
1'
b11000 A
#540000000000000
0'
#550000000000000
b11010 1
1'
b11001 A
#560000000000000
0'
#570000000000000
b11011 1
1'
b11010 A
#580000000000000
0'
#590000000000000
b11100 1
1'
b11011 A
#600000000000000
0'
#610000000000000
b11101 1
1'
b11100 A
#620000000000000
0'
#630000000000000
b11110 1
1'
b11101 A
#640000000000000
0'
#650000000000000
b11111 1
1'
b11110 A
#660000000000000
0'
#670000000000000
b100000 1
1'
b11111 A
#680000000000000
0'
#690000000000000
b100001 1
1'
b100000 A
#700000000000000
0'
#710000000000000
b100010 1
1'
b100001 A
#720000000000000
0'
#730000000000000
b100011 1
1'
b100010 A
#740000000000000
0'
#750000000000000
b100100 1
1'
b100011 A
#760000000000000
0'
#770000000000000
b100101 1
1'
b100100 A
#780000000000000
0'
#790000000000000
b100110 1
1'
b100101 A
#800000000000000
0'
#810000000000000
b100111 1
1'
b100110 A
#820000000000000
0'
#830000000000000
b101000 1
1'
b100111 A
#840000000000000
0'
#850000000000000
b101001 1
1'
b101000 A
#860000000000000
0'
#870000000000000
b101010 1
1'
b101001 A
#880000000000000
0'
#890000000000000
b101011 1
1'
b101010 A
#900000000000000
0'
#910000000000000
b101100 1
1'
b101011 A
#920000000000000
0'
#930000000000000
b101101 1
1'
b101100 A
#940000000000000
0'
#950000000000000
b101110 1
1'
b101101 A
#960000000000000
0'
#970000000000000
b101111 1
1'
b101110 A
#980000000000000
0'
#990000000000000
b11111011001111101110001001001011 7
b100000 8
b1 &
b1 2
b1 4
b1 3
b0 1
1'
b101111 A
#1000000000000000
0'
#1010000000000000
1%
b1 1
1'
b110000 A
#1020000000000000
0'
#1030000000000000
b10 1
1'
b110001 A
#1040000000000000
0'
#1050000000000000
b11 1
1'
b110010 A
#1060000000000000
0'
#1070000000000000
b100 1
1'
b110011 A
#1080000000000000
0'
#1090000000000000
b101 1
1'
b110100 A
#1100000000000000
0'
#1110000000000000
b110 1
1'
b110101 A
#1120000000000000
0'
#1130000000000000
b111 1
1'
b110110 A
#1140000000000000
0'
#1150000000000000
b1000 1
1'
b110111 A
#1160000000000000
0'
#1170000000000000
b1001 1
1'
b111000 A
#1180000000000000
0'
#1190000000000000
b1010 1
1'
b111001 A
#1200000000000000
0'
#1210000000000000
b1011 1
1'
b111010 A
#1220000000000000
0'
#1230000000000000
b1100 1
1'
b111011 A
#1240000000000000
0'
#1250000000000000
b1101 1
1'
b111100 A
#1260000000000000
0'
#1270000000000000
b1110 1
1'
b111101 A
#1280000000000000
0'
#1290000000000000
b1111 1
1'
b111110 A
#1300000000000000
0'
#1310000000000000
b10000 1
1'
b111111 A
#1320000000000000
0'
#1330000000000000
b10001 1
1'
b1000000 A
#1340000000000000
0'
#1350000000000000
b10010 1
1'
b1000001 A
#1360000000000000
0'
#1370000000000000
b10011 1
1'
b1000010 A
#1380000000000000
0'
#1390000000000000
b10100 1
1'
b1000011 A
#1400000000000000
0'
#1410000000000000
b10101 1
1'
b1000100 A
#1420000000000000
0'
#1430000000000000
b10110 1
1'
b1000101 A
#1440000000000000
0'
#1450000000000000
b10111 1
1'
b1000110 A
#1460000000000000
0'
#1470000000000000
b11000 1
1'
b1000111 A
#1480000000000000
0'
#1490000000000000
b11001 1
1'
b1001000 A
#1500000000000000
0'
#1510000000000000
b11010 1
1'
b1001001 A
#1520000000000000
0'
#1530000000000000
b11111111111111111111111111111100 7
b100000 8
b11 &
b11 2
b11 4
b11011 1
1'
b1001010 A
#1540000000000000
0'
#1550000000000000
b11111011001111101110001001001011 7
b100000 8
b1 &
b1 2
b1 4
1/
b10 3
b0 1
1'
b1001011 A
#1560000000000000
0'
#1570000000000000
b11101100111110111000100100101100 7
b100000 8
b100110000010001110110110100 +
b100110000010001110110110100 5
b11 &
b11 2
b11 4
b11111011001111101110001001001011 6
b1 1
1'
b1001100 A
#1580000000000000
0'
#1590000000000000
b1 &
b1 2
b1 4
b10110111001011110011100100000111 7
b100000 8
b10011000001000111011011010011 +
b10011000001000111011011010011 5
b10 1
b11101100111110111000100100101100 6
1'
b1001101 A
#1600000000000000
0'
#1610000000000000
b11011100101111001110010000011100 7
b100000 8
b1001000110100001100011011111000 +
b1001000110100001100011011111000 5
b10110111001011110011100100000111 6
b11 1
1'
b1001110 A
#1620000000000000
0'
#1630000000000000
b11 &
b11 2
b11 4
b1110010111100111001000001110000 7
b100000 8
b100011010000110001101111100011 +
b100011010000110001101111100011 5
b11 3
b0 1
b11011100101111001110010000011100 6
1'
b1001111 A
#1640000000000000
0'
#1650000000000000
b11000010010011000111101010101110 7
b100000 8
b10001101000011000110111110001111 +
b10001101000011000110111110001111 5
b1110010111100111001000001110000 6
b1 1
1'
b1010000 A
#1660000000000000
0'
#1670000000000000
b1001001100011110101010111000 7
b100000 8
b111101101100111000010101010001 +
b111101101100111000010101010001 5
b10 1
b11000010010011000111101010101110 6
1'
b1010001 A
#1680000000000000
0'
#1690000000000000
b101001100001001000110000111001 7
b100000 8
b11110110110011100001010101000111 +
b11110110110011100001010101000111 5
b1001001100011110101010111000 6
b11 1
1'
b1010010 A
#1700000000000000
0'
#1710000000000000
b10101011010100010001011000111101 7
b100000 8
b11010110011110110111001111000110 +
b11010110011110110111001111000110 5
b100 1
b101001100001001000110000111001 6
1'
b1010011 A
#1720000000000000
0'
#1730000000000000
b10101001100001010100010101000011 7
b100000 8
b1010100101011101110100111000010 +
b1010100101011101110100111000010 5
b10101011010100010001011000111101 6
b101 1
1'
b1010100 A
#1740000000000000
0'
#1750000000000000
b10100010110101000000100010111011 7
b100000 8
b1010110011110101011101010111100 +
b1010110011110101011101010111100 5
b110 1
b10101001100001010100010101000011 6
1'
b1010101 A
#1760000000000000
0'
#1770000000000000
b10001111100100010011111101011011 7
b100000 8
b1011101001010111111011101000100 +
b1011101001010111111011101000100 5
b10100010110101000000100010111011 6
b111 1
1'
b1010110 A
#1780000000000000
0'
#1790000000000000
b111010100001011110000011011011 7
b100000 8
b1110000011011101100000010100100 +
b1110000011011101100000010100100 5
b1000 1
b10001111100100010011111101011011 6
1'
b1010111 A
#1800000000000000
0'
#1810000000000000
b11100111010101001010010110110101 7
b100000 8
b11000101011110100001111100100100 +
b11000101011110100001111100100100 5
b111010100001011110000011011011 6
b1001 1
1'
b1011000 A
#1820000000000000
0'
#1830000000000000
b10011101010100101001011011010100 7
b100000 8
b11000101010110101101001001010 +
b11000101010110101101001001010 5
b1010 1
b11100111010101001010010110110101 6
1'
b1011001 A
#1840000000000000
0'
#1850000000000000
b1110001100010110100011011100111 7
b100000 8
b1100010101011010110100100101011 +
b1100010101011010110100100101011 5
b10011101010100101001011011010100 6
b1011 1
1'
b1011010 A
#1860000000000000
0'
#1870000000000000
b11001111101011110010000011110010 7
b100000 8
b10001110011101001011100100011000 +
b10001110011101001011100100011000 5
b1100 1
b1110001100010110100011011100111 6
1'
b1011011 A
#1880000000000000
0'
#1890000000000000
b111110101111001000001111001000 7
b100000 8
b110000010100001101111100001101 +
b110000010100001101111100001101 5
b11001111101011110010000011110010 6
b1101 1
1'
b1011100 A
#1900000000000000
0'
#1910000000000000
b11110111101100010010100111111001 7
b100000 8
b11000001010000110111110000110111 +
b11000001010000110111110000110111 5
b1110 1
b111110101111001000001111001000 6
1'
b1011101 A
#1920000000000000
0'
#1930000000000000
b11011110110001001010011111100100 7
b100000 8
b1000010011101101011000000110 +
b1000010011101101011000000110 5
b11110111101100010010100111111001 6
b1111 1
1'
b1011110 A
#1940000000000000
0'
#1950000000000000
b1111011000100101001111110010000 7
b100000 8
b100001001110110101100000011011 +
b100001001110110101100000011011 5
b10000 1
b11011110110001001010011111100100 6
1'
b1011111 A
#1960000000000000
0'
#1970000000000000
b11100101110010000100010100101110 7
b100000 8
b10000100111011010110000001101111 +
b10000100111011010110000001101111 5
b1111011000100101001111110010000 6
b10001 1
1'
b1100000 A
#1980000000000000
0'
#1990000000000000
b10010111001000010001010010111000 7
b100000 8
b11010001101111011101011010001 +
b11010001101111011101011010001 5
b10010 1
b11100101110010000100010100101110 6
1'
b1100001 A
#2000000000000000
0'
#2010000000000000
b1011000010001010100111101010111 7
b100000 8
b1101000110111101110101101000111 +
b1101000110111101110101101000111 5
b10010111001000010001010010111000 6
b10011 1
1'
b1100010 A
#2020000000000000
0'
#2030000000000000
b1101000100101110000011000110010 7
b100000 8
b10100111101110101011000010101000 +
b10100111101110101011000010101000 5
b10100 1
b1011000010001010100111101010111 6
1'
b1100011 A
#2040000000000000
0'
#2050000000000000
b10101011110111100010001110100110 7
b100000 8
b10010111011010001111100111001101 +
b10010111011010001111100111001101 5
b1101000100101110000011000110010 6
b10101 1
1'
b1100100 A
#2060000000000000
0'
#2070000000000000
b10101011101110011001001100101111 7
b100000 8
b1010100001000011101110001011001 +
b1010100001000011101110001011001 5
b10110 1
b10101011110111100010001110100110 6
1'
b1100101 A
#2080000000000000
0'
#2090000000000000
b10101010001001110101000100001011 7
b100000 8
b1010100010001100110110011010000 +
b1010100010001100110110011010000 5
b10101011101110011001001100101111 6
b10111 1
1'
b1100110 A
#2100000000000000
0'
#2110000000000000
b10 &
b10 2
b10 4
b10100101110111100110001011110101 7
b100000 8
b1010101110110001010111011110100 +
b1010101110110001010111011110100 5
b100 3
b0 1
b10101010001001110101000100001011 6
1'
b1100111 A
#2120000000000000
0'
#2130000000000000
b10011010001110101010110100001101 7
b100000 8
b1011010001000011001110100001010 +
b1011010001000011001110100001010 5
b10100101110111100110001011110101 6
b1 1
1'
b1101000 A
#2140000000000000
0'
#2150000000000000
b1100101101010011001001011101101 7
b100000 8
b1100101110001010101001011110010 +
b1100101110001010101001011110010 5
b10 1
b10011010001110101010110100001101 6
1'
b1101001 A
#2160000000000000
0'
#2170000000000000
b10010110101001100100101110110100 7
b100000 8
b10011010010101100110110100010010 +
b10011010010101100110110100010010 5
b1100101101010011001001011101101 6
b11 1
1'
b1101010 A
#2180000000000000
0'
#2190000000000000
b1010111110110100000100000001001 7
b100000 8
b1101001010110011011010001001011 +
b1101001010110011011010001001011 5
b100 1
b10010110101001100100101110110100 6
1'
b1101011 A
#2200000000000000
0'
#2210000000000000
b1011111011010000010000000100100 7
b100000 8
b10101000001001011111011111110110 +
b10101000001001011111011111110110 5
b1010111110110100000100000001001 6
b101 1
1'
b1101100 A
#2220000000000000
0'
#2230000000000000
b1111101101000001000000010010000 7
b100000 8
b10100000100101111101111111011011 +
b10100000100101111101111111011011 5
b110 1
b1011111011010000010000000100100 6
1'
b1101101 A
#2240000000000000
0'
#2250000000000000
b11110110100000100000001001000000 7
b100000 8
b10000010010111110111111101101111 +
b10000010010111110111111101101111 5
b1111101101000001000000010010000 6
b111 1
1'
b1101110 A
#2260000000000000
0'
#2270000000000000
b11010011100010100011001001101110 7
b100000 8
b1001011111011111110110111111 +
b1001011111011111110110111111 5
b1000 1
b11110110100000100000001001000000 6
1'
b1101111 A
#2280000000000000
0'
#2290000000000000
b1000111101010101111001011010110 7
b100000 8
b101100011101011100110110010001 +
b101100011101011100110110010001 5
b11010011100010100011001001101110 6
b1001 1
1'
b1110000 A
#2300000000000000
0'
#2310000000000000
b11110101010111100101101011000 7
b100000 8
b10111000010101010000110100101001 +
b10111000010101010000110100101001 5
b1010 1
b1000111101010101111001011010110 6
1'
b1110001 A
#2320000000000000
0'
#2330000000000000
b1111110011011100011000011010111 7
b100000 8
b11100001010101000011010010100111 +
b11100001010101000011010010100111 5
b11110101010111100101101011000 6
b1011 1
1'
b1110010 A
#2340000000000000
0'
#2350000000000000
b11111001101110001100001101011100 7
b100000 8
b10000001100100011100111100101000 +
b10000001100100011100111100101000 5
b1100 1
b1111110011011100011000011010111 6
1'
b1110011 A
#2360000000000000
0'
#2370000000000000
b11101111011000010011011000011110 7
b100000 8
b110010001110011110010100011 +
b110010001110011110010100011 5
b11111001101110001100001101011100 6
b1101 1
1'
b1110100 A
#2380000000000000
0'
#2390000000000000
b10110100000001101110001100010110 7
b100000 8
b10000100111101100100111100001 +
b10000100111101100100111100001 5
b1110 1
b11101111011000010011011000011110 6
1'
b1110101 A
#2400000000000000
0'
#2410000000000000
b11011101010110001010101010000001 7
b100000 8
b1001011111110010001110011101001 +
b1001011111110010001110011101001 5
b10110100000001101110001100010110 6
b1111 1
1'
b1110110 A
#2420000000000000
0'
#2430000000000000
b1111100111000001001000101101010 7
b100000 8
b100010101001110101010101111110 +
b100010101001110101010101111110 5
b10000 1
b11011101010110001010101010000001 6
1'
b1110111 A
#2440000000000000
0'
#2450000000000000
b11110011100000100100010110101000 7
b100000 8
b10000011000111110110111010010101 +
b10000011000111110110111010010101 5
b1111100111000001001000101101010 6
b10001 1
1'
b1111000 A
#2460000000000000
0'
#2470000000000000
b11000111100010110010110111001110 7
b100000 8
b1100011111011011101001010111 +
b1100011111011011101001010111 5
b10010 1
b11110011100000100100010110101000 6
1'
b1111001 A
#2480000000000000
0'
#2490000000000000
b10111101011101000110001010110 7
b100000 8
b111000011101001101001000110001 +
b111000011101001101001000110001 5
b11000111100010110010110111001110 6
b10011 1
1'
b1111010 A
#2500000000000000
0'
#2510000000000000
b1011010011110110010110011101111 7
b100000 8
b11101000010100010111001110101001 +
b11101000010100010111001110101001 5
b10100 1
b10111101011101000110001010110 6
1'
b1111011 A
#2520000000000000
0'
#2530000000000000
b1101001111011001011001110111100 7
b100000 8
b10100101100001001101001100010000 +
b10100101100001001101001100010000 5
b1011010011110110010110011101111 6
b10101 1
1'
b1111100 A
#2540000000000000
0'
#2550000000000000
b10100111101100101100111011110000 7
b100000 8
b10010110000100110100110001000011 +
b10010110000100110100110001000011 5
b10110 1
b1101001111011001011001110111100 6
1'
b1111101 A
#2560000000000000
0'
#2570000000000000
b10010011100010000001110100011001 7
b100000 8
b1011000010011010011000100001111 +
b1011000010011010011000100001111 5
b10100111101100101100111011110000 6
b10111 1
1'
b1111110 A
#2580000000000000
0'
#2590000000000000
b1 &
b1 2
b1 4
b1001110001000000111010001100100 7
b100000 8
b1101100011101111110001011100110 +
b1101100011101111110001011100110 5
b101 3
b0 1
b10010011100010000001110100011001 6
1'
b1111111 A
#2600000000000000
0'
#2610000000000000
b110101110000101111011101001001 7
b100000 8
b10110001110111111000101110011011 +
b10110001110111111000101110011011 5
b1001110001000000111010001100100 6
b1 1
1'
b10000000 A
#2620000000000000
0'
#2630000000000000
b11011110100010011110011001001010 7
b100000 8
b11001010001111010000100010110110 +
b11001010001111010000100010110110 5
b10 1
b110101110000101111011101001001 6
1'
b10000001 A
#2640000000000000
0'
#2650000000000000
b1111110111001101000010010011111 7
b100000 8
b100001011101100001100110110101 +
b100001011101100001100110110101 5
b11011110100010011110011001001010 6
b11 1
1'
b10000010 A
#2660000000000000
0'
#2670000000000000
b11110110110110010011010010100101 7
b100000 8
b10000001000110010111101101100000 +
b10000001000110010111101101100000 5
b100 1
b1111110111001101000010010011111 6
1'
b10000011 A
#2680000000000000
0'
#2690000000000000
b11011111101001011100111100100011 7
b100000 8
b1001001001101100101101011010 +
b1001001001101100101101011010 5
b11110110110110010011010010100101 6
b101 1
1'
b10000100 A
#2700000000000000
0'
#2710000000000000
b1111010010101100010000100111011 7
b100000 8
b100000010110100011000011011100 +
b100000010110100011000011011100 5
b110 1
b11011111101001011100111100100011 6
1'
b10000101 A
#2720000000000000
0'
#2730000000000000
b11100100000110111010001000110101 7
b100000 8
b10000101101010011101111011000100 +
b10000101101010011101111011000100 5
b1111010010101100010000100111011 6
b111 1
1'
b10000110 A
#2740000000000000
0'
#2750000000000000
0!
b0 &
b0 2
b0 4
0/
b10011101001011011010111000001101 7
b100000 8
b11011111001000101110111001010 +
b11011111001000101110111001010 5
b110 3
b0 1
b11100100000110111010001000110101 6
1'
b10000111 A
#2760000000000000
0'
#2770000000000000
b1 :
b0 =
1"
b1 1
1'
b10001000 A
#2780000000000000
0'
#2790000000000000
b10 1
b10 :
b10 =
1'
b10001001 A
#2800000000000000
0'
#2810000000000000
b11 :
b100 =
b11 1
1'
b10001010 A
#2820000000000000
0'
#2830000000000000
b100 1
b100 :
b110 =
1'
b10001011 A
#2840000000000000
0'
#2850000000000000
b101 :
b0 =
b101 1
1'
b10001100 A
#2860000000000000
0'
#2870000000000000
b110 1
b110 :
b10 =
1'
b10001101 A
#2880000000000000
0'
#2890000000000000
b111 :
b100 =
b111 1
1'
b10001110 A
#2900000000000000
0'
#2910000000000000
b1000 1
b1000 :
b110 =
1'
b10001111 A
#2920000000000000
0'
#2930000000000000
b1001 :
b0 =
b1001 1
1'
b10010000 A
#2940000000000000
0'
#2950000000000000
b1010 1
b1010 :
b10 =
1'
b10010001 A
#2960000000000000
0'
#2970000000000000
b1011 :
b100 =
b1011 1
1'
b10010010 A
#2980000000000000
0'
#2990000000000000
b1100 1
b1100 :
b110 =
1'
b10010011 A
#3000000000000000
0'
#3010000000000000
b10010000011011101000100011010100 7
b100000 8
b11 &
b11 2
b11 4
b11 #
b11 ,
b11 <
b1 @
b0 :
b0 =
b1101 1
1'
b10010100 A
#3020000000000000
0'
#3030000000000000
b1110 1
b1 ?
b10 =
1'
b10010101 A
#3040000000000000
0'
#3050000000000000
b11 ?
b100 =
b1111 1
1'
b10010110 A
#3060000000000000
0'
#3070000000000000
b10000 1
b101 ?
b110 =
b1 $
b1 >
1'
b10010111 A
#3080000000000000
0'
#3090000000000000
b111 ?
b0 =
b10001 1
1'
b10011000 A
#3100000000000000
0'
#3110000000000000
b10010 1
b1 ?
b10 =
1'
b10011001 A
#3120000000000000
0'
#3130000000000000
b11 ?
b100 =
b10011 1
1'
b10011010 A
#3140000000000000
0'
#3150000000000000
1!
b111 3
b0 1
b101 ?
b110 =
b10 $
b10 >
1'
b10011011 A
#3160000000000000
0'
#3170000000000000
b10011001111011001011001110111010 7
b100000 8
b10 &
b10 2
b10 4
b0 ?
b1000 =
0"
b0 @
b1 1
b10 .
1'
b10011100 A
#3180000000000000
0'
#3190000000000000
b10010100101011111001010101100011 7
b100000 8
b1 &
b1 2
b1 4
b10 1
b100 .
1'
b10011101 A
#3200000000000000
0'
#3210000000000000
b10011101001011011010111000001101 7
b100000 8
b0 &
b0 2
b0 4
b11 1
b110 .
1'
b10011110 A
#3220000000000000
0'
#3230000000000000
b100 1
b0 .
1'
b10011111 A
#3240000000000000
0'
#3250000000000000
b10010100101011111001010101100011 7
b100000 8
b1 &
b1 2
b1 4
b101 1
b10 .
1'
b10100000 A
#3260000000000000
0'
#3270000000000000
b10011001111011001011001110111010 7
b100000 8
b10 &
b10 2
b10 4
b110 1
b100 .
1'
b10100001 A
#3280000000000000
0'
#3290000000000000
b10010000011011101000100011010100 7
b100000 8
b11 &
b11 2
b11 4
b111 1
b110 .
1'
b10100010 A
#3300000000000000
0'
#3310000000000000
b10010100101011111001010101100011 7
b100000 8
b1 &
b1 2
b1 4
b1000 1
b0 .
1'
b10100011 A
#3320000000000000
0'
#3330000000000000
b10010000011011101000100011010100 7
b100000 8
b11 &
b11 2
b11 4
b1001 1
b10 .
1'
b10100100 A
#3340000000000000
0'
#3350000000000000
b10010100101011111001010101100011 7
b100000 8
b1 &
b1 2
b1 4
b1010 1
b100 .
1'
b10100101 A
#3360000000000000
0'
#3370000000000000
b1011 1
b110 .
1'
b10100110 A
#3380000000000000
0'
#3390000000000000
b10011001111011001011001110111010 7
b100000 8
b10 &
b10 2
b10 4
b1100 1
b0 .
1'
b10100111 A
#3400000000000000
0'
#3410000000000000
b1101 1
b10 .
1'
b10101000 A
#3420000000000000
0'
#3430000000000000
b10011101001011011010111000001101 7
b100000 8
b0 &
b0 2
b0 4
b1110 1
b100 .
1'
b10101001 A
#3440000000000000
0'
#3450000000000000
b10010000011011101000100011010100 7
b100000 8
b11 &
b11 2
b11 4
b1111 1
b110 .
1'
b10101010 A
#3460000000000000
0'
#3470000000000000
b10011101001011011010111000001101 7
b100000 8
b0 &
b0 2
b0 4
0%
10
b0 3
b0 1
b0 .
1'
b10101011 A
#3480000000000000
0'
#3490000000000000
b11110010101111001101100100100101 7
b100000 8
b0 +
b0 5
b11111111111111111111111111111111 6
b1 1
00
1'
b10101100 A
#3500000000000000
0'
#3510000000000000
b10 1
1'
b10101101 A
#3520000000000000
0'
#3530000000000000
b11 1
1'
b10101110 A
#3540000000000000
0'
#3550000000000000
b100 1
1'
b10101111 A
#3560000000000000
0'
#3570000000000000
b101 1
1'
b10110000 A
#3580000000000000
0'
#3590000000000000
b110 1
1'
b10110001 A
#3600000000000000
0'
#3610000000000000
b111 1
1'
b10110010 A
#3620000000000000
0'
#3630000000000000
b1000 1
1'
b10110011 A
#3640000000000000
0'
#3650000000000000
b1001 1
1'
b10110100 A
#3660000000000000
0'
#3670000000000000
b1010 1
1'
b10110101 A
#3680000000000000
0'
#3690000000000000
b1011 1
1'
b10110110 A
#3700000000000000
0'
#3710000000000000
b1100 1
1'
b10110111 A
#3720000000000000
0'
#3730000000000000
b1101 1
1'
b10111000 A
#3740000000000000
0'
#3750000000000000
b1110 1
1'
b10111001 A
#3760000000000000
0'
#3770000000000000
b1111 1
1'
b10111010 A
#3780000000000000
0'
#3790000000000000
b10000 1
1'
b10111011 A
#3800000000000000
0'
#3810000000000000
b10001 1
1'
b10111100 A
#3820000000000000
0'
#3830000000000000
b10010 1
1'
b10111101 A
#3840000000000000
0'
#3850000000000000
b10011 1
1'
b10111110 A
#3860000000000000
0'
#3870000000000000
b10100 1
1'
b10111111 A
#3880000000000000
0'
#3890000000000000
b10101 1
1'
b11000000 A
#3900000000000000
0'
#3910000000000000
b10110 1
1'
b11000001 A
#3920000000000000
0'
#3930000000000000
b10111 1
1'
b11000010 A
#3940000000000000
0'
#3950000000000000
b11000 1
1'
b11000011 A
#3960000000000000
0'
#3970000000000000
b11001 1
1'
b11000100 A
#3980000000000000
0'
#3990000000000000
b11010 1
1'
b11000101 A
#4000000000000000
0'
#4010000000000000
b11011 1
1'
b11000110 A
#4020000000000000
0'
#4030000000000000
b11100 1
1'
b11000111 A
#4040000000000000
0'
#4050000000000000
b11101 1
1'
b11001000 A
#4060000000000000
0'
#4070000000000000
b11110 1
1'
b11001001 A
#4080000000000000
0'
#4090000000000000
b11111 1
1'
b11001010 A
#4100000000000000
0'
#4110000000000000
b100000 1
1'
b11001011 A
#4120000000000000
0'
#4130000000000000
b100001 1
1'
b11001100 A
#4140000000000000
0'
#4150000000000000
b100010 1
1'
b11001101 A
#4160000000000000
0'
#4170000000000000
b100011 1
1'
b11001110 A
#4180000000000000
0'
#4190000000000000
b100100 1
1'
b11001111 A
#4200000000000000
0'
#4210000000000000
b100101 1
1'
b11010000 A
#4220000000000000
0'
#4230000000000000
b100110 1
1'
b11010001 A
#4240000000000000
0'
#4250000000000000
b100111 1
1'
b11010010 A
#4260000000000000
0'
#4270000000000000
b101000 1
1'
b11010011 A
#4280000000000000
0'
#4290000000000000
b101001 1
1'
b11010100 A
#4300000000000000
0'
#4310000000000000
b101010 1
1'
b11010101 A
#4320000000000000
0'
#4330000000000000
b101011 1
1'
b11010110 A
#4340000000000000
0'
#4350000000000000
b101100 1
1'
b11010111 A
#4360000000000000
0'
#4370000000000000
b101101 1
1'
b11011000 A
#4380000000000000
0'
#4390000000000000
b101110 1
1'
b11011001 A
#4400000000000000
0'
#4410000000000000
b101111 1
1'
b11011010 A
#4420000000000000
0'
#4430000000000000
b11111011001111101110001001001011 7
b100000 8
b1 &
b1 2
b1 4
b1 3
b0 1
1'
b11011011 A
#4440000000000000
0'
#4450000000000000
1%
b1 1
1'
b11011100 A
#4460000000000000
0'
#4470000000000000
b10 1
1'
b11011101 A
#4480000000000000
0'
#4490000000000000
b11 1
1'
b11011110 A
#4500000000000000
0'
#4510000000000000
b100 1
1'
b11011111 A
#4520000000000000
0'
#4530000000000000
b101 1
1'
b11100000 A
#4540000000000000
0'
#4550000000000000
b110 1
1'
b11100001 A
#4560000000000000
0'
#4570000000000000
b111 1
1'
b11100010 A
#4580000000000000
0'
#4590000000000000
b1000 1
1'
b11100011 A
#4600000000000000
0'
#4610000000000000
b1001 1
1'
b11100100 A
#4620000000000000
0'
#4630000000000000
b1010 1
1'
b11100101 A
#4640000000000000
0'
#4650000000000000
b1011 1
1'
b11100110 A
#4660000000000000
0'
#4670000000000000
b1100 1
1'
b11100111 A
#4680000000000000
0'
#4690000000000000
b1101 1
1'
b11101000 A
#4700000000000000
0'
#4710000000000000
b1110 1
1'
b11101001 A
#4720000000000000
0'
#4730000000000000
b1111 1
1'
b11101010 A
#4740000000000000
0'
#4750000000000000
b10000 1
1'
b11101011 A
#4760000000000000
0'
#4770000000000000
b10001 1
1'
b11101100 A
#4780000000000000
0'
#4790000000000000
b10010 1
1'
b11101101 A
#4800000000000000
0'
#4810000000000000
b10011 1
1'
b11101110 A
#4820000000000000
0'
#4830000000000000
b10100 1
1'
b11101111 A
#4840000000000000
0'
#4850000000000000
b10101 1
1'
b11110000 A
#4860000000000000
0'
#4870000000000000
b10110 1
1'
b11110001 A
#4880000000000000
0'
#4890000000000000
b10111 1
1'
b11110010 A
#4900000000000000
0'
#4910000000000000
b11000 1
1'
b11110011 A
#4920000000000000
0'
#4930000000000000
b11001 1
1'
b11110100 A
#4940000000000000
0'
#4950000000000000
b11010 1
1'
b11110101 A
#4960000000000000
0'
#4970000000000000
b11111111111111111111111111111100 7
b100000 8
b11 &
b11 2
b11 4
b11011 1
1'
b11110110 A
#4980000000000000
0'
#4990000000000000
b11111011001111101110001001001011 7
b100000 8
b1 &
b1 2
b1 4
1/
b10 3
b0 1
1'
b11110111 A
#5000000000000000
0'
