EthernetTesting/obj/rbo_ethpack_tb.vcd
$date
	Sun Dec  4 15:23:33 2022
$end
$version
	Icarus Verilog
$end
$timescale
	1ps
$end
$scope module rbo_ethpack_tb $end
$var wire 1 ! stall $end
$var wire 1 " rbo_axiov $end
$var wire 2 # rbo_axiod [1:0] $end
$var wire 24 $ pixel_addr [23:0] $end
$var wire 1 % phy_txen $end
$var wire 2 & phy_txd [1:0] $end
$var wire 1 ' kill $end
$var wire 1 ( ether_axiov $end
$var wire 2 ) ether_axiod [1:0] $end
$var wire 1 * done $end
$var reg 1 + clk $end
$var reg 8 , pixel [7:0] $end
$var reg 1 - rst $end
$scope module cksum $end
$var wire 2 . axiid [1:0] $end
$var wire 1 / axiov $end
$var wire 1 + clk $end
$var wire 1 - rst $end
$var wire 32 0 axiod [31:0] $end
$var wire 1 ( axiiv $end
$var reg 1 1 crc32rst $end
$var reg 1 * done $end
$var reg 1 ' kill $end
$var reg 2 2 state [1:0] $end
$scope module cksum $end
$var wire 2 3 axiid [1:0] $end
$var wire 32 4 axiod [31:0] $end
$var wire 1 / axiov $end
$var wire 1 + clk $end
$var wire 1 1 rst $end
$var wire 1 ( axiiv $end
$var reg 32 5 caxiod [31:0] $end
$var reg 32 6 saxiod [31:0] $end
$var integer 32 7 i [31:0] $end
$upscope $end
$upscope $end
$scope module eth_packer $end
$var wire 1 8 cancelled $end
$var wire 1 9 cksum_calculated $end
$var wire 1 + clk $end
$var wire 1 - rst $end
$var wire 32 : cksum [31:0] $end
$var wire 1 " axiiv $end
$var wire 2 ; axiid [1:0] $end
$var reg 9 < audio_counter [8:0] $end
$var reg 3 = byte_bit_counter [2:0] $end
$var reg 1 > cksum_axiiv $end
$var reg 1 ? crc32rst $end
$var reg 13 @ dibit_counter [12:0] $end
$var reg 2 A phy_txd [1:0] $end
$var reg 1 % phy_txen $end
$var reg 1 ! stall $end
$var reg 4 B state [3:0] $end
$scope module crc32 $end
$var wire 2 C axiid [1:0] $end
$var wire 1 > axiiv $end
$var wire 32 D axiod [31:0] $end
$var wire 1 9 axiov $end
$var wire 1 + clk $end
$var wire 1 ? rst $end
$var reg 32 E caxiod [31:0] $end
$var reg 32 F saxiod [31:0] $end
$var integer 32 G i [31:0] $end
$upscope $end
$upscope $end
$scope module reverse_bit_order $end
$var wire 1 + clk $end
$var wire 8 H pixel [7:0] $end
$var wire 1 - rst $end
$var wire 1 ! stall $end
$var reg 6 I addr_bit_counter [5:0] $end
$var reg 9 J audio_counter [8:0] $end
$var reg 2 K axiod [1:0] $end
$var reg 1 " axiov $end
$var reg 4 L byte_bit_counter [3:0] $end
$var reg 24 M pixel_addr [23:0] $end
$var reg 9 N pixel_counter [8:0] $end
$var reg 2 O state [1:0] $end
$upscope $end
$scope module uut $end
$var wire 1 + clk $end
$var wire 1 % crsdv $end
$var wire 1 - rst $end
$var wire 2 P rxd [1:0] $end
$var reg 2 Q axiod [1:0] $end
$var reg 1 ( axiov $end
$var reg 6 R counter [5:0] $end
$var reg 3 S state [2:0] $end
$upscope $end
$scope begin $ivl_for_loop0 $end
$var integer 32 T i [31:0] $end
$upscope $end
$upscope $end
$enddefinitions $end
#0
$dumpvars
b0 T
bx S
bx R
bx Q
b0 P
bx O
bx N
bx M
bx L
b0 K
bx J
bx I
bx H
b100000 G
bx F
bx E
bx D
b0 C
bx B
b0 A
bx @
x?
0>
bx =
bx <
b0 ;
bx :
19
z8
bx 7
bx 6
bx 5
bx 4
bx 3
bx 2
x1
bx 0
1/
bx .
0-
bx ,
0+
x*
bx )
x(
x'
b0 &
0%
bx $
b0 #
x"
1!
$end
#10000000000000
b0 J
b0 N
b1000 L
b0 I
0"
b0 O
1+
#20000000000000
0+
1-
#30000000000000
b100000 7
b0 2
11
0'
0*
b0 R
b0 S
b0 .
b0 3
b0 )
b0 Q
0(
b0 @
1?
b0 <
b0 =
b0 B
b0 $
b0 M
1+
#40000000000000
0+
b11111111 ,
b11111111 H
0-
#50000000000000
b11110010101111001101100100100101 F
b100000 G
b0 :
b0 D
b11110010101111001101100100100101 6
b100000 7
b0 0
b0 4
b11111111111111111111111111111111 E
b1 @
0?
b1 R
b11111111111111111111111111111111 5
01
1+
#60000000000000
0+
#70000000000000
b10 @
1+
b1 T
#80000000000000
0+
#90000000000000
b11 @
1+
b10 T
#100000000000000
0+
#110000000000000
b100 @
1+
b11 T
#120000000000000
0+
#130000000000000
b101 @
1+
b100 T
#140000000000000
0+
#150000000000000
b110 @
1+
b101 T
#160000000000000
0+
#170000000000000
b111 @
1+
b110 T
#180000000000000
0+
#190000000000000
b1000 @
1+
b111 T
#200000000000000
0+
#210000000000000
b1001 @
1+
b1000 T
#220000000000000
0+
#230000000000000
b1010 @
1+
b1001 T
#240000000000000
0+
#250000000000000
b1011 @
1+
b1010 T
#260000000000000
0+
#270000000000000
b1100 @
1+
b1011 T
#280000000000000
0+
#290000000000000
b1101 @
1+
b1100 T
#300000000000000
0+
#310000000000000
b1110 @
1+
b1101 T
#320000000000000
0+
#330000000000000
b1111 @
1+
b1110 T
#340000000000000
0+
#350000000000000
b10000 @
1+
b1111 T
#360000000000000
0+
#370000000000000
b10001 @
1+
b10000 T
#380000000000000
0+
#390000000000000
b10010 @
1+
b10001 T
#400000000000000
0+
#410000000000000
b10011 @
1+
b10010 T
#420000000000000
0+
#430000000000000
b10100 @
1+
b10011 T
#440000000000000
0+
#450000000000000
b10101 @
1+
b10100 T
#460000000000000
0+
#470000000000000
b10110 @
1+
b10101 T
#480000000000000
0+
#490000000000000
b10111 @
1+
b10110 T
#500000000000000
0+
#510000000000000
b11000 @
1+
b10111 T
#520000000000000
0+
#530000000000000
b11001 @
1+
b11000 T
#540000000000000
0+
#550000000000000
b11010 @
1+
b11001 T
#560000000000000
0+
#570000000000000
b11011 @
1+
b11010 T
#580000000000000
0+
#590000000000000
b11100 @
1+
b11011 T
#600000000000000
0+
#610000000000000
b11101 @
1+
b11100 T
#620000000000000
0+
#630000000000000
b11110 @
1+
b11101 T
#640000000000000
0+
#650000000000000
b11111 @
1+
b11110 T
#660000000000000
0+
#670000000000000
b100000 @
1+
b11111 T
#680000000000000
0+
#690000000000000
b100001 @
1+
b100000 T
#700000000000000
0+
#710000000000000
b100010 @
1+
b100001 T
#720000000000000
0+
#730000000000000
b100011 @
1+
b100010 T
#740000000000000
0+
#750000000000000
b100100 @
1+
b100011 T
#760000000000000
0+
#770000000000000
b100101 @
1+
b100100 T
#780000000000000
0+
#790000000000000
b100110 @
1+
b100101 T
#800000000000000
0+
#810000000000000
b100111 @
1+
b100110 T
#820000000000000
0+
#830000000000000
b101000 @
1+
b100111 T
#840000000000000
0+
#850000000000000
b101001 @
1+
b101000 T
#860000000000000
0+
#870000000000000
b101010 @
1+
b101001 T
#880000000000000
0+
#890000000000000
b101011 @
1+
b101010 T
#900000000000000
0+
#910000000000000
b101100 @
1+
b101011 T
#920000000000000
0+
#930000000000000
b101101 @
1+
b101100 T
#940000000000000
0+
#950000000000000
b101110 @
1+
b101101 T
#960000000000000
0+
#970000000000000
b101111 @
1+
b101110 T
#980000000000000
0+
#990000000000000
b11111011001111101110001001001011 F
b100000 G
b1 &
b1 A
b1 C
b1 P
b1 B
b0 @
1+
b101111 T
#1000000000000000
0+
#1010000000000000
1%
b1 @
1+
b110000 T
#1020000000000000
0+
#1030000000000000
b1 S
b10 @
1+
b110001 T
#1040000000000000
0+
#1050000000000000
b11 @
b10 R
1+
b110010 T
#1060000000000000
0+
#1070000000000000
b11 R
b100 @
1+
b110011 T
#1080000000000000
0+
#1090000000000000
b101 @
b100 R
1+
b110100 T
#1100000000000000
0+
#1110000000000000
b101 R
b110 @
1+
b110101 T
#1120000000000000
0+
#1130000000000000
b111 @
b110 R
1+
b110110 T
#1140000000000000
0+
#1150000000000000
b111 R
b1000 @
1+
b110111 T
#1160000000000000
0+
#1170000000000000
b1001 @
b1000 R
1+
b111000 T
#1180000000000000
0+
#1190000000000000
b1001 R
b1010 @
1+
b111001 T
#1200000000000000
0+
#1210000000000000
b1011 @
b1010 R
1+
b111010 T
#1220000000000000
0+
#1230000000000000
b1011 R
b1100 @
1+
b111011 T
#1240000000000000
0+
#1250000000000000
b1101 @
b1100 R
1+
b111100 T
#1260000000000000
0+
#1270000000000000
b1101 R
b1110 @
1+
b111101 T
#1280000000000000
0+
#1290000000000000
b1111 @
b1110 R
1+
b111110 T
#1300000000000000
0+
#1310000000000000
b1111 R
b10000 @
1+
b111111 T
#1320000000000000
0+
#1330000000000000
b10001 @
b10000 R
1+
b1000000 T
#1340000000000000
0+
#1350000000000000
b10001 R
b10010 @
1+
b1000001 T
#1360000000000000
0+
#1370000000000000
b10011 @
b10010 R
1+
b1000010 T
#1380000000000000
0+
#1390000000000000
b10011 R
b10100 @
1+
b1000011 T
#1400000000000000
0+
#1410000000000000
b10101 @
b10100 R
1+
b1000100 T
#1420000000000000
0+
#1430000000000000
b10101 R
b10110 @
1+
b1000101 T
#1440000000000000
0+
#1450000000000000
b10111 @
b10110 R
1+
b1000110 T
#1460000000000000
0+
#1470000000000000
b10111 R
b11000 @
1+
b1000111 T
#1480000000000000
0+
#1490000000000000
b11001 @
b11000 R
1+
b1001000 T
#1500000000000000
0+
#1510000000000000
b11001 R
b11010 @
1+
b1001001 T
#1520000000000000
0+
#1530000000000000
b11011 @
b11010 R
1+
b1001010 T
#1540000000000000
0+
#1550000000000000
b11011 R
b11100 @
1+
b1001011 T
#1560000000000000
0+
#1570000000000000
b11101 @
b11100 R
1+
b1001100 T
#1580000000000000
0+
#1590000000000000
b11101 R
b11110 @
1+
b1001101 T
#1600000000000000
0+
#1610000000000000
b11111 @
b11110 R
1+
b1001110 T
#1620000000000000
0+
#1630000000000000
b11111111111111111111111111111100 F
b100000 G
b11 &
b11 A
b11 C
b11 P
b10 S
b0 R
b100000 @
1+
b1001111 T
#1640000000000000
0+
#1650000000000000
1>
b11 B
b0 @
b11 S
1+
b1010000 T
#1660000000000000
0+
#1670000000000000
b11111111111111111111111111111100 6
b100000 7
b11111111111111111111111111110000 F
b100000 G
b11 :
b11 D
b11 .
b11 3
b11 )
b11 Q
1(
b1 @
b11111111111111111111111111111100 E
1+
b1010001 T
#1680000000000000
0+
#1690000000000000
b11111111111111111111111111000000 F
b100000 G
b1111 :
b1111 D
b11111111111111111111111111110000 6
b100000 7
b11 0
b11 4
b11111111111111111111111111110000 E
b10 @
b11111111111111111111111111111100 5
b1 2
1+
b1010010 T
#1700000000000000
0+
#1710000000000000
b11111111111111111111111111000000 6
b100000 7
b1111 0
b1111 4
b11111111111111111111111100000000 F
b100000 G
b111111 :
b111111 D
b11111111111111111111111111110000 5
b11 @
b11111111111111111111111111000000 E
1+
b1010011 T
#1720000000000000
0+
#1730000000000000
b11111111111111111111110000000000 F
b100000 G
b11111111 :
b11111111 D
b11111111111111111111111100000000 6
b100000 7
b111111 0
b111111 4
b11111111111111111111111100000000 E
b100 @
b11111111111111111111111111000000 5
1+
b1010100 T
#1740000000000000
0+
#1750000000000000
b11111111111111111111110000000000 6
b100000 7
b11111111 0
b11111111 4
b11111111111111111111000000000000 F
b100000 G
b1111111111 :
b1111111111 D
b11111111111111111111111100000000 5
b101 @
b11111111111111111111110000000000 E
1+
b1010101 T
#1760000000000000
0+
#1770000000000000
b11111111111111111100000000000000 F
b100000 G
b111111111111 :
b111111111111 D
b11111111111111111111000000000000 6
b100000 7
b1111111111 0
b1111111111 4
b11111111111111111111000000000000 E
b110 @
b11111111111111111111110000000000 5
1+
b1010110 T
#1780000000000000
0+
#1790000000000000
b11111111111111111100000000000000 6
b100000 7
b111111111111 0
b111111111111 4
b11111111111111110000000000000000 F
b100000 G
b11111111111111 :
b11111111111111 D
b11111111111111111111000000000000 5
b111 @
b11111111111111111100000000000000 E
1+
b1010111 T
#1800000000000000
0+
#1810000000000000
b11111111111111000000000000000000 F
b100000 G
b1111111111111111 :
b1111111111111111 D
b11111111111111110000000000000000 6
b100000 7
b11111111111111 0
b11111111111111 4
b11111111111111110000000000000000 E
b1000 @
b11111111111111111100000000000000 5
1+
b1011000 T
#1820000000000000
0+
#1830000000000000
b11111111111111000000000000000000 6
b100000 7
b1111111111111111 0
b1111111111111111 4
b11111111111100000000000000000000 F
b100000 G
b111111111111111111 :
b111111111111111111 D
b11111111111111110000000000000000 5
b1001 @
b11111111111111000000000000000000 E
1+
b1011001 T
#1840000000000000
0+
#1850000000000000
b11111111110000000000000000000000 F
b100000 G
b11111111111111111111 :
b11111111111111111111 D
b11111111111100000000000000000000 6
b100000 7
b111111111111111111 0
b111111111111111111 4
b11111111111100000000000000000000 E
b1010 @
b11111111111111000000000000000000 5
1+
b1011010 T
#1860000000000000
0+
#1870000000000000
b11111111110000000000000000000000 6
b100000 7
b11111111111111111111 0
b11111111111111111111 4
b11111111000000000000000000000000 F
b100000 G
b1111111111111111111111 :
b1111111111111111111111 D
b11111111111100000000000000000000 5
b1011 @
b11111111110000000000000000000000 E
1+
b1011011 T
#1880000000000000
0+
#1890000000000000
b11111100000000000000000000000000 F
b100000 G
b111111111111111111111111 :
b111111111111111111111111 D
b11111111000000000000000000000000 6
b100000 7
b1111111111111111111111 0
b1111111111111111111111 4
b11111111000000000000000000000000 E
b1100 @
b11111111110000000000000000000000 5
1+
b1011100 T
#1900000000000000
0+
#1910000000000000
b11111100000000000000000000000000 6
b100000 7
b111111111111111111111111 0
b111111111111111111111111 4
b11110000000000000000000000000000 F
b100000 G
b11111111111111111111111111 :
b11111111111111111111111111 D
b11111111000000000000000000000000 5
b1101 @
b11111100000000000000000000000000 E
1+
b1011101 T
#1920000000000000
0+
#1930000000000000
b11000000000000000000000000000000 F
b100000 G
b1111111111111111111111111111 :
b1111111111111111111111111111 D
b11110000000000000000000000000000 6
b100000 7
b11111111111111111111111111 0
b11111111111111111111111111 4
b11110000000000000000000000000000 E
b1110 @
b11111100000000000000000000000000 5
1+
b1011110 T
#1940000000000000
0+
#1950000000000000
b11000000000000000000000000000000 6
b100000 7
b1111111111111111111111111111 0
b1111111111111111111111111111 4
b0 F
b100000 G
b111111111111111111111111111111 :
b111111111111111111111111111111 D
b11110000000000000000000000000000 5
b1111 @
b11000000000000000000000000000000 E
1+
b1011111 T
#1960000000000000
0+
#1970000000000000
b1101010000110010011011011001 F
b100000 G
b11111111111111111111111111111111 :
b11111111111111111111111111111111 D
b0 6
b100000 7
b111111111111111111111111111111 0
b111111111111111111111111111111 4
b0 E
b10000 @
b11000000000000000000000000000000 5
1+
b1100000 T
#1980000000000000
0+
#1990000000000000
b1101010000110010011011011001 6
b100000 7
b11111111111111111111111111111111 0
b11111111111111111111111111111111 4
b111000010011111011110110111101 F
b100000 G
b11110010101111001101100100100110 :
b11110010101111001101100100100110 D
b0 5
b10001 @
b1101010000110010011011011001 E
1+
b1100001 T
#2000000000000000
0+
#2010000000000000
b11101100011111011101000000101101 F
b100000 G
b11000111101100000100001001000010 :
b11000111101100000100001001000010 D
b111000010011111011110110111101 6
b100000 7
b11110010101111001101100100100110 0
b11110010101111001101100100100110 4
b111000010011111011110110111101 E
b10010 @
b1101010000110010011011011001 5
1+
b1100010 T
#2020000000000000
0+
#2030000000000000
b11101100011111011101000000101101 6
b100000 7
b11000111101100000100001001000010 0
b11000111101100000100001001000010 4
b10110001111101110100000010110100 F
b100000 G
b10011100000100010111111010010 :
b10011100000100010111111010010 D
b111000010011111011110110111101 5
b10011 @
b11101100011111011101000000101101 E
1+
b1100011 T
#2040000000000000
0+
#2050000000000000
b11000011000111000001111101100111 F
b100000 G
b1001110000010001011111101001011 :
b1001110000010001011111101001011 D
b10110001111101110100000010110100 6
b100000 7
b10011100000100010111111010010 0
b10011100000100010111111010010 4
b10110001111101110100000010110100 E
b10100 @
b11101100011111011101000000101101 5
1+
b1100100 T
#2060000000000000
0+
#2070000000000000
b11000011000111000001111101100111 6
b100000 7
b1001110000010001011111101001011 0
b1001110000010001011111101001011 4
b1100011100000111110110011100 F
b100000 G
b111100111000111110000010011000 :
b111100111000111110000010011000 D
b10110001111101110100000010110100 5
b10101 @
b11000011000111000001111101100111 E
1+
b1100101 T
#2080000000000000
0+
#2090000000000000
b111100100000101101000010101001 F
b100000 G
b11110011100011111000001001100011 :
b11110011100011111000001001100011 D
b1100011100000111110110011100 6
b100000 7
b111100111000111110000010011000 0
b111100111000111110000010011000 4
b1100011100000111110110011100 E
b10110 @
b11000011000111000001111101100111 5
1+
b1100110 T
#2100000000000000
0+
#2110000000000000
b111100100000101101000010101001 6
b100000 7
b11110011100011111000001001100011 0
b11110011100011111000001001100011 4
b11111111010010000110010001111101 F
b100000 G
b11000011011111010010111101010110 :
b11000011011111010010111101010110 D
b1100011100000111110110011100 5
b10111 @
b111100100000101101000010101001 E
1+
b1100111 T
#2120000000000000
0+
#2130000000000000
b11110100101000111010101010011010 F
b100000 G
b101101111001101110000010 :
b101101111001101110000010 D
b10 &
b10 A
b10 C
b10 P
b11111111010010000110010001111101 6
b100000 7
b11000011011111010010111101010110 0
b11000011011111010010111101010110 4
b11111111010010000110010001111101 E
b100 B
b0 @
b111100100000101101000010101001 5
1+
b1101000 T
#2140000000000000
0+
#2150000000000000
b101101111001101110000010 0
b101101111001101110000010 4
b11110100101000111010101010011010 6
b100000 7
b11011011000011001001000100000110 F
b100000 G
b1011010111000101010101100101 :
b1011010111000101010101100101 D
b11111111010010000110010001111101 5
b10 .
b10 3
b10 )
b10 Q
b1 @
b11110100101000111010101010011010 E
1+
b1101001 T
#2160000000000000
0+
#2170000000000000
b1100101101100000111111101110110 F
b100000 G
b100100111100110110111011111001 :
b100100111100110110111011111001 D
b11011011000011001001000100000110 6
b100000 7
b1011010111000101010101100101 0
b1011010111000101010101100101 4
b11011011000011001001000100000110 E
b10 @
b11110100101000111010101010011010 5
1+
b1101010 T
#2180000000000000
0+
#2190000000000000
b1100101101100000111111101110110 6
b100000 7
b100100111100110110111011111001 0
b100100111100110110111011111001 4
b10010110110000011111110111011000 F
b100000 G
b10011010010011111000000010001001 :
b10011010010011111000000010001001 D
b11011011000011001001000100000110 5
b11 @
b1100101101100000111111101110110 E
1+
b1101011 T
#2200000000000000
0+
#2210000000000000
b1010110010001001101000110111001 F
b100000 G
b1101001001111100000001000100111 :
b1101001001111100000001000100111 D
b10010110110000011111110111011000 6
b100000 7
b10011010010011111000000010001001 0
b10011010010011111000000010001001 4
b10010110110000011111110111011000 E
b100 @
b1100101101100000111111101110110 5
1+
b1101100 T
#2220000000000000
0+
#2230000000000000
b1010110010001001101000110111001 6
b100000 7
b1101001001111100000001000100111 0
b1101001001111100000001000100111 4
b1011001000100110100011011100100 F
b100000 G
b10101001101110110010111001000110 :
b10101001101110110010111001000110 D
b10010110110000011111110111011000 5
b101 @
b1010110010001001101000110111001 E
1+
b1101101 T
#2240000000000000
0+
#2250000000000000
b1100100010011010001101110010000 F
b100000 G
b10100110111011001011100100011011 :
b10100110111011001011100100011011 D
b1011001000100110100011011100100 6
b100000 7
b10101001101110110010111001000110 0
b10101001101110110010111001000110 4
b1011001000100110100011011100100 E
b110 @
b1010110010001001101000110111001 5
1+
b1101110 T
#2260000000000000
0+
#2270000000000000
b1100100010011010001101110010000 6
b100000 7
b10100110111011001011100100011011 0
b10100110111011001011100100011011 4
b10010001001101000110111001000000 F
b100000 G
b10011011101100101110010001101111 :
b10011011101100101110010001101111 D
b1011001000100110100011011100100 5
b111 @
b1100100010011010001101110010000 E
1+
b1101111 T
#2280000000000000
0+
#2290000000000000
b1001001100100101001111111011001 F
b100000 G
b1101110110010111001000110111111 :
b1101110110010111001000110111111 D
b10010001001101000110111001000000 6
b100000 7
b10011011101100101110010001101111 0
b10011011101100101110010001101111 4
b10010001001101000110111001000000 E
b1000 @
b1100100010011010001101110010000 5
1+
b1110000 T
#2300000000000000
0+
#2310000000000000
b1001001100100101001111111011001 6
b100000 7
b1101110110010111001000110111111 0
b1101110110010111001000110111111 4
b100110010010100111111101100100 F
b100000 G
b10110110011011010110000000100110 :
b10110110011011010110000000100110 D
b10010001001101000110111001000000 5
b1001 @
b1001001100100101001111111011001 E
1+
b1110001 T
#2320000000000000
0+
#2330000000000000
b10011101111010001110000000100111 F
b100000 G
b11011001101101011000000010011011 :
b11011001101101011000000010011011 D
b100110010010100111111101100100 6
b100000 7
b10110110011011010110000000100110 0
b10110110011011010110000000100110 4
b100110010010100111111101100100 E
b1010 @
b1001001100100101001111111011001 5
1+
b1110010 T
#2340000000000000
0+
#2350000000000000
b10011101111010001110000000100111 6
b100000 7
b11011001101101011000000010011011 0
b11011001101101011000000010011011 4
b1111010111000001010011001000101 F
b100000 G
b1100010000101110001111111011000 :
b1100010000101110001111111011000 D
b100110010010100111111101100100 5
b1011 @
b10011101111010001110000000100111 E
1+
b1110011 T
#2360000000000000
0+
#2370000000000000
b11101011100000101001100100010100 F
b100000 G
b10000101000111110101100110111010 :
b10000101000111110101100110111010 D
b1111010111000001010011001000101 6
b100000 7
b1100010000101110001111111011000 0
b1100010000101110001111111011000 4
b1111010111000001010011001000101 E
b1100 @
b10011101111010001110000000100111 5
1+
b1110100 T
#2380000000000000
0+
#2390000000000000
b11101011100000101001100100010100 6
b100000 7
b10000101000111110101100110111010 0
b10000101000111110101100110111010 4
b10100111100010000101111100111110 F
b100000 G
b10100011111010110011011101011 :
b10100011111010110011011101011 D
b1111010111000001010011001000101 5
b1101 @
b11101011100000101001100100010100 E
1+
b1110101 T
#2400000000000000
0+
#2410000000000000
b10010011011000100101101000100001 F
b100000 G
b1011000011101111010000011000001 :
b1011000011101111010000011000001 D
b10100111100010000101111100111110 6
b100000 7
b10100011111010110011011101011 0
b10100011111010110011011101011 4
b10100111100010000101111100111110 E
b1110 @
b11101011100000101001100100010100 5
1+
b1110110 T
#2420000000000000
0+
#2430000000000000
b10010011011000100101101000100001 6
b100000 7
b1011000011101111010000011000001 0
b1011000011101111010000011000001 4
b1000000110010100100111001011101 F
b100000 G
b1101100100111011010010111011110 :
b1101100100111011010010111011110 D
b10100111100010000101111100111110 5
b1111 @
b10010011011000100101101000100001 E
1+
b1110111 T
#2440000000000000
0+
#2450000000000000
b11001010010011100101110100 F
b100000 G
b10111111001101011011000110100010 :
b10111111001101011011000110100010 D
b1000000110010100100111001011101 6
b100000 7
b1101100100111011010010111011110 0
b1101100100111011010010111011110 4
b1000000110010100100111001011101 E
b10000 @
b10010011011000100101101000100001 5
1+
b1111000 T
#2460000000000000
0+
#2470000000000000
b11001010010011100101110100 6
b100000 7
b10111111001101011011000110100010 0
b10111111001101011011000110100010 4
b1000011001011111100001100111 F
b100000 G
b11111100110101101100011010001011 :
b11111100110101101100011010001011 D
b1000000110010100100111001011101 5
b10001 @
b11001010010011100101110100 E
1+
b1111001 T
#2480000000000000
0+
#2490000000000000
b100101010101101111110000101011 F
b100000 G
b11110111100110100000011110011000 :
b11110111100110100000011110011000 D
b1000011001011111100001100111 6
b100000 7
b11111100110101101100011010001011 0
b11111100110101101100011010001011 4
b1000011001011111100001100111 E
b10010 @
b11001010010011100101110100 5
1+
b1111010 T
#2500000000000000
0+
#2510000000000000
b100101010101101111110000101011 6
b100000 7
b11110111100110100000011110011000 0
b11110111100110100000011110011000 4
b10010001100110101110110100011011 F
b100000 G
b11011010101010010000001111010100 :
b11011010101010010000001111010100 D
b1000011001011111100001100111 5
b10011 @
b100101010101101111110000101011 E
1+
b1111011 T
#2520000000000000
0+
#2530000000000000
b1001011001010001001001010110101 F
b100000 G
b1101110011001010001001011100100 :
b1101110011001010001001011100100 D
b10010001100110101110110100011011 6
b100000 7
b11011010101010010000001111010100 0
b11011010101010010000001111010100 4
b10010001100110101110110100011011 E
b10100 @
b100101010101101111110000101011 5
1+
b1111100 T
#2540000000000000
0+
#2550000000000000
b1001011001010001001001010110101 6
b100000 7
b1101110011001010001001011100100 0
b1101110011001010001001011100100 4
b101100101000100100101011010100 F
b100000 G
b10110100110101110110110101001010 :
b10110100110101110110110101001010 D
b10010001100110101110110100011011 5
b10101 @
b1001011001010001001001010110101 E
1+
b1111101 T
#2560000000000000
0+
#2570000000000000
b10110110010010000011011011100111 F
b100000 G
b11010011010111011011010100101011 :
b11010011010111011011010100101011 D
b101100101000100100101011010100 6
b100000 7
b10110100110101110110110101001010 0
b10110100110101110110110101001010 4
b101100101000100100101011010100 E
b10110 @
b1001011001010001001001010110101 5
1+
b1111110 T
#2580000000000000
0+
#2590000000000000
b10110110010010000011011011100111 6
b100000 7
b11010011010111011011010100101011 0
b11010011010111011011010100101011 4
b11010100011000111111110101000101 F
b100000 G
b1001001101101111100100100011000 :
b1001001101101111100100100011000 D
b101100101000100100101011010100 5
b10111 @
b10110110010010000011011011100111 E
1+
b1111111 T
#2600000000000000
0+
#2610000000000000
b1011000000011011100111001111010 F
b100000 G
b101011100111000000001010111010 :
b101011100111000000001010111010 D
b11010100011000111111110101000101 6
b100000 7
b1001001101101111100100100011000 0
b1001001101101111100100100011000 4
b11010100011000111111110101000101 E
b101 B
b0 @
b10110110010010000011011011100111 5
1+
b10000000 T
#2620000000000000
0+
#2630000000000000
b1011000000011011100111001111010 6
b100000 7
b101011100111000000001010111010 0
b101011100111000000001010111010 4
b1100000001101110011100111101000 F
b100000 G
b10100111111100100011000110000101 :
b10100111111100100011000110000101 D
b11010100011000111111110101000101 5
b1 @
b1011000000011011100111001111010 E
1+
b10000001 T
#2640000000000000
0+
#2650000000000000
b10000000110111001110011110100000 F
b100000 G
b10011111110010001100011000010111 :
b10011111110010001100011000010111 D
b1100000001101110011100111101000 6
b100000 7
b10100111111100100011000110000101 0
b10100111111100100011000110000101 4
b1100000001101110011100111101000 E
b10 @
b1011000000011011100111001111010 5
1+
b10000010 T
#2660000000000000
0+
#2670000000000000
b10000000110111001110011110100000 6
b100000 7
b10011111110010001100011000010111 0
b10011111110010001100011000010111 4
b11 &
b11 A
b11 C
b11 P
b111101100101000001100110111 F
b100000 G
b1111111001000110001100001011111 :
b1111111001000110001100001011111 D
b1100000001101110011100111101000 5
b11 @
b10000000110111001110011110100000 E
1+
b10000011 T
#2680000000000000
0+
#2690000000000000
b10011100010010010101000000101 F
b100000 G
b11111000010011010111110011001000 :
b11111000010011010111110011001000 D
b111101100101000001100110111 6
b100000 7
b1111111001000110001100001011111 0
b1111111001000110001100001011111 4
b111101100101000001100110111 E
b100 @
b11 .
b11 3
b11 )
b11 Q
b10000000110111001110011110100000 5
1+
b10000100 T
#2700000000000000
0+
#2710000000000000
b10011100010010010101000000101 6
b100000 7
b11111000010011010111110011001000 0
b11111000010011010111110011001000 4
b0 &
b0 A
b0 C
b0 P
b1001110001001001010100000010100 F
b100000 G
b11101100011101101101010111111010 :
b11101100011101101101010111111010 D
b111101100101000001100110111 5
b101 @
b10011100010010010101000000101 E
1+
b10000101 T
#2720000000000000
0+
#2730000000000000
b110001000100001001101100111110 F
b100000 G
b10110001110110110101011111101011 :
b10110001110110110101011111101011 D
b11 &
b11 A
b11 C
b11 P
b1001110001001001010100000010100 6
b100000 7
b11101100011101101101010111111010 0
b11101100011101101101010111111010 4
b1001110001001001010100000010100 E
b110 @
b0 .
b0 3
b0 )
b0 Q
b10011100010010010101000000101 5
1+
b10000110 T
#2740000000000000
0+
#2750000000000000
b10110001110110110101011111101011 0
b10110001110110110101011111101011 4
b110001000100001001101100111110 6
b100000 7
0!
b1 &
b1 A
b1 C
b1 P
b11001101110000000101011110010110 F
b100000 G
b11001110111011110110010011000001 :
b11001110111011110110010011000001 D
b1001110001001001010100000010100 5
b11 .
b11 3
b11 )
b11 Q
b111 @
b110001000100001001101100111110 E
1+
b10000111 T
#2760000000000000
0+
#2770000000000000
b111010010000100111100010000001 F
b100000 G
b110010001111111010100001101001 :
b110010001111111010100001101001 D
b0 &
b0 A
b0 C
b0 P
b11001101110000000101011110010110 6
b100000 7
b11001110111011110110010011000001 0
b11001110111011110110010011000001 4
b1 I
b0 L
1"
b11001101110000000101011110010110 E
b110 B
b0 @
b1 .
b1 3
b1 )
b1 Q
b110001000100001001101100111110 5
1+
b10001000 T
#2780000000000000
0+
#2790000000000000
b110010001111111010100001101001 0
b110010001111111010100001101001 4
b111010010000100111100010000001 6
b100000 7
b11101001000010011110001000000100 F
b100000 G
b11000101101111011000011101111110 :
b11000101101111011000011101111110 D
b11001101110000000101011110010110 5
b0 .
b0 3
b0 )
b0 Q
b1 @
b111010010000100111100010000001 E
b10 I
b10 L
1+
b10001001 T
#2800000000000000
0+
#2810000000000000
b10101001011001001010111011001001 F
b100000 G
b10110111101100001110111111011 :
b10110111101100001110111111011 D
b11101001000010011110001000000100 6
b100000 7
b11000101101111011000011101111110 0
b11000101101111011000011101111110 4
b11 I
b100 L
b11101001000010011110001000000100 E
b10 @
b111010010000100111100010000001 5
1+
b10001010 T
#2820000000000000
0+
#2830000000000000
b10101001011001001010111011001001 6
b100000 7
b10110111101100001110111111011 0
b10110111101100001110111111011 4
b10101100000100001000000001001010 F
b100000 G
b1010110100110110101000100110110 :
b1010110100110110101000100110110 D
b11101001000010011110001000000100 5
b11 @
b10101001011001001010111011001001 E
b100 I
b110 L
1+
b10001011 T
#2840000000000000
0+
#2850000000000000
b10111001110000000011101001000110 F
b100000 G
b1010011111011110111111110110101 :
b1010011111011110111111110110101 D
b10101100000100001000000001001010 6
b100000 7
b1010110100110110101000100110110 0
b1010110100110110101000100110110 4
b101 I
b0 L
b10101100000100001000000001001010 E
b100 @
b10101001011001001010111011001001 5
1+
b10001100 T
#2860000000000000
0+
