SoundProductionTesting/obj/fir31.vcd
$date
	Thu Dec  1 10:05:38 2022
$end
$version
	Icarus Verilog
$end
$timescale
	1ps
$end
$scope module fir31_tb $end
$var wire 18 ! y [17:0] $end
$var reg 1 " clk $end
$var reg 1 # ready_in $end
$var reg 1 $ rst $end
$var reg 8 % x [7:0] $end
$scope module dut $end
$var wire 1 " clk_in $end
$var wire 1 # ready_in $end
$var wire 1 $ rst_in $end
$var wire 8 & x_in [7:0] $end
$var wire 10 ' coeff_out [9:0] $end
$var reg 18 ( accumulator [17:0] $end
$var reg 5 ) index [4:0] $end
$var reg 5 * offset [4:0] $end
$var reg 5 + probe [4:0] $end
$var reg 5 , sample_num [4:0] $end
$var reg 18 - y_out [17:0] $end
$scope module coeffs $end
$var wire 10 . coeff_out [9:0] $end
$var wire 5 / index_in [4:0] $end
$var reg 10 0 coeff [9:0] $end
$upscope $end
$scope begin $ivl_for_loop2 $end
$var integer 32 1 i [31:0] $end
$upscope $end
$upscope $end
$scope begin $ivl_for_loop0 $end
$var integer 32 2 i [31:0] $end
$upscope $end
$scope begin $ivl_for_loop1 $end
$var integer 32 3 i [31:0] $end
$upscope $end
$upscope $end
$enddefinitions $end
#0
$dumpvars
b0 3
b0 2
b0 1
bx 0
bx /
bx .
bx -
bx ,
bx +
bx *
bx )
bx (
bx '
bx &
bx %
0$
x#
0"
bx !
$end
#10000000000000
1"
#20000000000000
0"
1$
#30000000000000
b1111111111 '
b1111111111 .
b1111111111 0
b0 (
b0 )
b0 /
b0 !
b0 -
b0 *
b100000 1
1"
#40000000000000
0"
0$
#50000000000000
b0 ,
b1 *
1"
1#
b0 %
b0 &
#60000000000000
0"
#70000000000000
b0 +
b1 ,
b1 )
b1 /
1"
0#
#80000000000000
0"
#90000000000000
b1111111101 '
b1111111101 .
b1111111101 0
b0 ,
b10 )
b10 /
1"
b1 2
#100000000000000
0"
#110000000000000
b1111111011 '
b1111111011 .
b1111111011 0
b11111 ,
b11 )
b11 /
1"
b10 2
#120000000000000
0"
#130000000000000
b1111111010 '
b1111111010 .
b1111111010 0
b11110 ,
b100 )
b100 /
1"
b11 2
#140000000000000
0"
#150000000000000
b1111111001 '
b1111111001 .
b1111111001 0
b11101 ,
b101 )
b101 /
1"
b100 2
#160000000000000
0"
#170000000000000
b1111111011 '
b1111111011 .
b1111111011 0
b11100 ,
b110 )
b110 /
1"
b101 2
#180000000000000
0"
#190000000000000
b0 '
b0 .
b0 0
b11011 ,
b111 )
b111 /
1"
b110 2
#200000000000000
0"
#210000000000000
b1010 '
b1010 .
b1010 0
b11010 ,
b1000 )
b1000 /
1"
b111 2
#220000000000000
0"
#230000000000000
b11010 '
b11010 .
b11010 0
b11001 ,
b1001 )
b1001 /
1"
b1000 2
#240000000000000
0"
#250000000000000
b101110 '
b101110 .
b101110 0
b11000 ,
b1010 )
b1010 /
1"
b1001 2
#260000000000000
0"
#270000000000000
b1000101 '
b1000101 .
b1000101 0
b10111 ,
b1011 )
b1011 /
1"
b1010 2
#280000000000000
0"
#290000000000000
b1011011 '
b1011011 .
b1011011 0
b10110 ,
b1100 )
b1100 /
1"
b1011 2
#300000000000000
0"
#310000000000000
b1101110 '
b1101110 .
b1101110 0
b10101 ,
b1101 )
b1101 /
1"
b1100 2
#320000000000000
0"
#330000000000000
b1111011 '
b1111011 .
b1111011 0
b10100 ,
b1110 )
b1110 /
1"
b1101 2
#340000000000000
0"
#350000000000000
b10000000 '
b10000000 .
b10000000 0
b10011 ,
b1111 )
b1111 /
1"
b1110 2
#360000000000000
0"
#370000000000000
b1111011 '
b1111011 .
b1111011 0
b10010 ,
b10000 )
b10000 /
1"
b1111 2
#380000000000000
0"
#390000000000000
b1101110 '
b1101110 .
b1101110 0
b10001 ,
b10001 )
b10001 /
1"
b10000 2
#400000000000000
0"
#410000000000000
b1011011 '
b1011011 .
b1011011 0
b10000 ,
b10010 )
b10010 /
1"
b10001 2
#420000000000000
0"
#430000000000000
b1000101 '
b1000101 .
b1000101 0
b1111 ,
b10011 )
b10011 /
1"
b10010 2
#440000000000000
0"
#450000000000000
b101110 '
b101110 .
b101110 0
b1110 ,
b10100 )
b10100 /
1"
b10011 2
#460000000000000
0"
#470000000000000
b11010 '
b11010 .
b11010 0
b1101 ,
b10101 )
b10101 /
1"
b10100 2
#480000000000000
0"
#490000000000000
b1010 '
b1010 .
b1010 0
b1100 ,
b10110 )
b10110 /
1"
b10101 2
#500000000000000
0"
#510000000000000
b0 '
b0 .
b0 0
b1011 ,
b10111 )
b10111 /
1"
b10110 2
#520000000000000
0"
#530000000000000
b1111111011 '
b1111111011 .
b1111111011 0
b1010 ,
b11000 )
b11000 /
1"
b10111 2
#540000000000000
0"
#550000000000000
b1111111001 '
b1111111001 .
b1111111001 0
b1001 ,
b11001 )
b11001 /
1"
b11000 2
#560000000000000
0"
#570000000000000
b1111111010 '
b1111111010 .
b1111111010 0
b1000 ,
b11010 )
b11010 /
1"
b11001 2
#580000000000000
0"
#590000000000000
b1111111011 '
b1111111011 .
b1111111011 0
b111 ,
b11011 )
b11011 /
1"
b11010 2
#600000000000000
0"
#610000000000000
b1111111101 '
b1111111101 .
b1111111101 0
b110 ,
b11100 )
b11100 /
1"
b11011 2
#620000000000000
0"
#630000000000000
b1111111111 '
b1111111111 .
b1111111111 0
b101 ,
b11101 )
b11101 /
1"
b11100 2
#640000000000000
0"
#650000000000000
b100 ,
b11110 )
b11110 /
1"
b11101 2
#660000000000000
0"
#670000000000000
b11 ,
1"
b11110 2
#680000000000000
0"
#690000000000000
1"
b11111 2
#700000000000000
0"
#710000000000000
b0 )
b0 /
b10 *
1"
b1 %
b1 &
1#
b100000 2
#720000000000000
0"
#730000000000000
b10 ,
b1 )
b1 /
1"
b0 %
b0 &
0#
#740000000000000
0"
#750000000000000
b1111111101 '
b1111111101 .
b1111111101 0
b1 ,
b10 )
b10 /
1"
#760000000000000
0"
#770000000000000
b1111111011 '
b1111111011 .
b1111111011 0
b111111111111111101 (
b11101 +
b0 ,
b11 )
b11 /
1"
b1 3
#780000000000000
0"
#790000000000000
b1111111010 '
b1111111010 .
b1111111010 0
b0 +
b11111 ,
b100 )
b100 /
1"
b10 3
#800000000000000
0"
#810000000000000
b1111111001 '
b1111111001 .
b1111111001 0
b11110 ,
b101 )
b101 /
1"
b11 3
#820000000000000
0"
#830000000000000
b1111111011 '
b1111111011 .
b1111111011 0
b11101 ,
b110 )
b110 /
1"
b100 3
#840000000000000
0"
#850000000000000
b0 '
b0 .
b0 0
b11100 ,
b111 )
b111 /
1"
b101 3
#860000000000000
0"
#870000000000000
b1010 '
b1010 .
b1010 0
b11011 ,
b1000 )
b1000 /
1"
b110 3
#880000000000000
0"
#890000000000000
b11010 '
b11010 .
b11010 0
b11010 ,
b1001 )
b1001 /
1"
b111 3
#900000000000000
0"
#910000000000000
b101110 '
b101110 .
b101110 0
b11001 ,
b1010 )
b1010 /
1"
b1000 3
#920000000000000
0"
#930000000000000
b1000101 '
b1000101 .
b1000101 0
b11000 ,
b1011 )
b1011 /
1"
b1001 3
#940000000000000
0"
#950000000000000
b1011011 '
b1011011 .
b1011011 0
b10111 ,
b1100 )
b1100 /
1"
b1010 3
#960000000000000
0"
#970000000000000
b1101110 '
b1101110 .
b1101110 0
b10110 ,
b1101 )
b1101 /
1"
b1011 3
#980000000000000
0"
#990000000000000
b1111011 '
b1111011 .
b1111011 0
b10101 ,
b1110 )
b1110 /
1"
b1100 3
#1000000000000000
0"
#1010000000000000
b10000000 '
b10000000 .
b10000000 0
b10100 ,
b1111 )
b1111 /
1"
b1101 3
#1020000000000000
0"
#1030000000000000
b1111011 '
b1111011 .
b1111011 0
b10011 ,
b10000 )
b10000 /
1"
b1110 3
#1040000000000000
0"
#1050000000000000
b1101110 '
b1101110 .
b1101110 0
b10010 ,
b10001 )
b10001 /
1"
b1111 3
#1060000000000000
0"
#1070000000000000
b1011011 '
b1011011 .
b1011011 0
b10001 ,
b10010 )
b10010 /
1"
b10000 3
#1080000000000000
0"
#1090000000000000
b1000101 '
b1000101 .
b1000101 0
b10000 ,
b10011 )
b10011 /
1"
b10001 3
#1100000000000000
0"
#1110000000000000
b101110 '
b101110 .
b101110 0
b1111 ,
b10100 )
b10100 /
1"
b10010 3
#1120000000000000
0"
#1130000000000000
b11010 '
b11010 .
b11010 0
b1110 ,
b10101 )
b10101 /
1"
b10011 3
#1140000000000000
0"
#1150000000000000
b1010 '
b1010 .
b1010 0
b1101 ,
b10110 )
b10110 /
1"
b10100 3
#1160000000000000
0"
#1170000000000000
b0 '
b0 .
b0 0
b1100 ,
b10111 )
b10111 /
1"
b10101 3
#1180000000000000
0"
#1190000000000000
b1111111011 '
b1111111011 .
b1111111011 0
b1011 ,
b11000 )
b11000 /
1"
b10110 3
#1200000000000000
0"
#1210000000000000
b1111111001 '
b1111111001 .
b1111111001 0
b1010 ,
b11001 )
b11001 /
1"
b10111 3
#1220000000000000
0"
#1230000000000000
b1111111010 '
b1111111010 .
b1111111010 0
b1001 ,
b11010 )
b11010 /
1"
b11000 3
#1240000000000000
0"
#1250000000000000
b1111111011 '
b1111111011 .
b1111111011 0
b1000 ,
b11011 )
b11011 /
1"
b11001 3
#1260000000000000
0"
#1270000000000000
b1111111101 '
b1111111101 .
b1111111101 0
b111 ,
b11100 )
b11100 /
1"
b11010 3
#1280000000000000
0"
#1290000000000000
b1111111111 '
b1111111111 .
b1111111111 0
b110 ,
b11101 )
b11101 /
1"
b11011 3
#1300000000000000
0"
#1310000000000000
b101 ,
b11110 )
b11110 /
1"
b11100 3
#1320000000000000
0"
#1330000000000000
b111111111111111101 !
b111111111111111101 -
b100 ,
1"
b11101 3
#1340000000000000
0"
#1350000000000000
1"
b11110 3
#1360000000000000
0"
#1370000000000000
1"
b11111 3
